%YAML 1.1
%TAG !u! tag:unity3d.com,2011:
--- !u!114 &11400000
MonoBehaviour:
  m_ObjectHideFlags: 0
  m_CorrespondingSourceObject: {fileID: 0}
  m_PrefabInstance: {fileID: 0}
  m_PrefabAsset: {fileID: 0}
  m_GameObject: {fileID: 0}
  m_Enabled: 1
  m_EditorHideFlags: 0
  m_Script: {fileID: 11500000, guid: a91e2363f15f7724d91ff98a56a30a95, type: 3}
  m_Name: Player Health Max
  m_EditorClassIdentifier: 
  _id: c5a7f85e-b7a5-4660-86c0-c328f02ef573
  _isConstant: 1
  _triggerEvents: 0
  _value: 3
