%YAML 1.1
%TAG !u! tag:unity3d.com,2011:
--- !u!114 &11400000
MonoBehaviour:
  m_ObjectHideFlags: 0
  m_CorrespondingSourceObject: {fileID: 0}
  m_PrefabInstance: {fileID: 0}
  m_PrefabAsset: {fileID: 0}
  m_GameObject: {fileID: 0}
  m_Enabled: 1
  m_EditorHideFlags: 0
  m_Script: {fileID: 11500000, guid: b1e33358351766441bdf54f6d6484870, type: 3}
  m_Name: Player Lowest Allowed Position
  m_EditorClassIdentifier: 
  _id: a6f13e14-acf2-4b85-8afe-7e4e9d9d7e4a
  _isConstant: 1
  _triggerEvents: 0
  _value: -25
