%YAML 1.1
%TAG !u! tag:unity3d.com,2011:
--- !u!1 &8026091845729653026
GameObject:
  m_ObjectHideFlags: 0
  m_CorrespondingSourceObject: {fileID: 0}
  m_PrefabInstance: {fileID: 0}
  m_PrefabAsset: {fileID: 0}
  serializedVersion: 6
  m_Component:
  - component: {fileID: 8026091845729653025}
  m_Layer: 0
  m_Name: Dynamic Portal Door
  m_TagString: Untagged
  m_Icon: {fileID: 0}
  m_NavMeshLayer: 0
  m_StaticEditorFlags: 0
  m_IsActive: 1
--- !u!4 &8026091845729653025
Transform:
  m_ObjectHideFlags: 0
  m_CorrespondingSourceObject: {fileID: 0}
  m_PrefabInstance: {fileID: 0}
  m_PrefabAsset: {fileID: 0}
  m_GameObject: {fileID: 8026091845729653026}
  m_LocalRotation: {x: 0, y: 0, z: 0, w: 1}
  m_LocalPosition: {x: 0, y: 0, z: 0}
  m_LocalScale: {x: 1, y: 1, z: 1}
  m_ConstrainProportionsScale: 0
  m_Children:
  - {fileID: 8474862174448924693}
  m_Father: {fileID: 0}
  m_RootOrder: 0
  m_LocalEulerAnglesHint: {x: 0, y: 0, z: 0}
--- !u!1001 &8026091843953593699
PrefabInstance:
  m_ObjectHideFlags: 0
  serializedVersion: 2
  m_Modification:
    m_TransformParent: {fileID: 8026091845729653025}
    m_Modifications:
    - target: {fileID: 1945179266104862994, guid: c9641c4689d2e8e4c9580e717f208ab9,
        type: 3}
      propertyPath: m_Size.z
      value: 0.45
      objectReference: {fileID: 0}
    - target: {fileID: 1945179266104862994, guid: c9641c4689d2e8e4c9580e717f208ab9,
        type: 3}
      propertyPath: m_Center.z
      value: 0.1
      objectReference: {fileID: 0}
    - target: {fileID: 1945179267938628981, guid: c9641c4689d2e8e4c9580e717f208ab9,
        type: 3}
      propertyPath: m_Name
      value: Dynamic Portal
      objectReference: {fileID: 0}
    - target: {fileID: 1945179267938628982, guid: c9641c4689d2e8e4c9580e717f208ab9,
        type: 3}
      propertyPath: m_RootOrder
      value: 0
      objectReference: {fileID: 0}
    - target: {fileID: 1945179267938628982, guid: c9641c4689d2e8e4c9580e717f208ab9,
        type: 3}
      propertyPath: m_LocalScale.x
      value: 1
      objectReference: {fileID: 0}
    - target: {fileID: 1945179267938628982, guid: c9641c4689d2e8e4c9580e717f208ab9,
        type: 3}
      propertyPath: m_LocalScale.y
      value: 2.15
      objectReference: {fileID: 0}
    - target: {fileID: 1945179267938628982, guid: c9641c4689d2e8e4c9580e717f208ab9,
        type: 3}
      propertyPath: m_LocalPosition.x
      value: 0
      objectReference: {fileID: 0}
    - target: {fileID: 1945179267938628982, guid: c9641c4689d2e8e4c9580e717f208ab9,
        type: 3}
      propertyPath: m_LocalPosition.y
      value: 1.075
      objectReference: {fileID: 0}
    - target: {fileID: 1945179267938628982, guid: c9641c4689d2e8e4c9580e717f208ab9,
        type: 3}
      propertyPath: m_LocalPosition.z
      value: 0
      objectReference: {fileID: 0}
    - target: {fileID: 1945179267938628982, guid: c9641c4689d2e8e4c9580e717f208ab9,
        type: 3}
      propertyPath: m_LocalRotation.w
      value: 1
      objectReference: {fileID: 0}
    - target: {fileID: 1945179267938628982, guid: c9641c4689d2e8e4c9580e717f208ab9,
        type: 3}
      propertyPath: m_LocalRotation.x
      value: 0
      objectReference: {fileID: 0}
    - target: {fileID: 1945179267938628982, guid: c9641c4689d2e8e4c9580e717f208ab9,
        type: 3}
      propertyPath: m_LocalRotation.y
      value: 0
      objectReference: {fileID: 0}
    - target: {fileID: 1945179267938628982, guid: c9641c4689d2e8e4c9580e717f208ab9,
        type: 3}
      propertyPath: m_LocalRotation.z
      value: 0
      objectReference: {fileID: 0}
    - target: {fileID: 1945179267938628982, guid: c9641c4689d2e8e4c9580e717f208ab9,
        type: 3}
      propertyPath: m_LocalEulerAnglesHint.x
      value: 0
      objectReference: {fileID: 0}
    - target: {fileID: 1945179267938628982, guid: c9641c4689d2e8e4c9580e717f208ab9,
        type: 3}
      propertyPath: m_LocalEulerAnglesHint.y
      value: 0
      objectReference: {fileID: 0}
    - target: {fileID: 1945179267938628982, guid: c9641c4689d2e8e4c9580e717f208ab9,
        type: 3}
      propertyPath: m_LocalEulerAnglesHint.z
      value: 0
      objectReference: {fileID: 0}
    - target: {fileID: 4339961703294307118, guid: c9641c4689d2e8e4c9580e717f208ab9,
        type: 3}
      propertyPath: _portalId
      value: 
      objectReference: {fileID: 0}
    - target: {fileID: 4612631787542419531, guid: c9641c4689d2e8e4c9580e717f208ab9,
        type: 3}
      propertyPath: m_IsActive
      value: 0
      objectReference: {fileID: 0}
    m_RemovedComponents: []
  m_SourcePrefab: {fileID: 100100000, guid: c9641c4689d2e8e4c9580e717f208ab9, type: 3}
--- !u!1 &8474862172632282632 stripped
GameObject:
  m_CorrespondingSourceObject: {fileID: 1945179265987771243, guid: c9641c4689d2e8e4c9580e717f208ab9,
    type: 3}
  m_PrefabInstance: {fileID: 8026091843953593699}
  m_PrefabAsset: {fileID: 0}
--- !u!114 &7188579306608030392
MonoBehaviour:
  m_ObjectHideFlags: 0
  m_CorrespondingSourceObject: {fileID: 0}
  m_PrefabInstance: {fileID: 0}
  m_PrefabAsset: {fileID: 0}
  m_GameObject: {fileID: 8474862172632282632}
  m_Enabled: 1
  m_EditorHideFlags: 0
  m_Script: {fileID: 11500000, guid: 1e3fdca004f2d45fe8abbed571a8abd5, type: 3}
  m_Name: 
  m_EditorClassIdentifier: 
  m_OverrideArea: 0
  m_Area: 0
  m_IgnoreFromBuild: 1
  m_AffectedAgents: ffffffff
--- !u!4 &8474862174448924693 stripped
Transform:
  m_CorrespondingSourceObject: {fileID: 1945179267938628982, guid: c9641c4689d2e8e4c9580e717f208ab9,
    type: 3}
  m_PrefabInstance: {fileID: 8026091843953593699}
  m_PrefabAsset: {fileID: 0}
