%YAML 1.1
%TAG !u! tag:unity3d.com,2011:
--- !u!1001 &2019062168180175725
PrefabInstance:
  m_ObjectHideFlags: 0
  serializedVersion: 2
  m_Modification:
    m_TransformParent: {fileID: 0}
    m_Modifications:
    - target: {fileID: 8026091845729653025, guid: 4741acbcdb637fc4fb89499934f97af5,
        type: 3}
      propertyPath: m_RootOrder
      value: 0
      objectReference: {fileID: 0}
    - target: {fileID: 8026091845729653025, guid: 4741acbcdb637fc4fb89499934f97af5,
        type: 3}
      propertyPath: m_LocalPosition.x
      value: 0
      objectReference: {fileID: 0}
    - target: {fileID: 8026091845729653025, guid: 4741acbcdb637fc4fb89499934f97af5,
        type: 3}
      propertyPath: m_LocalPosition.y
      value: 0
      objectReference: {fileID: 0}
    - target: {fileID: 8026091845729653025, guid: 4741acbcdb637fc4fb89499934f97af5,
        type: 3}
      propertyPath: m_LocalPosition.z
      value: 0
      objectReference: {fileID: 0}
    - target: {fileID: 8026091845729653025, guid: 4741acbcdb637fc4fb89499934f97af5,
        type: 3}
      propertyPath: m_LocalRotation.w
      value: 1
      objectReference: {fileID: 0}
    - target: {fileID: 8026091845729653025, guid: 4741acbcdb637fc4fb89499934f97af5,
        type: 3}
      propertyPath: m_LocalRotation.x
      value: 0
      objectReference: {fileID: 0}
    - target: {fileID: 8026091845729653025, guid: 4741acbcdb637fc4fb89499934f97af5,
        type: 3}
      propertyPath: m_LocalRotation.y
      value: 0
      objectReference: {fileID: 0}
    - target: {fileID: 8026091845729653025, guid: 4741acbcdb637fc4fb89499934f97af5,
        type: 3}
      propertyPath: m_LocalRotation.z
      value: 0
      objectReference: {fileID: 0}
    - target: {fileID: 8026091845729653025, guid: 4741acbcdb637fc4fb89499934f97af5,
        type: 3}
      propertyPath: m_LocalEulerAnglesHint.x
      value: 0
      objectReference: {fileID: 0}
    - target: {fileID: 8026091845729653025, guid: 4741acbcdb637fc4fb89499934f97af5,
        type: 3}
      propertyPath: m_LocalEulerAnglesHint.y
      value: 0
      objectReference: {fileID: 0}
    - target: {fileID: 8026091845729653025, guid: 4741acbcdb637fc4fb89499934f97af5,
        type: 3}
      propertyPath: m_LocalEulerAnglesHint.z
      value: 0
      objectReference: {fileID: 0}
    - target: {fileID: 8026091845729653026, guid: 4741acbcdb637fc4fb89499934f97af5,
        type: 3}
      propertyPath: m_Name
      value: Dynamic Portal Door - Landing
      objectReference: {fileID: 0}
    m_RemovedComponents: []
  m_SourcePrefab: {fileID: 100100000, guid: 4741acbcdb637fc4fb89499934f97af5, type: 3}
--- !u!1 &7609364175472757627 stripped
GameObject:
  m_CorrespondingSourceObject: {fileID: 8474862174448924694, guid: 4741acbcdb637fc4fb89499934f97af5,
    type: 3}
  m_PrefabInstance: {fileID: 2019062168180175725}
  m_PrefabAsset: {fileID: 0}
--- !u!114 &6987501325926980614
MonoBehaviour:
  m_ObjectHideFlags: 0
  m_CorrespondingSourceObject: {fileID: 0}
  m_PrefabInstance: {fileID: 0}
  m_PrefabAsset: {fileID: 0}
  m_GameObject: {fileID: 7609364175472757627}
  m_Enabled: 1
  m_EditorHideFlags: 0
  m_Script: {fileID: 11500000, guid: cc19cf8dc1779014fb0e6ff9f28357db, type: 3}
  m_Name: 
  m_EditorClassIdentifier: 
  _zoneEntrance: -100
  _allowedDestinationTypes: 
