%YAML 1.1
%TAG !u! tag:unity3d.com,2011:
--- !u!1 &477932900371325218
GameObject:
  m_ObjectHideFlags: 0
  m_CorrespondingSourceObject: {fileID: 0}
  m_PrefabInstance: {fileID: 0}
  m_PrefabAsset: {fileID: 0}
  serializedVersion: 6
  m_Component:
  - component: {fileID: 477932900371325219}
  m_Layer: 0
  m_Name: Static Portal Door
  m_TagString: Untagged
  m_Icon: {fileID: 0}
  m_NavMeshLayer: 0
  m_StaticEditorFlags: 0
  m_IsActive: 1
--- !u!4 &477932900371325219
Transform:
  m_ObjectHideFlags: 0
  m_CorrespondingSourceObject: {fileID: 0}
  m_PrefabInstance: {fileID: 0}
  m_PrefabAsset: {fileID: 0}
  m_GameObject: {fileID: 477932900371325218}
  m_LocalRotation: {x: 0, y: 0, z: 0, w: 1}
  m_LocalPosition: {x: 0, y: 0, z: 0}
  m_LocalScale: {x: 1, y: 1, z: 1}
  m_Children:
  - {fileID: 2044457537279703313}
  m_Father: {fileID: 0}
  m_RootOrder: 0
  m_LocalEulerAnglesHint: {x: 0, y: 0, z: 0}
--- !u!1001 &477932899715419239
PrefabInstance:
  m_ObjectHideFlags: 0
  serializedVersion: 2
  m_Modification:
    m_TransformParent: {fileID: 477932900371325219}
    m_Modifications:
    - target: {fileID: 1945179267938628981, guid: 354a5f6d6252c974a9b08972a8c45204,
        type: 3}
      propertyPath: m_Name
      value: Static Portal
      objectReference: {fileID: 0}
    - target: {fileID: 1945179267938628982, guid: 354a5f6d6252c974a9b08972a8c45204,
        type: 3}
      propertyPath: m_RootOrder
      value: 0
      objectReference: {fileID: 0}
    - target: {fileID: 1945179267938628982, guid: 354a5f6d6252c974a9b08972a8c45204,
        type: 3}
      propertyPath: m_LocalScale.x
      value: 1
      objectReference: {fileID: 0}
    - target: {fileID: 1945179267938628982, guid: 354a5f6d6252c974a9b08972a8c45204,
        type: 3}
      propertyPath: m_LocalScale.y
      value: 2.15
      objectReference: {fileID: 0}
    - target: {fileID: 1945179267938628982, guid: 354a5f6d6252c974a9b08972a8c45204,
        type: 3}
      propertyPath: m_LocalPosition.x
      value: 0
      objectReference: {fileID: 0}
    - target: {fileID: 1945179267938628982, guid: 354a5f6d6252c974a9b08972a8c45204,
        type: 3}
      propertyPath: m_LocalPosition.y
      value: 1.075
      objectReference: {fileID: 0}
    - target: {fileID: 1945179267938628982, guid: 354a5f6d6252c974a9b08972a8c45204,
        type: 3}
      propertyPath: m_LocalPosition.z
      value: 0
      objectReference: {fileID: 0}
    - target: {fileID: 1945179267938628982, guid: 354a5f6d6252c974a9b08972a8c45204,
        type: 3}
      propertyPath: m_LocalRotation.w
      value: 1
      objectReference: {fileID: 0}
    - target: {fileID: 1945179267938628982, guid: 354a5f6d6252c974a9b08972a8c45204,
        type: 3}
      propertyPath: m_LocalRotation.x
      value: 0
      objectReference: {fileID: 0}
    - target: {fileID: 1945179267938628982, guid: 354a5f6d6252c974a9b08972a8c45204,
        type: 3}
      propertyPath: m_LocalRotation.y
      value: 0
      objectReference: {fileID: 0}
    - target: {fileID: 1945179267938628982, guid: 354a5f6d6252c974a9b08972a8c45204,
        type: 3}
      propertyPath: m_LocalRotation.z
      value: 0
      objectReference: {fileID: 0}
    - target: {fileID: 1945179267938628982, guid: 354a5f6d6252c974a9b08972a8c45204,
        type: 3}
      propertyPath: m_LocalEulerAnglesHint.x
      value: 0
      objectReference: {fileID: 0}
    - target: {fileID: 1945179267938628982, guid: 354a5f6d6252c974a9b08972a8c45204,
        type: 3}
      propertyPath: m_LocalEulerAnglesHint.y
      value: 0
      objectReference: {fileID: 0}
    - target: {fileID: 1945179267938628982, guid: 354a5f6d6252c974a9b08972a8c45204,
        type: 3}
      propertyPath: m_LocalEulerAnglesHint.z
      value: 0
      objectReference: {fileID: 0}
    - target: {fileID: 1945179267938628983, guid: 354a5f6d6252c974a9b08972a8c45204,
        type: 3}
      propertyPath: _openOnAwake
      value: 1
      objectReference: {fileID: 0}
    m_RemovedComponents: []
  m_SourcePrefab: {fileID: 100100000, guid: 354a5f6d6252c974a9b08972a8c45204, type: 3}
--- !u!4 &2044457537279703313 stripped
Transform:
  m_CorrespondingSourceObject: {fileID: 1945179267938628982, guid: 354a5f6d6252c974a9b08972a8c45204,
    type: 3}
  m_PrefabInstance: {fileID: 477932899715419239}
  m_PrefabAsset: {fileID: 0}
