%YAML 1.1
%TAG !u! tag:unity3d.com,2011:
--- !u!1001 &7356373112118353976
PrefabInstance:
  m_ObjectHideFlags: 0
  serializedVersion: 2
  m_Modification:
    m_TransformParent: {fileID: 0}
    m_Modifications:
    - target: {fileID: 2775380815168265803, guid: 97ca9b1d34afc2e4296a12d891a5f136,
        type: 3}
      propertyPath: m_Range
      value: 5
      objectReference: {fileID: 0}
    - target: {fileID: 8327159830592657237, guid: 97ca9b1d34afc2e4296a12d891a5f136,
        type: 3}
      propertyPath: m_Name
      value: Lamp_cellar_wall Variant
      objectReference: {fileID: 0}
    - target: {fileID: 8708786385975299567, guid: 97ca9b1d34afc2e4296a12d891a5f136,
        type: 3}
      propertyPath: m_RootOrder
      value: 0
      objectReference: {fileID: 0}
    - target: {fileID: 8708786385975299567, guid: 97ca9b1d34afc2e4296a12d891a5f136,
        type: 3}
      propertyPath: m_LocalPosition.x
      value: 0
      objectReference: {fileID: 0}
    - target: {fileID: 8708786385975299567, guid: 97ca9b1d34afc2e4296a12d891a5f136,
        type: 3}
      propertyPath: m_LocalPosition.y
      value: 0
      objectReference: {fileID: 0}
    - target: {fileID: 8708786385975299567, guid: 97ca9b1d34afc2e4296a12d891a5f136,
        type: 3}
      propertyPath: m_LocalPosition.z
      value: 0
      objectReference: {fileID: 0}
    - target: {fileID: 8708786385975299567, guid: 97ca9b1d34afc2e4296a12d891a5f136,
        type: 3}
      propertyPath: m_LocalRotation.w
      value: 1
      objectReference: {fileID: 0}
    - target: {fileID: 8708786385975299567, guid: 97ca9b1d34afc2e4296a12d891a5f136,
        type: 3}
      propertyPath: m_LocalRotation.x
      value: 0
      objectReference: {fileID: 0}
    - target: {fileID: 8708786385975299567, guid: 97ca9b1d34afc2e4296a12d891a5f136,
        type: 3}
      propertyPath: m_LocalRotation.y
      value: 0
      objectReference: {fileID: 0}
    - target: {fileID: 8708786385975299567, guid: 97ca9b1d34afc2e4296a12d891a5f136,
        type: 3}
      propertyPath: m_LocalRotation.z
      value: 0
      objectReference: {fileID: 0}
    - target: {fileID: 8708786385975299567, guid: 97ca9b1d34afc2e4296a12d891a5f136,
        type: 3}
      propertyPath: m_LocalEulerAnglesHint.x
      value: 0
      objectReference: {fileID: 0}
    - target: {fileID: 8708786385975299567, guid: 97ca9b1d34afc2e4296a12d891a5f136,
        type: 3}
      propertyPath: m_LocalEulerAnglesHint.y
      value: 0
      objectReference: {fileID: 0}
    - target: {fileID: 8708786385975299567, guid: 97ca9b1d34afc2e4296a12d891a5f136,
        type: 3}
      propertyPath: m_LocalEulerAnglesHint.z
      value: 0
      objectReference: {fileID: 0}
    m_RemovedComponents: []
  m_SourcePrefab: {fileID: 100100000, guid: 97ca9b1d34afc2e4296a12d891a5f136, type: 3}
