%YAML 1.1
%TAG !u! tag:unity3d.com,2011:
--- !u!114 &11400000
MonoBehaviour:
  m_ObjectHideFlags: 0
  m_CorrespondingSourceObject: {fileID: 0}
  m_PrefabInstance: {fileID: 0}
  m_PrefabAsset: {fileID: 0}
  m_GameObject: {fileID: 0}
  m_Enabled: 1
  m_EditorHideFlags: 0
  m_Script: {fileID: 11500000, guid: 75b754fe5e2a62c4ab779a0df4ac64ed, type: 3}
  m_Name: Hallway
  m_EditorClassIdentifier: 
  _id: 0bd8dfa1-e455-4d6e-b66f-e47c4715748b
  _sceneBuildIndex: 5
  _description: Hallway
  _spaceDataComponents:
  - rid: 0
  - rid: 1
  - rid: 2
  references:
    version: 2
    RefIds:
    - rid: 0
      type: {class: PlayerSpawnDataComponent, ns: Game.Player, asm: Game}
      data:
        _position: {x: 0, y: 0, z: 0}
        _rotation: {x: 0, y: 0.70710677, z: 0, w: 0.70710677}
    - rid: 1
      type: {class: HauntDataComponent, ns: Game.World.Haunt.Data, asm: Game}
      data:
        _passiveHauntRate:
          _useInline: 0
          _inlineValue: 0
          _variable: {fileID: 11400000, guid: a47101efd1d831e40b0014d6a0e3df58, type: 2}
        _minHauntLevelAmbientLight:
          _useInline: 0
          _inlineValue: {r: 0, g: 0, b: 0, a: 0}
          _variable: {fileID: 11400000, guid: e7cfde42b5360654393ba757fcae3242, type: 2}
        _maxHauntLevelAmbientLight:
          _useInline: 0
          _inlineValue: {r: 0, g: 0, b: 0, a: 0}
          _variable: {fileID: 11400000, guid: dab66dfba44b69b4cacb3d63ee4852b6, type: 2}
        _hauntMonsterSpawns: []
        _maxHauntTraps:
          _useInline: 0
          _inlineValue: 0
          _variable: {fileID: 11400000, guid: 7c3bf2cc841adbd43ab4f191c910b076, type: 2}
        _hauntTrapSpawns:
        - _position: {x: -0.68, y: 0, z: -0.8}
          _rotation: {x: 0, y: 0.20611882, z: 0, w: -0.97852695}
        - _position: {x: 0.73, y: 0, z: 4.82}
          _rotation: {x: 0, y: 0.40992305, z: 0, w: 0.9121201}
        - _position: {x: 0.52, y: 0, z: -3.9}
          _rotation: {x: 0, y: 0.96395624, z: 0, w: 0.26606092}
    - rid: 2
      type: {class: WorldBuilderDataComponent, ns: Game.World.Builder.Data, asm: Game}
      data:
        _worldEntrance:
          _useInline: 1
          _inlineValue: 0
          _variable: {fileID: 0}
        _roomType: 0
        _allowedZones: 0000000001000000
        _maxLinkedSpaces:
          _useInline: 1
          _inlineValue: 3
          _variable: {fileID: 0}
        _dynamicPortals:
        - _portalId: f9a47932-1461-49c1-bc9d-31e9349f5bb8
          _worldEntrance: 0
          _zoneEntrance: -100
          _allowedDestinationTypes: 
          _portalPosition: {x: 0, y: 1.075, z: -6.5}
          _portalRotation: {x: -0, y: 1, z: -0, w: 0}
          _portalScale: {x: 1, y: 2.15, z: 1}
        - _portalId: daaefba9-e2cd-4023-a80c-712654bd9aa7
          _worldEntrance: 0
          _zoneEntrance: -100
          _allowedDestinationTypes: 
          _portalPosition: {x: 0, y: 1.075, z: 6.5}
          _portalRotation: {x: -0, y: -0, z: -0, w: 1}
          _portalScale: {x: 1, y: 2.15, z: 1}
        - _portalId: b51da866-66c9-4873-b113-b46b533e6658
          _worldEntrance: 0
          _zoneEntrance: -100
          _allowedDestinationTypes: 
          _portalPosition: {x: 1.5, y: 1.075, z: 0}
          _portalRotation: {x: -0, y: 0.7071068, z: -0, w: 0.7071068}
          _portalScale: {x: 1.0000002, y: 2.15, z: 1.0000002}
