%YAML 1.1
%TAG !u! tag:unity3d.com,2011:
--- !u!114 &11400000
MonoBehaviour:
  m_ObjectHideFlags: 0
  m_CorrespondingSourceObject: {fileID: 0}
  m_PrefabInstance: {fileID: 0}
  m_PrefabAsset: {fileID: 0}
  m_GameObject: {fileID: 0}
  m_Enabled: 1
  m_EditorHideFlags: 0
  m_Script: {fileID: 11500000, guid: f8fbe7fd08289b144a5b2dacca63ae5d, type: 3}
  m_Name: Plastic Shot Event
  m_EditorClassIdentifier: 
  _effectAddress:
    _useInline: 1
    _inlineValue: Effects/Plastic/Gun Impact
    _variable: {fileID: 0}
