{
    "name": "Game.UI",
    "rootNamespace": "",
    "references": [
        "GUID:455e1343b0d7140408ce9e30464f80e7",
        "GUID:6055be8ebefd69e48b49212b09b47b2f",
        "GUID:f51ebe6a0ceec4240a699833d6309b23"
    ],
    "includePlatforms": [],
    "excludePlatforms": [],
    "allowUnsafeCode": false,
    "overrideReferences": false,
    "precompiledReferences": [],
    "autoReferenced": true,
    "defineConstraints": [],
    "versionDefines": [],
    "noEngineReferences": false
}