%YAML 1.1
%TAG !u! tag:unity3d.com,2011:
--- !u!1001 &5682051752034036478
PrefabInstance:
  m_ObjectHideFlags: 0
  serializedVersion: 2
  m_Modification:
    m_TransformParent: {fileID: 0}
    m_Modifications:
    - target: {fileID: 100000, guid: 9b8455f03e907504e96adccd2c23ff33, type: 3}
      propertyPath: m_Name
      value: Bottle - Beer
      objectReference: {fileID: 0}
    - target: {fileID: 400000, guid: 9b8455f03e907504e96adccd2c23ff33, type: 3}
      propertyPath: m_RootOrder
      value: 0
      objectReference: {fileID: 0}
    - target: {fileID: 400000, guid: 9b8455f03e907504e96adccd2c23ff33, type: 3}
      propertyPath: m_LocalPosition.x
      value: 0
      objectReference: {fileID: 0}
    - target: {fileID: 400000, guid: 9b8455f03e907504e96adccd2c23ff33, type: 3}
      propertyPath: m_LocalPosition.y
      value: 0
      objectReference: {fileID: 0}
    - target: {fileID: 400000, guid: 9b8455f03e907504e96adccd2c23ff33, type: 3}
      propertyPath: m_LocalPosition.z
      value: 0
      objectReference: {fileID: 0}
    - target: {fileID: 400000, guid: 9b8455f03e907504e96adccd2c23ff33, type: 3}
      propertyPath: m_LocalRotation.w
      value: 1
      objectReference: {fileID: 0}
    - target: {fileID: 400000, guid: 9b8455f03e907504e96adccd2c23ff33, type: 3}
      propertyPath: m_LocalRotation.x
      value: 0
      objectReference: {fileID: 0}
    - target: {fileID: 400000, guid: 9b8455f03e907504e96adccd2c23ff33, type: 3}
      propertyPath: m_LocalRotation.y
      value: 0
      objectReference: {fileID: 0}
    - target: {fileID: 400000, guid: 9b8455f03e907504e96adccd2c23ff33, type: 3}
      propertyPath: m_LocalRotation.z
      value: 0
      objectReference: {fileID: 0}
    - target: {fileID: 400000, guid: 9b8455f03e907504e96adccd2c23ff33, type: 3}
      propertyPath: m_LocalEulerAnglesHint.x
      value: 0
      objectReference: {fileID: 0}
    - target: {fileID: 400000, guid: 9b8455f03e907504e96adccd2c23ff33, type: 3}
      propertyPath: m_LocalEulerAnglesHint.y
      value: 0
      objectReference: {fileID: 0}
    - target: {fileID: 400000, guid: 9b8455f03e907504e96adccd2c23ff33, type: 3}
      propertyPath: m_LocalEulerAnglesHint.z
      value: 0
      objectReference: {fileID: 0}
    - target: {fileID: 942815996133473513, guid: 9b8455f03e907504e96adccd2c23ff33,
        type: 3}
      propertyPath: m_Materials.Array.data[0]
      value: 
      objectReference: {fileID: 2100000, guid: 792ebb4b12699b2449372b85735892c1, type: 2}
    - target: {fileID: 2152779054267160553, guid: 9b8455f03e907504e96adccd2c23ff33,
        type: 3}
      propertyPath: _bottleChunkDatas.Array.data[0].BottleChunkAddress
      value: Entities/Bottles/Beer/BottleChunk01
      objectReference: {fileID: 0}
    - target: {fileID: 2152779054267160553, guid: 9b8455f03e907504e96adccd2c23ff33,
        type: 3}
      propertyPath: _bottleChunkDatas.Array.data[1].BottleChunkAddress
      value: Entities/Bottles/Beer/BottleChunk02
      objectReference: {fileID: 0}
    - target: {fileID: 2152779054267160553, guid: 9b8455f03e907504e96adccd2c23ff33,
        type: 3}
      propertyPath: _bottleChunkDatas.Array.data[2].BottleChunkAddress
      value: Entities/Bottles/Beer/BottleChunk03
      objectReference: {fileID: 0}
    - target: {fileID: 2152779054267160553, guid: 9b8455f03e907504e96adccd2c23ff33,
        type: 3}
      propertyPath: _bottleChunkDatas.Array.data[3].BottleChunkAddress
      value: Entities/Bottles/Beer/BottleChunk04
      objectReference: {fileID: 0}
    - target: {fileID: 2152779054267160553, guid: 9b8455f03e907504e96adccd2c23ff33,
        type: 3}
      propertyPath: _bottleChunkDatas.Array.data[4].BottleChunkAddress
      value: Entities/Bottles/Beer/BottleChunk05
      objectReference: {fileID: 0}
    - target: {fileID: 4768577149951724345, guid: 9b8455f03e907504e96adccd2c23ff33,
        type: 3}
      propertyPath: m_Materials.Array.data[0]
      value: 
      objectReference: {fileID: 2100000, guid: 792ebb4b12699b2449372b85735892c1, type: 2}
    - target: {fileID: 6360633669079053965, guid: 9b8455f03e907504e96adccd2c23ff33,
        type: 3}
      propertyPath: m_Materials.Array.data[0]
      value: 
      objectReference: {fileID: 2100000, guid: 792ebb4b12699b2449372b85735892c1, type: 2}
    - target: {fileID: 7277932261311725186, guid: 9b8455f03e907504e96adccd2c23ff33,
        type: 3}
      propertyPath: m_Materials.Array.data[0]
      value: 
      objectReference: {fileID: 2100000, guid: 792ebb4b12699b2449372b85735892c1, type: 2}
    - target: {fileID: 7399614762941415820, guid: 9b8455f03e907504e96adccd2c23ff33,
        type: 3}
      propertyPath: m_Materials.Array.data[0]
      value: 
      objectReference: {fileID: 2100000, guid: 792ebb4b12699b2449372b85735892c1, type: 2}
    - target: {fileID: 7778798026683119097, guid: 9b8455f03e907504e96adccd2c23ff33,
        type: 3}
      propertyPath: m_Materials.Array.data[0]
      value: 
      objectReference: {fileID: 2100000, guid: 792ebb4b12699b2449372b85735892c1, type: 2}
    m_RemovedComponents: []
  m_SourcePrefab: {fileID: 100100000, guid: 9b8455f03e907504e96adccd2c23ff33, type: 3}
