%YAML 1.1
%TAG !u! tag:unity3d.com,2011:
--- !u!1001 &4608147076557951873
PrefabInstance:
  m_ObjectHideFlags: 0
  serializedVersion: 2
  m_Modification:
    m_TransformParent: {fileID: 0}
    m_Modifications:
    - target: {fileID: 1723502840797280326, guid: a53642ddbe30afa4da4915f7cff19fa1,
        type: 3}
      propertyPath: m_Materials.Array.data[0]
      value: 
      objectReference: {fileID: 2100000, guid: 792ebb4b12699b2449372b85735892c1, type: 2}
    - target: {fileID: 4589285440237393682, guid: a53642ddbe30afa4da4915f7cff19fa1,
        type: 3}
      propertyPath: m_Name
      value: BottleChunk01 - Beer
      objectReference: {fileID: 0}
    - target: {fileID: 4589285440237816626, guid: a53642ddbe30afa4da4915f7cff19fa1,
        type: 3}
      propertyPath: m_RootOrder
      value: 0
      objectReference: {fileID: 0}
    - target: {fileID: 4589285440237816626, guid: a53642ddbe30afa4da4915f7cff19fa1,
        type: 3}
      propertyPath: m_LocalPosition.x
      value: 0
      objectReference: {fileID: 0}
    - target: {fileID: 4589285440237816626, guid: a53642ddbe30afa4da4915f7cff19fa1,
        type: 3}
      propertyPath: m_LocalPosition.y
      value: 0
      objectReference: {fileID: 0}
    - target: {fileID: 4589285440237816626, guid: a53642ddbe30afa4da4915f7cff19fa1,
        type: 3}
      propertyPath: m_LocalPosition.z
      value: 0
      objectReference: {fileID: 0}
    - target: {fileID: 4589285440237816626, guid: a53642ddbe30afa4da4915f7cff19fa1,
        type: 3}
      propertyPath: m_LocalRotation.w
      value: 1
      objectReference: {fileID: 0}
    - target: {fileID: 4589285440237816626, guid: a53642ddbe30afa4da4915f7cff19fa1,
        type: 3}
      propertyPath: m_LocalRotation.x
      value: 0.000000021855694
      objectReference: {fileID: 0}
    - target: {fileID: 4589285440237816626, guid: a53642ddbe30afa4da4915f7cff19fa1,
        type: 3}
      propertyPath: m_LocalRotation.y
      value: -0
      objectReference: {fileID: 0}
    - target: {fileID: 4589285440237816626, guid: a53642ddbe30afa4da4915f7cff19fa1,
        type: 3}
      propertyPath: m_LocalRotation.z
      value: -0
      objectReference: {fileID: 0}
    - target: {fileID: 4589285440237816626, guid: a53642ddbe30afa4da4915f7cff19fa1,
        type: 3}
      propertyPath: m_LocalEulerAnglesHint.x
      value: 0
      objectReference: {fileID: 0}
    - target: {fileID: 4589285440237816626, guid: a53642ddbe30afa4da4915f7cff19fa1,
        type: 3}
      propertyPath: m_LocalEulerAnglesHint.y
      value: 0
      objectReference: {fileID: 0}
    - target: {fileID: 4589285440237816626, guid: a53642ddbe30afa4da4915f7cff19fa1,
        type: 3}
      propertyPath: m_LocalEulerAnglesHint.z
      value: 0
      objectReference: {fileID: 0}
    - target: {fileID: 8068086959952523987, guid: a53642ddbe30afa4da4915f7cff19fa1,
        type: 3}
      propertyPath: m_IsActive
      value: 1
      objectReference: {fileID: 0}
    m_RemovedComponents: []
  m_SourcePrefab: {fileID: 100100000, guid: a53642ddbe30afa4da4915f7cff19fa1, type: 3}
