%YAML 1.1
%TAG !u! tag:unity3d.com,2011:
--- !u!1001 &5221126185019524975
PrefabInstance:
  m_ObjectHideFlags: 0
  serializedVersion: 2
  m_Modification:
    m_TransformParent: {fileID: 0}
    m_Modifications:
    - target: {fileID: 4368722830520443652, guid: 17b50a7a7ace28f4796067b640746e60,
        type: 3}
      propertyPath: m_Materials.Array.data[0]
      value: 
      objectReference: {fileID: 2100000, guid: 02eb9cff04080d8419b686ff265ad278, type: 2}
    - target: {fileID: 8223007280900774246, guid: 17b50a7a7ace28f4796067b640746e60,
        type: 3}
      propertyPath: m_RootOrder
      value: 0
      objectReference: {fileID: 0}
    - target: {fileID: 8223007280900774246, guid: 17b50a7a7ace28f4796067b640746e60,
        type: 3}
      propertyPath: m_LocalPosition.x
      value: 0
      objectReference: {fileID: 0}
    - target: {fileID: 8223007280900774246, guid: 17b50a7a7ace28f4796067b640746e60,
        type: 3}
      propertyPath: m_LocalPosition.y
      value: 0
      objectReference: {fileID: 0}
    - target: {fileID: 8223007280900774246, guid: 17b50a7a7ace28f4796067b640746e60,
        type: 3}
      propertyPath: m_LocalPosition.z
      value: 0
      objectReference: {fileID: 0}
    - target: {fileID: 8223007280900774246, guid: 17b50a7a7ace28f4796067b640746e60,
        type: 3}
      propertyPath: m_LocalRotation.w
      value: 1
      objectReference: {fileID: 0}
    - target: {fileID: 8223007280900774246, guid: 17b50a7a7ace28f4796067b640746e60,
        type: 3}
      propertyPath: m_LocalRotation.x
      value: 0.000000021855694
      objectReference: {fileID: 0}
    - target: {fileID: 8223007280900774246, guid: 17b50a7a7ace28f4796067b640746e60,
        type: 3}
      propertyPath: m_LocalRotation.y
      value: -0
      objectReference: {fileID: 0}
    - target: {fileID: 8223007280900774246, guid: 17b50a7a7ace28f4796067b640746e60,
        type: 3}
      propertyPath: m_LocalRotation.z
      value: -0
      objectReference: {fileID: 0}
    - target: {fileID: 8223007280900774246, guid: 17b50a7a7ace28f4796067b640746e60,
        type: 3}
      propertyPath: m_LocalEulerAnglesHint.x
      value: 0
      objectReference: {fileID: 0}
    - target: {fileID: 8223007280900774246, guid: 17b50a7a7ace28f4796067b640746e60,
        type: 3}
      propertyPath: m_LocalEulerAnglesHint.y
      value: 0
      objectReference: {fileID: 0}
    - target: {fileID: 8223007280900774246, guid: 17b50a7a7ace28f4796067b640746e60,
        type: 3}
      propertyPath: m_LocalEulerAnglesHint.z
      value: 0
      objectReference: {fileID: 0}
    - target: {fileID: 8223007280900932934, guid: 17b50a7a7ace28f4796067b640746e60,
        type: 3}
      propertyPath: m_Name
      value: BottleChunk04 - Green
      objectReference: {fileID: 0}
    - target: {fileID: 8223007280900932934, guid: 17b50a7a7ace28f4796067b640746e60,
        type: 3}
      propertyPath: m_IsActive
      value: 1
      objectReference: {fileID: 0}
    m_RemovedComponents: []
  m_SourcePrefab: {fileID: 100100000, guid: 17b50a7a7ace28f4796067b640746e60, type: 3}
