%YAML 1.1
%TAG !u! tag:unity3d.com,2011:
--- !u!114 &11400000
MonoBehaviour:
  m_ObjectHideFlags: 0
  m_CorrespondingSourceObject: {fileID: 0}
  m_PrefabInstance: {fileID: 0}
  m_PrefabAsset: {fileID: 0}
  m_GameObject: {fileID: 0}
  m_Enabled: 1
  m_EditorHideFlags: 0
  m_Script: {fileID: 11500000, guid: bb9f19110f747824f9c7b40d80bcb621, type: 3}
  m_Name: Flesh
  m_EditorClassIdentifier: 
  _id: 0e3b964f-9617-4b63-a968-29e9014142d7
  _physicsMaterialEventProcessorObjs:
  - {fileID: 11400000, guid: f1c7a6e0b13a81e4cb4438edae27c155, type: 2}
