%YAML 1.1
%TAG !u! tag:unity3d.com,2011:
--- !u!114 &11400000
MonoBehaviour:
  m_ObjectHideFlags: 0
  m_CorrespondingSourceObject: {fileID: 0}
  m_PrefabInstance: {fileID: 0}
  m_PrefabAsset: {fileID: 0}
  m_GameObject: {fileID: 0}
  m_Enabled: 1
  m_EditorHideFlags: 0
  m_Script: {fileID: 11500000, guid: bb9f19110f747824f9c7b40d80bcb621, type: 3}
  m_Name: Paper
  m_EditorClassIdentifier: 
  _id: 2d9d3371-1014-4c3c-8057-176306e787e7
  _physicsMaterialEventProcessorObjs:
  - {fileID: 11400000, guid: 5626e279987f0f240b0ff62e6d3a2ac8, type: 2}
