%YAML 1.1
%TAG !u! tag:unity3d.com,2011:
--- !u!114 &11400000
MonoBehaviour:
  m_ObjectHideFlags: 0
  m_CorrespondingSourceObject: {fileID: 0}
  m_PrefabInstance: {fileID: 0}
  m_PrefabAsset: {fileID: 0}
  m_GameObject: {fileID: 0}
  m_Enabled: 1
  m_EditorHideFlags: 0
  m_Script: {fileID: 11500000, guid: bb9f19110f747824f9c7b40d80bcb621, type: 3}
  m_Name: Plastic
  m_EditorClassIdentifier: 
  _id: 2165d570-3960-4a76-ac33-2beb5a5f63f6
  _physicsMaterialEventProcessorObjs:
  - {fileID: 11400000, guid: ae1921d8cab6ade4d87da6bc026f547a, type: 2}
