%YAML 1.1
%TAG !u! tag:unity3d.com,2011:
--- !u!114 &11400000
MonoBehaviour:
  m_ObjectHideFlags: 0
  m_CorrespondingSourceObject: {fileID: 0}
  m_PrefabInstance: {fileID: 0}
  m_PrefabAsset: {fileID: 0}
  m_GameObject: {fileID: 0}
  m_Enabled: 1
  m_EditorHideFlags: 0
  m_Script: {fileID: 11500000, guid: bb9f19110f747824f9c7b40d80bcb621, type: 3}
  m_Name: Sheet Metal
  m_EditorClassIdentifier: 
  _id: 3b60e5ea-6e6b-4a8d-9729-d36c248c2610
  _physicsMaterialEventProcessorObjs:
  - {fileID: 11400000, guid: 3a64d92b592a5ca43865e8bbaf14763b, type: 2}
