%YAML 1.1
%TAG !u! tag:unity3d.com,2011:
--- !u!1001 &6090309515334574329
PrefabInstance:
  m_ObjectHideFlags: 0
  serializedVersion: 2
  m_Modification:
    m_TransformParent: {fileID: 0}
    m_Modifications:
    - target: {fileID: 65822195567575928, guid: e02311c8e1c4de7429c8e1116596d846,
        type: 3}
      propertyPath: m_Materials.Array.data[0]
      value: 
      objectReference: {fileID: 2100000, guid: 7f7d31eee75aefc409f11f3c06cf4044, type: 2}
    - target: {fileID: 4893903362411683544, guid: e02311c8e1c4de7429c8e1116596d846,
        type: 3}
      propertyPath: m_Name
      value: Floor_Concrete_6x6
      objectReference: {fileID: 0}
    - target: {fileID: 5233591240994522210, guid: e02311c8e1c4de7429c8e1116596d846,
        type: 3}
      propertyPath: m_RootOrder
      value: 0
      objectReference: {fileID: 0}
    - target: {fileID: 5233591240994522210, guid: e02311c8e1c4de7429c8e1116596d846,
        type: 3}
      propertyPath: m_LocalPosition.x
      value: 0
      objectReference: {fileID: 0}
    - target: {fileID: 5233591240994522210, guid: e02311c8e1c4de7429c8e1116596d846,
        type: 3}
      propertyPath: m_LocalPosition.y
      value: 0
      objectReference: {fileID: 0}
    - target: {fileID: 5233591240994522210, guid: e02311c8e1c4de7429c8e1116596d846,
        type: 3}
      propertyPath: m_LocalPosition.z
      value: 0
      objectReference: {fileID: 0}
    - target: {fileID: 5233591240994522210, guid: e02311c8e1c4de7429c8e1116596d846,
        type: 3}
      propertyPath: m_LocalRotation.w
      value: 1
      objectReference: {fileID: 0}
    - target: {fileID: 5233591240994522210, guid: e02311c8e1c4de7429c8e1116596d846,
        type: 3}
      propertyPath: m_LocalRotation.x
      value: 0
      objectReference: {fileID: 0}
    - target: {fileID: 5233591240994522210, guid: e02311c8e1c4de7429c8e1116596d846,
        type: 3}
      propertyPath: m_LocalRotation.y
      value: 0
      objectReference: {fileID: 0}
    - target: {fileID: 5233591240994522210, guid: e02311c8e1c4de7429c8e1116596d846,
        type: 3}
      propertyPath: m_LocalRotation.z
      value: 0
      objectReference: {fileID: 0}
    - target: {fileID: 5233591240994522210, guid: e02311c8e1c4de7429c8e1116596d846,
        type: 3}
      propertyPath: m_LocalEulerAnglesHint.x
      value: 0
      objectReference: {fileID: 0}
    - target: {fileID: 5233591240994522210, guid: e02311c8e1c4de7429c8e1116596d846,
        type: 3}
      propertyPath: m_LocalEulerAnglesHint.y
      value: 0
      objectReference: {fileID: 0}
    - target: {fileID: 5233591240994522210, guid: e02311c8e1c4de7429c8e1116596d846,
        type: 3}
      propertyPath: m_LocalEulerAnglesHint.z
      value: 0
      objectReference: {fileID: 0}
    - target: {fileID: 5327288079507376121, guid: e02311c8e1c4de7429c8e1116596d846,
        type: 3}
      propertyPath: _materialDefintiion
      value: 
      objectReference: {fileID: 11400000, guid: a7eee38d9cf81f34a8dec6b58b6513f1,
        type: 2}
    m_RemovedComponents: []
  m_SourcePrefab: {fileID: 100100000, guid: e02311c8e1c4de7429c8e1116596d846, type: 3}
