%YAML 1.1
%TAG !u! tag:unity3d.com,2011:
--- !u!1001 &4984280676945141203
PrefabInstance:
  m_ObjectHideFlags: 0
  serializedVersion: 2
  m_Modification:
    m_TransformParent: {fileID: 0}
    m_Modifications:
    - target: {fileID: 1425646743803616857, guid: dcfc500bec439a9409fd45a7daada5dc,
        type: 3}
      propertyPath: m_Materials.Array.data[0]
      value: 
      objectReference: {fileID: 2100000, guid: 7f7d31eee75aefc409f11f3c06cf4044, type: 2}
    - target: {fileID: 2245937782402131533, guid: dcfc500bec439a9409fd45a7daada5dc,
        type: 3}
      propertyPath: m_Name
      value: Floor_Concrete_6x3
      objectReference: {fileID: 0}
    - target: {fileID: 2655809378331998536, guid: dcfc500bec439a9409fd45a7daada5dc,
        type: 3}
      propertyPath: _materialDefintiion
      value: 
      objectReference: {fileID: 11400000, guid: a7eee38d9cf81f34a8dec6b58b6513f1,
        type: 2}
    - target: {fileID: 2986015589134488670, guid: dcfc500bec439a9409fd45a7daada5dc,
        type: 3}
      propertyPath: m_RootOrder
      value: 0
      objectReference: {fileID: 0}
    - target: {fileID: 2986015589134488670, guid: dcfc500bec439a9409fd45a7daada5dc,
        type: 3}
      propertyPath: m_LocalPosition.x
      value: 0
      objectReference: {fileID: 0}
    - target: {fileID: 2986015589134488670, guid: dcfc500bec439a9409fd45a7daada5dc,
        type: 3}
      propertyPath: m_LocalPosition.y
      value: 0
      objectReference: {fileID: 0}
    - target: {fileID: 2986015589134488670, guid: dcfc500bec439a9409fd45a7daada5dc,
        type: 3}
      propertyPath: m_LocalPosition.z
      value: 0
      objectReference: {fileID: 0}
    - target: {fileID: 2986015589134488670, guid: dcfc500bec439a9409fd45a7daada5dc,
        type: 3}
      propertyPath: m_LocalRotation.w
      value: 1
      objectReference: {fileID: 0}
    - target: {fileID: 2986015589134488670, guid: dcfc500bec439a9409fd45a7daada5dc,
        type: 3}
      propertyPath: m_LocalRotation.x
      value: 0
      objectReference: {fileID: 0}
    - target: {fileID: 2986015589134488670, guid: dcfc500bec439a9409fd45a7daada5dc,
        type: 3}
      propertyPath: m_LocalRotation.y
      value: 0
      objectReference: {fileID: 0}
    - target: {fileID: 2986015589134488670, guid: dcfc500bec439a9409fd45a7daada5dc,
        type: 3}
      propertyPath: m_LocalRotation.z
      value: 0
      objectReference: {fileID: 0}
    - target: {fileID: 2986015589134488670, guid: dcfc500bec439a9409fd45a7daada5dc,
        type: 3}
      propertyPath: m_LocalEulerAnglesHint.x
      value: 0
      objectReference: {fileID: 0}
    - target: {fileID: 2986015589134488670, guid: dcfc500bec439a9409fd45a7daada5dc,
        type: 3}
      propertyPath: m_LocalEulerAnglesHint.y
      value: 0
      objectReference: {fileID: 0}
    - target: {fileID: 2986015589134488670, guid: dcfc500bec439a9409fd45a7daada5dc,
        type: 3}
      propertyPath: m_LocalEulerAnglesHint.z
      value: 0
      objectReference: {fileID: 0}
    m_RemovedComponents: []
  m_SourcePrefab: {fileID: 100100000, guid: dcfc500bec439a9409fd45a7daada5dc, type: 3}
