%YAML 1.1
%TAG !u! tag:unity3d.com,2011:
--- !u!114 &11400000
MonoBehaviour:
  m_ObjectHideFlags: 0
  m_CorrespondingSourceObject: {fileID: 0}
  m_PrefabInstance: {fileID: 0}
  m_PrefabAsset: {fileID: 0}
  m_GameObject: {fileID: 0}
  m_Enabled: 1
  m_EditorHideFlags: 0
  m_Script: {fileID: 11500000, guid: b357d6e255aa18e44b2b05e4872d0cf6, type: 3}
  m_Name: Revolver Ammo x4 Definition
  m_EditorClassIdentifier: 
  _id: d9784214-0d62-4df5-ac3c-b13763d4c69c
  _name: revolver_ammo_x4
  _inventorySpriteIconAddress: Item/Missing/Preview_Image
  _inventoryPreviewModelAddress: Item/Missing/Preview_Model
  _playerPickupEffectAddress: Effects/Item/Pickup
  _playerStashEffectAddress: Effects/Item/Pickup
  _itemEntityAddress: Entities/Item/Revolver Ammo x4
