%YAML 1.1
%TAG !u! tag:unity3d.com,2011:
--- !u!1001 &1660312367063266105
PrefabInstance:
  m_ObjectHideFlags: 0
  serializedVersion: 2
  m_Modification:
    m_TransformParent: {fileID: 0}
    m_Modifications:
    - target: {fileID: 2982812484171642342, guid: 5a282cc49a52c864a907cd28093bbee5,
        type: 3}
      propertyPath: m_RootOrder
      value: 0
      objectReference: {fileID: 0}
    - target: {fileID: 2982812484171642342, guid: 5a282cc49a52c864a907cd28093bbee5,
        type: 3}
      propertyPath: m_LocalPosition.x
      value: 0
      objectReference: {fileID: 0}
    - target: {fileID: 2982812484171642342, guid: 5a282cc49a52c864a907cd28093bbee5,
        type: 3}
      propertyPath: m_LocalPosition.y
      value: 0
      objectReference: {fileID: 0}
    - target: {fileID: 2982812484171642342, guid: 5a282cc49a52c864a907cd28093bbee5,
        type: 3}
      propertyPath: m_LocalPosition.z
      value: 0
      objectReference: {fileID: 0}
    - target: {fileID: 2982812484171642342, guid: 5a282cc49a52c864a907cd28093bbee5,
        type: 3}
      propertyPath: m_LocalRotation.w
      value: 1
      objectReference: {fileID: 0}
    - target: {fileID: 2982812484171642342, guid: 5a282cc49a52c864a907cd28093bbee5,
        type: 3}
      propertyPath: m_LocalRotation.x
      value: 0
      objectReference: {fileID: 0}
    - target: {fileID: 2982812484171642342, guid: 5a282cc49a52c864a907cd28093bbee5,
        type: 3}
      propertyPath: m_LocalRotation.y
      value: 0
      objectReference: {fileID: 0}
    - target: {fileID: 2982812484171642342, guid: 5a282cc49a52c864a907cd28093bbee5,
        type: 3}
      propertyPath: m_LocalRotation.z
      value: 0
      objectReference: {fileID: 0}
    - target: {fileID: 2982812484171642342, guid: 5a282cc49a52c864a907cd28093bbee5,
        type: 3}
      propertyPath: m_LocalEulerAnglesHint.x
      value: 0
      objectReference: {fileID: 0}
    - target: {fileID: 2982812484171642342, guid: 5a282cc49a52c864a907cd28093bbee5,
        type: 3}
      propertyPath: m_LocalEulerAnglesHint.y
      value: 0
      objectReference: {fileID: 0}
    - target: {fileID: 2982812484171642342, guid: 5a282cc49a52c864a907cd28093bbee5,
        type: 3}
      propertyPath: m_LocalEulerAnglesHint.z
      value: 0
      objectReference: {fileID: 0}
    - target: {fileID: 3998693189446151856, guid: 5a282cc49a52c864a907cd28093bbee5,
        type: 3}
      propertyPath: _itemQuantity._inlineValue
      value: 3
      objectReference: {fileID: 0}
    - target: {fileID: 4562904767822822142, guid: 5a282cc49a52c864a907cd28093bbee5,
        type: 3}
      propertyPath: m_IsActive
      value: 0
      objectReference: {fileID: 0}
    - target: {fileID: 6113132982650900431, guid: 5a282cc49a52c864a907cd28093bbee5,
        type: 3}
      propertyPath: m_IsActive
      value: 0
      objectReference: {fileID: 0}
    - target: {fileID: 7950169404734819202, guid: 5a282cc49a52c864a907cd28093bbee5,
        type: 3}
      propertyPath: m_IsActive
      value: 0
      objectReference: {fileID: 0}
    - target: {fileID: 8719489225653860042, guid: 5a282cc49a52c864a907cd28093bbee5,
        type: 3}
      propertyPath: m_Name
      value: Revolver Ammo x3 Entity Variant
      objectReference: {fileID: 0}
    m_RemovedComponents: []
  m_SourcePrefab: {fileID: 100100000, guid: 5a282cc49a52c864a907cd28093bbee5, type: 3}
