%YAML 1.1
%TAG !u! tag:unity3d.com,2011:
--- !u!114 &11400000
MonoBehaviour:
  m_ObjectHideFlags: 0
  m_CorrespondingSourceObject: {fileID: 0}
  m_PrefabInstance: {fileID: 0}
  m_PrefabAsset: {fileID: 0}
  m_GameObject: {fileID: 0}
  m_Enabled: 1
  m_EditorHideFlags: 0
  m_Script: {fileID: 11500000, guid: 75b754fe5e2a62c4ab779a0df4ac64ed, type: 3}
  m_Name: Basement Storage
  m_EditorClassIdentifier: 
  _id: 02ea6c9b-f8ff-4a6d-9b3f-a18802c393c3
  _sceneBuildIndex: 16
  _description: Basement Storage
  _spaceDataComponents:
  - rid: 2642207204412489728
  - rid: 2642207204412489731
  - rid: 2642207225690193921
  - rid: 2642207225690193922
  references:
    version: 2
    RefIds:
    - rid: 2642207204412489728
      type: {class: PlayerSpawnDataComponent, ns: Game.Player, asm: Game}
      data:
        _position: {x: 1.5, y: 0, z: 0}
        _rotation: {x: 0, y: -0.70710677, z: 0, w: 0.70710677}
    - rid: 2642207204412489731
      type: {class: WorldBuilderDataComponent, ns: Game.World.Builder.Data, asm: Game}
      data:
        _worldEntrance:
          _useInline: 1
          _inlineValue: 0
          _variable: {fileID: 0}
        _roomType: 1
        _allowedZones: 02000000
        _maxLinkedSpaces:
          _useInline: 1
          _inlineValue: 2
          _variable: {fileID: 0}
        _dynamicPortals:
        - _portalId: 596ec968-3942-4c08-a4f7-630b81fc2c16
          _worldEntrance: 0
          _zoneEntrance: -100
          _allowedDestinationTypes: 
          _portalPosition: {x: 0, y: 1.075, z: -6}
          _portalRotation: {x: -0, y: 1, z: -0, w: 0}
          _portalScale: {x: 1, y: 2.15, z: 1}
        - _portalId: 750d40d6-c142-4fb9-9dd2-b25a10bb4fd0
          _worldEntrance: 0
          _zoneEntrance: -100
          _allowedDestinationTypes: 
          _portalPosition: {x: -3, y: 1.075, z: 0}
          _portalRotation: {x: -0, y: -0.7071068, z: 0, w: 0.7071068}
          _portalScale: {x: 1.0000002, y: 2.15, z: 1.0000002}
    - rid: 2642207225690193921
      type: {class: HauntDataComponent, ns: Game.World.Haunt.Data, asm: Game}
      data:
        _passiveHauntRate:
          _useInline: 0
          _inlineValue: 0
          _variable: {fileID: 11400000, guid: c8ba14aaee8f8f74bae88f9b16edddb2, type: 2}
        _minHauntLevelAmbientLight:
          _useInline: 0
          _inlineValue: {r: 0, g: 0, b: 0, a: 0}
          _variable: {fileID: 11400000, guid: 53649b9f124582446b99b655631295f8, type: 2}
        _maxHauntLevelAmbientLight:
          _useInline: 0
          _inlineValue: {r: 0, g: 0, b: 0, a: 0}
          _variable: {fileID: 11400000, guid: 17319ca06f53f8d47b325816261d1bfc, type: 2}
        _hauntMonsterSpawns:
        - _position: {x: 0, y: 0, z: 4.65}
          _rotation: {x: 0, y: 1, z: 0, w: -0.00000004371139}
        - _position: {x: 1.8, y: 0, z: 3.85}
          _rotation: {x: 0, y: 1, z: 0, w: -0.00000004371139}
        _maxHauntTraps:
          _useInline: 0
          _inlineValue: 0
          _variable: {fileID: 11400000, guid: 7c3bf2cc841adbd43ab4f191c910b076, type: 2}
        _hauntTrapSpawns:
        - _position: {x: -0.88, y: 0, z: -1.28}
          _rotation: {x: 0, y: 0.41675702, z: 0, w: -0.9090179}
        - _position: {x: 0.88, y: 0, z: 1.28}
          _rotation: {x: 0, y: 0.77433735, z: 0, w: -0.632773}
        - _position: {x: -1.79, y: 0, z: 2.2}
          _rotation: {x: 0, y: 0.09428207, z: 0, w: 0.9955455}
        - _position: {x: 1.77, y: 0, z: -1.9}
          _rotation: {x: 0, y: 0.81814975, z: 0, w: 0.57500523}
    - rid: 2642207225690193922
      type: {class: WorldItemSpawnDataComponent, ns: Game.World.Item.Data, asm: Game}
      data:
        _itemSpawns:
        - _position: {x: 0, y: 0.82, z: -0.44}
          _rotation: {x: 0, y: 0, z: 0, w: 0}
          _fixedSpawnRotation: 0
          _allowedItemGroups:
          - {fileID: 11400000, guid: ad6ff34e5685e4b41a9b341c994a7267, type: 2}
          - {fileID: 11400000, guid: 28c4b81482b5f9d429898592fdf665c1, type: 2}
        - _position: {x: 0, y: 0.82, z: 0.44}
          _rotation: {x: 0, y: 0, z: 0, w: 0}
          _fixedSpawnRotation: 0
          _allowedItemGroups:
          - {fileID: 11400000, guid: ad6ff34e5685e4b41a9b341c994a7267, type: 2}
          - {fileID: 11400000, guid: 28c4b81482b5f9d429898592fdf665c1, type: 2}
        - _position: {x: -2.6, y: 0.8, z: 2.13}
          _rotation: {x: 0, y: 0, z: 0, w: 0}
          _fixedSpawnRotation: 0
          _allowedItemGroups:
          - {fileID: 11400000, guid: 28c4b81482b5f9d429898592fdf665c1, type: 2}
        - _position: {x: -2.6, y: 0.8, z: 4.06}
          _rotation: {x: 0, y: 0, z: 0, w: 0}
          _fixedSpawnRotation: 0
          _allowedItemGroups:
          - {fileID: 11400000, guid: 28c4b81482b5f9d429898592fdf665c1, type: 2}
        - _position: {x: 2.6, y: 0.8, z: 4.13}
          _rotation: {x: 0, y: 0, z: 0, w: 0}
          _fixedSpawnRotation: 0
          _allowedItemGroups:
          - {fileID: 11400000, guid: 28c4b81482b5f9d429898592fdf665c1, type: 2}
        - _position: {x: 2.6, y: 0.8, z: 2.47}
          _rotation: {x: 0, y: 0, z: 0, w: 0}
          _fixedSpawnRotation: 0
          _allowedItemGroups:
          - {fileID: 11400000, guid: 28c4b81482b5f9d429898592fdf665c1, type: 2}
        - _position: {x: 1, y: 0.8, z: 2.89}
          _rotation: {x: 0, y: 0, z: 0, w: 0}
          _fixedSpawnRotation: 0
          _allowedItemGroups:
          - {fileID: 11400000, guid: 28c4b81482b5f9d429898592fdf665c1, type: 2}
        - _position: {x: 1, y: 0.8, z: 3.49}
          _rotation: {x: 0, y: 0, z: 0, w: 0}
          _fixedSpawnRotation: 0
          _allowedItemGroups:
          - {fileID: 11400000, guid: 28c4b81482b5f9d429898592fdf665c1, type: 2}
        - _position: {x: -1, y: 0.8, z: 4.02}
          _rotation: {x: 0, y: 0, z: 0, w: 0}
          _fixedSpawnRotation: 0
          _allowedItemGroups:
          - {fileID: 11400000, guid: 28c4b81482b5f9d429898592fdf665c1, type: 2}
        - _position: {x: -1, y: 0.8, z: 2.19}
          _rotation: {x: 0, y: 0, z: 0, w: 0}
          _fixedSpawnRotation: 0
          _allowedItemGroups:
          - {fileID: 11400000, guid: 28c4b81482b5f9d429898592fdf665c1, type: 2}
        - _position: {x: -1, y: 0.8, z: -2.16}
          _rotation: {x: 0, y: 0, z: 0, w: 0}
          _fixedSpawnRotation: 0
          _allowedItemGroups:
          - {fileID: 11400000, guid: 28c4b81482b5f9d429898592fdf665c1, type: 2}
        - _position: {x: -1, y: 0.8, z: -3.97}
          _rotation: {x: 0, y: 0, z: 0, w: 0}
          _fixedSpawnRotation: 0
          _allowedItemGroups:
          - {fileID: 11400000, guid: 28c4b81482b5f9d429898592fdf665c1, type: 2}
        - _position: {x: 1, y: 0.8, z: -3.48}
          _rotation: {x: 0, y: 0, z: 0, w: 0}
          _fixedSpawnRotation: 0
          _allowedItemGroups:
          - {fileID: 11400000, guid: 28c4b81482b5f9d429898592fdf665c1, type: 2}
        - _position: {x: 1, y: 0.8, z: -2.83}
          _rotation: {x: 0, y: 0, z: 0, w: 0}
          _fixedSpawnRotation: 0
          _allowedItemGroups:
          - {fileID: 11400000, guid: 28c4b81482b5f9d429898592fdf665c1, type: 2}
        - _position: {x: 2.6, y: 0.8, z: -2.25}
          _rotation: {x: 0, y: 0, z: 0, w: 0}
          _fixedSpawnRotation: 0
          _allowedItemGroups:
          - {fileID: 11400000, guid: 28c4b81482b5f9d429898592fdf665c1, type: 2}
        - _position: {x: 2.6, y: 0.8, z: -4.17}
          _rotation: {x: 0, y: 0, z: 0, w: 0}
          _fixedSpawnRotation: 0
          _allowedItemGroups:
          - {fileID: 11400000, guid: 28c4b81482b5f9d429898592fdf665c1, type: 2}
        - _position: {x: -2.6, y: 0.8, z: -4.17}
          _rotation: {x: 0, y: 0, z: 0, w: 0}
          _fixedSpawnRotation: 0
          _allowedItemGroups:
          - {fileID: 11400000, guid: 28c4b81482b5f9d429898592fdf665c1, type: 2}
        - _position: {x: -2.6, y: 0.8, z: -2.5}
          _rotation: {x: 0, y: 0, z: 0, w: 0}
          _fixedSpawnRotation: 0
          _allowedItemGroups:
          - {fileID: 11400000, guid: 28c4b81482b5f9d429898592fdf665c1, type: 2}
        - _position: {x: -2.6, y: 1.4, z: -2.84}
          _rotation: {x: 0, y: 0, z: 0, w: 0}
          _fixedSpawnRotation: 0
          _allowedItemGroups:
          - {fileID: 11400000, guid: 28c4b81482b5f9d429898592fdf665c1, type: 2}
        - _position: {x: -2.6, y: 1.4, z: -3.71}
          _rotation: {x: 0, y: 0, z: 0, w: 0}
          _fixedSpawnRotation: 0
          _allowedItemGroups:
          - {fileID: 11400000, guid: 28c4b81482b5f9d429898592fdf665c1, type: 2}
        - _position: {x: 2.6, y: 1.4, z: -3.41}
          _rotation: {x: 0, y: 0, z: 0, w: 0}
          _fixedSpawnRotation: 0
          _allowedItemGroups:
          - {fileID: 11400000, guid: 28c4b81482b5f9d429898592fdf665c1, type: 2}
        - _position: {x: 2.6, y: 1.4, z: -2.84}
          _rotation: {x: 0, y: 0, z: 0, w: 0}
          _fixedSpawnRotation: 0
          _allowedItemGroups:
          - {fileID: 11400000, guid: 28c4b81482b5f9d429898592fdf665c1, type: 2}
        - _position: {x: 1, y: 1.4, z: -2.39}
          _rotation: {x: 0, y: 0, z: 0, w: 0}
          _fixedSpawnRotation: 0
          _allowedItemGroups:
          - {fileID: 11400000, guid: 28c4b81482b5f9d429898592fdf665c1, type: 2}
        - _position: {x: 1, y: 1.4, z: -3.98}
          _rotation: {x: 0, y: 0, z: 0, w: 0}
          _fixedSpawnRotation: 0
          _allowedItemGroups:
          - {fileID: 11400000, guid: 28c4b81482b5f9d429898592fdf665c1, type: 2}
        - _position: {x: -1, y: 1.4, z: -3.49}
          _rotation: {x: 0, y: 0, z: 0, w: 0}
          _fixedSpawnRotation: 0
          _allowedItemGroups:
          - {fileID: 11400000, guid: 28c4b81482b5f9d429898592fdf665c1, type: 2}
        - _position: {x: -1, y: 1.4, z: -2.58}
          _rotation: {x: 0, y: 0, z: 0, w: 0}
          _fixedSpawnRotation: 0
          _allowedItemGroups:
          - {fileID: 11400000, guid: 28c4b81482b5f9d429898592fdf665c1, type: 2}
        - _position: {x: -1, y: 1.4, z: 2.68}
          _rotation: {x: 0, y: 0, z: 0, w: 0}
          _fixedSpawnRotation: 0
          _allowedItemGroups:
          - {fileID: 11400000, guid: 28c4b81482b5f9d429898592fdf665c1, type: 2}
        - _position: {x: -1, y: 1.4, z: 3.59}
          _rotation: {x: 0, y: 0, z: 0, w: 0}
          _fixedSpawnRotation: 0
          _allowedItemGroups:
          - {fileID: 11400000, guid: 28c4b81482b5f9d429898592fdf665c1, type: 2}
        - _position: {x: 1, y: 1.4, z: 3.74}
          _rotation: {x: 0, y: 0, z: 0, w: 0}
          _fixedSpawnRotation: 0
          _allowedItemGroups:
          - {fileID: 11400000, guid: 28c4b81482b5f9d429898592fdf665c1, type: 2}
        - _position: {x: 1, y: 1.4, z: 2.53}
          _rotation: {x: 0, y: 0, z: 0, w: 0}
          _fixedSpawnRotation: 0
          _allowedItemGroups:
          - {fileID: 11400000, guid: 28c4b81482b5f9d429898592fdf665c1, type: 2}
        - _position: {x: 2.6, y: 1.4, z: 3.42}
          _rotation: {x: 0, y: 0, z: 0, w: 0}
          _fixedSpawnRotation: 0
          _allowedItemGroups:
          - {fileID: 11400000, guid: 28c4b81482b5f9d429898592fdf665c1, type: 2}
        - _position: {x: 2.6, y: 1.4, z: 2.8}
          _rotation: {x: 0, y: 0, z: 0, w: 0}
          _fixedSpawnRotation: 0
          _allowedItemGroups:
          - {fileID: 11400000, guid: 28c4b81482b5f9d429898592fdf665c1, type: 2}
        - _position: {x: -2.6, y: 1.4, z: 2.8}
          _rotation: {x: 0, y: 0, z: 0, w: 0}
          _fixedSpawnRotation: 0
          _allowedItemGroups:
          - {fileID: 11400000, guid: 28c4b81482b5f9d429898592fdf665c1, type: 2}
        - _position: {x: -2.6, y: 1.4, z: 3.56}
          _rotation: {x: 0, y: 0, z: 0, w: 0}
          _fixedSpawnRotation: 0
          _allowedItemGroups:
          - {fileID: 11400000, guid: 28c4b81482b5f9d429898592fdf665c1, type: 2}
