%YAML 1.1
%TAG !u! tag:unity3d.com,2011:
--- !u!114 &11400000
MonoBehaviour:
  m_ObjectHideFlags: 0
  m_CorrespondingSourceObject: {fileID: 0}
  m_PrefabInstance: {fileID: 0}
  m_PrefabAsset: {fileID: 0}
  m_GameObject: {fileID: 0}
  m_Enabled: 1
  m_EditorHideFlags: 0
  m_Script: {fileID: 11500000, guid: 200a6ac99cfb8bc4eac93acf0e2afa66, type: 3}
  m_Name: Look At Player Tree
  m_EditorClassIdentifier: 
  _entryNodePosition: {x: -130.66667, y: -121.33333}
  _entryNodeId: d3814bef-4443-4b0a-9cb5-cde9c4745a22
  _leafNodes:
  - _id: 33004bac-072b-43e2-b656-08f398ab8eac
    _name: 
    _priority: 2
    _nodePosition: {x: 464.66666, y: -422}
    _typeName: Game.Core.AI.BehaviorTree.Wait
    _serializedFieldNames:
    - _waitDuration
    _serializedFieldValues:
    - 0.1
    _blackboardFieldNames: []
    _blackboardFieldVariableIds: []
  - _id: 82b5fb62-dd73-4bbc-9355-4f4f1b72f0c6
    _name: 
    _priority: 4
    _nodePosition: {x: 512.6667, y: -104}
    _typeName: Game.Core.AI.BehaviorTree.EntityRotateToFacePoint
    _serializedFieldNames:
    - _minRotation
    - _rotateDuration
    _serializedFieldValues:
    - 5
    - 0.5
    _blackboardFieldNames:
    - _targetPosition
    _blackboardFieldVariableIds:
    - ec64b481-a7b5-45e6-a098-537b00d78ab3
  - _id: f7cc0708-669f-4a3a-97cf-292fca17367d
    _name: Wait
    _priority: 5
    _nodePosition: {x: 195.33333, y: 121.33333}
    _typeName: Game.Core.AI.BehaviorTree.Wait
    _serializedFieldNames:
    - _waitDuration
    _serializedFieldValues:
    - 0
    _blackboardFieldNames: []
    _blackboardFieldVariableIds: []
  _decoratorNodes:
  - _id: 56b5d334-ee05-49bb-b2e0-cdb0ee9e377c
    _name: Falling
    _priority: 1
    _nodePosition: {x: 195.33333, y: -422}
    _typeName: Game.Core.AI.BehaviorTree.BlackboardBoolean
    _serializedFieldNames:
    - _comparison
    - _interruptMode
    _serializedFieldValues:
    - 1
    - 2
    _blackboardFieldNames:
    - _boolean
    _blackboardFieldVariableIds:
    - 1d2fe313-c376-4afb-8e3e-9d74e7518999
    _childNodeId: 33004bac-072b-43e2-b656-08f398ab8eac
  - _id: a413dfa6-e03c-4f75-97be-78ff480a6904
    _name: Can See Player
    _priority: 3
    _nodePosition: {x: 195.33333, y: -104}
    _typeName: Game.Core.AI.BehaviorTree.BlackboardBoolean
    _serializedFieldNames:
    - _comparison
    - _interruptMode
    _serializedFieldValues:
    - 0
    - 3
    _blackboardFieldNames:
    - _boolean
    _blackboardFieldVariableIds:
    - f727368a-9ed1-4275-8fbf-bd0d76a0db61
    _childNodeId: 82b5fb62-dd73-4bbc-9355-4f4f1b72f0c6
  _compositeNodes:
  - _id: d3814bef-4443-4b0a-9cb5-cde9c4745a22
    _name: 
    _priority: 0
    _nodePosition: {x: 7.3333335, y: -121.33333}
    _typeName: Game.Core.AI.BehaviorTree.Selector
    _serializedFieldNames: []
    _serializedFieldValues: []
    _blackboardFieldNames: []
    _blackboardFieldVariableIds: []
    _childNodeIds:
    - 56b5d334-ee05-49bb-b2e0-cdb0ee9e377c
    - a413dfa6-e03c-4f75-97be-78ff480a6904
    - f7cc0708-669f-4a3a-97cf-292fca17367d
  _blackboardEntries:
  - _id: 1d2fe313-c376-4afb-8e3e-9d74e7518999
    _name: Is Grounded
    _blackboardType: 1
    _exposed: 1
  - _id: f727368a-9ed1-4275-8fbf-bd0d76a0db61
    _name: Can See Player
    _blackboardType: 1
    _exposed: 1
  - _id: bd2d76a3-ba98-4c23-90a0-ea1c9677b671
    _name: Can Hear Player
    _blackboardType: 1
    _exposed: 1
  - _id: 2ec8a9b7-f53a-442e-8640-fd6c1eef038f
    _name: Observed Player
    _blackboardType: 1
    _exposed: 0
  - _id: f16a5121-e028-4e98-ab28-18e2c82a2211
    _name: Patrol Position
    _blackboardType: 4
    _exposed: 0
  - _id: ec64b481-a7b5-45e6-a098-537b00d78ab3
    _name: Last Player Position
    _blackboardType: 4
    _exposed: 1
  - _id: e794a256-3dd4-45dd-ad66-22fb9141af7b
    _name: Door Obstacle
    _blackboardType: 5
    _exposed: 1
