%YAML 1.1
%TAG !u! tag:unity3d.com,2011:
--- !u!114 &11400000
MonoBehaviour:
  m_ObjectHideFlags: 0
  m_CorrespondingSourceObject: {fileID: 0}
  m_PrefabInstance: {fileID: 0}
  m_PrefabAsset: {fileID: 0}
  m_GameObject: {fileID: 0}
  m_Enabled: 1
  m_EditorHideFlags: 0
  m_Script: {fileID: 11500000, guid: b1e33358351766441bdf54f6d6484870, type: 3}
  m_Name: Player Footsteps Land Speed Threshold
  m_EditorClassIdentifier: 
  _id: 921f7624-54d6-4029-9f04-6d30489c3b02
  _isConstant: 1
  _triggerEvents: 0
  _value: 3
