%YAML 1.1
%TAG !u! tag:unity3d.com,2011:
--- !u!114 &11400000
MonoBehaviour:
  m_ObjectHideFlags: 0
  m_CorrespondingSourceObject: {fileID: 0}
  m_PrefabInstance: {fileID: 0}
  m_PrefabAsset: {fileID: 0}
  m_GameObject: {fileID: 0}
  m_Enabled: 1
  m_EditorHideFlags: 0
  m_Script: {fileID: 11500000, guid: 75b754fe5e2a62c4ab779a0df4ac64ed, type: 3}
  m_Name: Kitchen Dining Room
  m_EditorClassIdentifier: 
  _id: bbc5648e-64ba-4831-b450-e46a8b40fb6b
  _sceneBuildIndex: 13
  _description: Combo Kitchen & Dining Room
  _spaceDataComponents:
  - rid: 5012660453929648129
  - rid: 5012660453929648130
  - rid: 5012660453929648131
  - rid: 2767731648614367238
  - rid: 306683611982594048
  references:
    version: 2
    RefIds:
    - rid: 306683611982594048
      type: {class: EntityManifestComponent, ns: Game.Core.Entity, asm: Game.Core}
      data:
        _entities:
        - _id: 54474244-f160-4f00-a736-db698ad49803
          _name: Bottle - Green
          _entityAssetKey: Entities/Bottles/Green
          _position: {x: 2.591, y: 0.967, z: -1.301}
          _rotation: {x: 0, y: -0.98251545, z: 0, w: 0.18618126}
          _scale: {x: 1, y: 1, z: 1}
          _serializedJson: 
        - _id: 2e78b8e4-eb29-4bfb-920d-7dd9eb608fa5
          _name: Bottle - Soda
          _entityAssetKey: Entities/Bottles/Soda
          _position: {x: 1.3858, y: 0.967, z: -2.595}
          _rotation: {x: 0, y: -0.28393176, z: 0, w: 0.95884454}
          _scale: {x: 1, y: 1, z: 1}
          _serializedJson: 
        - _id: c5369cc1-737a-42cb-a475-8a4922ffa455
          _name: Bottle - Soda
          _entityAssetKey: Entities/Bottles/Soda
          _position: {x: 1.6973, y: 0.967, z: -2.5195}
          _rotation: {x: 0, y: -0.99260986, z: 0, w: 0.12134971}
          _scale: {x: 1, y: 1, z: 1}
          _serializedJson: 
        - _id: 35a76f8b-5650-4ba3-a7a0-8811e9df1455
          _name: Bottle - Green
          _entityAssetKey: Entities/Bottles/Green
          _position: {x: 2.673, y: 0.967, z: -1.238}
          _rotation: {x: 0, y: 0.40928614, z: 0, w: 0.91240615}
          _scale: {x: 1, y: 1, z: 1}
          _serializedJson: 
        - _id: d8083cf1-aade-49fe-9562-a8a8cfc4ddfc
          _name: Bottle - Green
          _entityAssetKey: Entities/Bottles/Green
          _position: {x: 2.607, y: 0.967, z: -1.1318}
          _rotation: {x: 0, y: 0, z: 0, w: 1}
          _scale: {x: 1, y: 1, z: 1}
          _serializedJson: 
        - _id: 14b00663-90a9-48ba-93cc-86540a23d2eb
          _name: Bottle - Soda
          _entityAssetKey: Entities/Bottles/Soda
          _position: {x: 1.563, y: 0.967, z: -2.6091}
          _rotation: {x: 0, y: 0.86011946, z: 0, w: 0.51009274}
          _scale: {x: 1, y: 1, z: 1}
          _serializedJson: 
        - _id: e60f5c87-ab4d-4eb3-af73-52b933151e2c
          _name: Bottle - Beer
          _entityAssetKey: Entities/Bottles/Beer
          _position: {x: -3.4731, y: 0.9774, z: 3.3385}
          _rotation: {x: 0, y: -0.8358553, z: 0, w: 0.5489499}
          _scale: {x: 1, y: 1, z: 1}
          _serializedJson: 
        - _id: 4080c38d-7796-4e58-91ba-c9275b4ac3f9
          _name: Bottle - Soda
          _entityAssetKey: Entities/Bottles/Soda
          _position: {x: -3.256, y: 0.9693, z: 3.28}
          _rotation: {x: 0, y: -0.53058505, z: 0, w: 0.8476317}
          _scale: {x: 1, y: 1, z: 1}
          _serializedJson: 
        - _id: eabae61c-9cdb-4ec0-ab38-986968bbb6e0
          _name: Bottle - Soda
          _entityAssetKey: Entities/Bottles/Soda
          _position: {x: -5.6728, y: 0.9938, z: 6.2153}
          _rotation: {x: 0, y: 0.059916113, z: 0, w: 0.99820346}
          _scale: {x: 1, y: 1, z: 1}
          _serializedJson: 
        - _id: 65c23417-5d05-4f04-b734-3368b2f9f1da
          _name: Bottle - Beer
          _entityAssetKey: Entities/Bottles/Beer
          _position: {x: -5.6728, y: 0.9938, z: 6.8669}
          _rotation: {x: 0, y: 0.30959794, z: 0, w: 0.9508676}
          _scale: {x: 1, y: 1, z: 1}
          _serializedJson: 
        - _id: d7f33a94-8f83-4011-ada2-29823951b613
          _name: Bottle - Soda
          _entityAssetKey: Entities/Bottles/Soda
          _position: {x: -5.6422, y: 0.9938, z: 6.39}
          _rotation: {x: 0, y: -0.1826645, z: 0, w: 0.98317534}
          _scale: {x: 1, y: 1, z: 1}
          _serializedJson: 
        - _id: 67e1886e-3aac-46de-8da7-3c627c7e466a
          _name: Bottle - Soda
          _entityAssetKey: Entities/Bottles/Soda
          _position: {x: -5.61, y: 0.9938, z: 6.2918}
          _rotation: {x: 0, y: 0, z: 0, w: 1}
          _scale: {x: 1, y: 1, z: 1}
          _serializedJson: 
        - _id: 463a6a61-dee9-43de-8d5d-81ca22ef08df
          _name: Bottle - Beer
          _entityAssetKey: Entities/Bottles/Beer
          _position: {x: -5.6456, y: 0.9938, z: 6.7444}
          _rotation: {x: 0, y: -0.04039345, z: 0, w: 0.9991839}
          _scale: {x: 1, y: 1, z: 1}
          _serializedJson: 
        - _id: 838779a6-97c3-4ef0-8331-31c31c11b7cd
          _name: Bottle - Green
          _entityAssetKey: Entities/Bottles/Green
          _position: {x: -5.7345, y: 0.9764, z: 5.8475}
          _rotation: {x: 0, y: 0, z: 0, w: 1}
          _scale: {x: 1, y: 1, z: 1}
          _serializedJson: 
        - _id: 0e771e13-2540-4e17-aada-abf8f3687987
          _name: Bottle - Green
          _entityAssetKey: Entities/Bottles/Green
          _position: {x: -5.7579, y: 0.9764, z: 5.7287}
          _rotation: {x: 0, y: 0.624425, z: 0, w: 0.7810848}
          _scale: {x: 1, y: 1, z: 1}
          _serializedJson: 
        - _id: e7570645-43a3-41d1-8e61-5a1b17d1c1e4
          _name: Bottle - Green
          _entityAssetKey: Entities/Bottles/Green
          _position: {x: -5.7948, y: 0.9764, z: 5.5741}
          _rotation: {x: 0, y: -0.75016874, z: 0, w: 0.66124654}
          _scale: {x: 1, y: 1, z: 1}
          _serializedJson: 
    - rid: 2767731648614367238
      type: {class: WorldItemSpawnDataComponent, ns: Game.World.Item.Data, asm: Game}
      data:
        _itemSpawns:
        - _position: {x: -1, y: 0.85, z: 0.7}
          _rotation: {x: 0, y: 0.70710677, z: 0, w: 0.70710677}
          _fixedSpawnRotation: 0
          _allowedItemGroups:
          - {fileID: 11400000, guid: 866a9140ac8b0484baf17747a75a8ee3, type: 2}
        - _position: {x: -1, y: 0.85, z: -0.7}
          _rotation: {x: 0, y: -0.70710677, z: 0, w: 0.70710677}
          _fixedSpawnRotation: 0
          _allowedItemGroups:
          - {fileID: 11400000, guid: 866a9140ac8b0484baf17747a75a8ee3, type: 2}
        - _position: {x: -3, y: 1, z: 6}
          _rotation: {x: 0, y: 1, z: 0, w: -0.00000004371139}
          _fixedSpawnRotation: 0
          _allowedItemGroups:
          - {fileID: 11400000, guid: 866a9140ac8b0484baf17747a75a8ee3, type: 2}
        - _position: {x: -0.7, y: 0.2, z: -2.5}
          _rotation: {x: 0, y: 0.70710677, z: 0, w: 0.70710677}
          _fixedSpawnRotation: 0
          _allowedItemGroups:
          - {fileID: 11400000, guid: c30c5c8952207e74a9fb0ad6de2929a4, type: 2}
        - _position: {x: -1.3, y: 0.68, z: -2.5}
          _rotation: {x: 0, y: 0.70710677, z: 0, w: 0.70710677}
          _fixedSpawnRotation: 0
          _allowedItemGroups:
          - {fileID: 11400000, guid: c30c5c8952207e74a9fb0ad6de2929a4, type: 2}
        - _position: {x: -0.7, y: 1.13, z: -2.5}
          _rotation: {x: 0, y: 0.70710677, z: 0, w: 0.70710677}
          _fixedSpawnRotation: 0
          _allowedItemGroups:
          - {fileID: 11400000, guid: c30c5c8952207e74a9fb0ad6de2929a4, type: 2}
        - _position: {x: -1.3, y: 1.6, z: -2.5}
          _rotation: {x: 0, y: 0.70710677, z: 0, w: 0.70710677}
          _fixedSpawnRotation: 0
          _allowedItemGroups:
          - {fileID: 11400000, guid: c30c5c8952207e74a9fb0ad6de2929a4, type: 2}
        - _position: {x: -4.3, y: 1.6, z: 8.5}
          _rotation: {x: 0, y: -0.70710677, z: 0, w: 0.70710677}
          _fixedSpawnRotation: 0
          _allowedItemGroups:
          - {fileID: 11400000, guid: c30c5c8952207e74a9fb0ad6de2929a4, type: 2}
        - _position: {x: -3.7, y: 1.13, z: 8.5}
          _rotation: {x: 0, y: -0.70710677, z: 0, w: 0.70710677}
          _fixedSpawnRotation: 0
          _allowedItemGroups:
          - {fileID: 11400000, guid: c30c5c8952207e74a9fb0ad6de2929a4, type: 2}
        - _position: {x: -4.3, y: 0.68, z: 8.5}
          _rotation: {x: 0, y: -0.70710677, z: 0, w: 0.70710677}
          _fixedSpawnRotation: 0
          _allowedItemGroups:
          - {fileID: 11400000, guid: c30c5c8952207e74a9fb0ad6de2929a4, type: 2}
        - _position: {x: -3.7, y: 0.2, z: 8.5}
          _rotation: {x: 0, y: -0.70710677, z: 0, w: 0.70710677}
          _fixedSpawnRotation: 0
          _allowedItemGroups:
          - {fileID: 11400000, guid: c30c5c8952207e74a9fb0ad6de2929a4, type: 2}
    - rid: 5012660453929648129
      type: {class: PlayerSpawnDataComponent, ns: Game.Player, asm: Game}
      data:
        _position: {x: 1.01, y: 0, z: 1.66}
        _rotation: {x: 0, y: 0.924679, z: 0, w: -0.3807476}
    - rid: 5012660453929648130
      type: {class: HauntDataComponent, ns: Game.World.Haunt.Data, asm: Game}
      data:
        _passiveHauntRate:
          _useInline: 0
          _inlineValue: 0
          _variable: {fileID: 11400000, guid: a47101efd1d831e40b0014d6a0e3df58, type: 2}
        _minHauntLevelAmbientLight:
          _useInline: 0
          _inlineValue: {r: 0, g: 0, b: 0, a: 0}
          _variable: {fileID: 11400000, guid: e7cfde42b5360654393ba757fcae3242, type: 2}
        _maxHauntLevelAmbientLight:
          _useInline: 0
          _inlineValue: {r: 0, g: 0, b: 0, a: 0}
          _variable: {fileID: 11400000, guid: dab66dfba44b69b4cacb3d63ee4852b6, type: 2}
        _hauntMonsterSpawns:
        - _position: {x: 1, y: 0, z: -1}
          _rotation: {x: 0, y: -0.38268346, z: 0, w: 0.9238795}
        - _position: {x: -1.5, y: 0, z: 7.5}
          _rotation: {x: 0, y: 0.92387956, z: 0, w: -0.3826834}
        - _position: {x: -1.5, y: 0, z: 2.5}
          _rotation: {x: 0, y: 1, z: 0, w: -0.00000004371139}
        _maxHauntTraps:
          _useInline: 0
          _inlineValue: 0
          _variable: {fileID: 11400000, guid: 7c3bf2cc841adbd43ab4f191c910b076, type: 2}
        _hauntTrapSpawns:
        - _position: {x: 0, y: 0, z: 1.34}
          _rotation: {x: 0, y: 0.49097976, z: 0, w: 0.871171}
        - _position: {x: -3, y: 0, z: 4.36}
          _rotation: {x: 0, y: 0.95175517, z: 0, w: -0.3068584}
        - _position: {x: -4.44, y: 0, z: 7.36}
          _rotation: {x: 0, y: 0.5431743, z: 0, w: -0.83961993}
        - _position: {x: -1.48, y: 0, z: 6.46}
          _rotation: {x: 0, y: 0.99914104, z: 0, w: -0.04143963}
    - rid: 5012660453929648131
      type: {class: WorldBuilderDataComponent, ns: Game.World.Builder.Data, asm: Game}
      data:
        _worldEntrance:
          _useInline: 1
          _inlineValue: 0
          _variable: {fileID: 0}
        _roomType: 1
        _allowedZones: 0000000001000000
        _maxLinkedSpaces:
          _useInline: 1
          _inlineValue: 0
          _variable: {fileID: 0}
        _dynamicPortals:
        - _portalId: d5185463-91d5-46e3-b154-101200906cd0
          _worldEntrance: 0
          _zoneEntrance: -100
          _allowedDestinationTypes: 
          _portalPosition: {x: 1.5, y: 1.075, z: 3}
          _portalRotation: {x: -0, y: -0, z: -0, w: 1}
          _portalScale: {x: 1, y: 2.15, z: 1}
        - _portalId: 31c55192-f1f6-404b-8edb-131b8394b6fb
          _worldEntrance: 0
          _zoneEntrance: -100
          _allowedDestinationTypes: 
          _portalPosition: {x: 0, y: 1.075, z: 7.5}
          _portalRotation: {x: -0, y: 0.7071068, z: -0, w: 0.7071068}
          _portalScale: {x: 1.0000002, y: 2.15, z: 1.0000002}
        - _portalId: 9acc33ed-641f-498e-8f8c-1b971c97af30
          _worldEntrance: 0
          _zoneEntrance: -100
          _allowedDestinationTypes: 
          _portalPosition: {x: 2.5, y: 1.075, z: 1}
          _portalRotation: {x: -0, y: 0.7071068, z: -0, w: 0.7071068}
          _portalScale: {x: 1.0000002, y: 2.15, z: 1.0000002}
