{
    "name": "StrangeSpacesInput",
    "maps": [
        {
            "name": "UI",
            "id": "42008272-2b9c-4890-a867-9e1f9018c178",
            "actions": [
                {
                    "name": "Navigate",
                    "type": "Value",
                    "id": "bc3afe72-93ce-4292-88eb-3bb56c424b74",
                    "expectedControlType": "Vector2",
                    "processors": "",
                    "interactions": "",
                    "initialStateCheck": true
                },
                {
                    "name": "Submit",
                    "type": "Button",
                    "id": "e37e0eca-6a94-43da-94f4-be2d3c005eee",
                    "expectedControlType": "Button",
                    "processors": "",
                    "interactions": "",
                    "initialStateCheck": false
                },
                {
                    "name": "Cancel",
                    "type": "Button",
                    "id": "35fb49ca-7a5d-433b-8f57-077baa196b91",
                    "expectedControlType": "Button",
                    "processors": "",
                    "interactions": "",
                    "initialStateCheck": false
                },
                {
                    "name": "Point",
                    "type": "PassThrough",
                    "id": "3f9c05bb-730f-4956-bcd9-4a1f3f2405bb",
                    "expectedControlType": "Vector2",
                    "processors": "",
                    "interactions": "",
                    "initialStateCheck": false
                },
                {
                    "name": "Click",
                    "type": "PassThrough",
                    "id": "3daf7d84-e32a-416c-85b6-412eb2ad1a87",
                    "expectedControlType": "Button",
                    "processors": "",
                    "interactions": "",
                    "initialStateCheck": false
                },
                {
                    "name": "ScrollWheel",
                    "type": "PassThrough",
                    "id": "1a2f5d77-3e9b-4f73-b95f-33f754f978d6",
                    "expectedControlType": "Vector2",
                    "processors": "",
                    "interactions": "",
                    "initialStateCheck": false
                },
                {
                    "name": "MiddleClick",
                    "type": "PassThrough",
                    "id": "7734b284-efe3-471f-86c7-e04740b1386f",
                    "expectedControlType": "",
                    "processors": "",
                    "interactions": "",
                    "initialStateCheck": false
                },
                {
                    "name": "RightClick",
                    "type": "PassThrough",
                    "id": "fac2a2b0-c92a-4217-8b73-d1ae7c7777fc",
                    "expectedControlType": "",
                    "processors": "",
                    "interactions": "",
                    "initialStateCheck": false
                },
                {
                    "name": "TrackedDevicePosition",
                    "type": "PassThrough",
                    "id": "745d37cb-1f86-4339-9e4e-dc9d869b59f6",
                    "expectedControlType": "Vector3",
                    "processors": "",
                    "interactions": "",
                    "initialStateCheck": false
                },
                {
                    "name": "TrackedDeviceOrientation",
                    "type": "PassThrough",
                    "id": "c7895b13-72b4-4f1a-bec0-b4c7fcd865a7",
                    "expectedControlType": "Quaternion",
                    "processors": "",
                    "interactions": "",
                    "initialStateCheck": false
                }
            ],
            "bindings": [
                {
                    "name": "Gamepad",
                    "id": "809f371f-c5e2-4e7a-83a1-d867598f40dd",
                    "path": "2DVector",
                    "interactions": "",
                    "processors": "",
                    "groups": "",
                    "action": "Navigate",
                    "isComposite": true,
                    "isPartOfComposite": false
                },
                {
                    "name": "up",
                    "id": "14a5d6e8-4aaf-4119-a9ef-34b8c2c548bf",
                    "path": "<Gamepad>/leftStick/up",
                    "interactions": "",
                    "processors": "",
                    "groups": ";Gamepad",
                    "action": "Navigate",
                    "isComposite": false,
                    "isPartOfComposite": true
                },
                {
                    "name": "up",
                    "id": "9144cbe6-05e1-4687-a6d7-24f99d23dd81",
                    "path": "<Gamepad>/rightStick/up",
                    "interactions": "",
                    "processors": "",
                    "groups": ";Gamepad",
                    "action": "Navigate",
                    "isComposite": false,
                    "isPartOfComposite": true
                },
                {
                    "name": "down",
                    "id": "2db08d65-c5fb-421b-983f-c71163608d67",
                    "path": "<Gamepad>/leftStick/down",
                    "interactions": "",
                    "processors": "",
                    "groups": ";Gamepad",
                    "action": "Navigate",
                    "isComposite": false,
                    "isPartOfComposite": true
                },
                {
                    "name": "down",
                    "id": "58748904-2ea9-4a80-8579-b500e6a76df8",
                    "path": "<Gamepad>/rightStick/down",
                    "interactions": "",
                    "processors": "",
                    "groups": ";Gamepad",
                    "action": "Navigate",
                    "isComposite": false,
                    "isPartOfComposite": true
                },
                {
                    "name": "left",
                    "id": "8ba04515-75aa-45de-966d-393d9bbd1c14",
                    "path": "<Gamepad>/leftStick/left",
                    "interactions": "",
                    "processors": "",
                    "groups": ";Gamepad",
                    "action": "Navigate",
                    "isComposite": false,
                    "isPartOfComposite": true
                },
                {
                    "name": "left",
                    "id": "712e721c-bdfb-4b23-a86c-a0d9fcfea921",
                    "path": "<Gamepad>/rightStick/left",
                    "interactions": "",
                    "processors": "",
                    "groups": ";Gamepad",
                    "action": "Navigate",
                    "isComposite": false,
                    "isPartOfComposite": true
                },
                {
                    "name": "right",
                    "id": "fcd248ae-a788-4676-a12e-f4d81205600b",
                    "path": "<Gamepad>/leftStick/right",
                    "interactions": "",
                    "processors": "",
                    "groups": ";Gamepad",
                    "action": "Navigate",
                    "isComposite": false,
                    "isPartOfComposite": true
                },
                {
                    "name": "right",
                    "id": "1f04d9bc-c50b-41a1-bfcc-afb75475ec20",
                    "path": "<Gamepad>/rightStick/right",
                    "interactions": "",
                    "processors": "",
                    "groups": ";Gamepad",
                    "action": "Navigate",
                    "isComposite": false,
                    "isPartOfComposite": true
                },
                {
                    "name": "",
                    "id": "fb8277d4-c5cd-4663-9dc7-ee3f0b506d90",
                    "path": "<Gamepad>/dpad",
                    "interactions": "",
                    "processors": "",
                    "groups": ";Gamepad",
                    "action": "Navigate",
                    "isComposite": false,
                    "isPartOfComposite": false
                },
                {
                    "name": "Joystick",
                    "id": "e25d9774-381c-4a61-b47c-7b6b299ad9f9",
                    "path": "2DVector",
                    "interactions": "",
                    "processors": "",
                    "groups": "",
                    "action": "Navigate",
                    "isComposite": true,
                    "isPartOfComposite": false
                },
                {
                    "name": "up",
                    "id": "3db53b26-6601-41be-9887-63ac74e79d19",
                    "path": "<Joystick>/stick/up",
                    "interactions": "",
                    "processors": "",
                    "groups": "Joystick",
                    "action": "Navigate",
                    "isComposite": false,
                    "isPartOfComposite": true
                },
                {
                    "name": "down",
                    "id": "0cb3e13e-3d90-4178-8ae6-d9c5501d653f",
                    "path": "<Joystick>/stick/down",
                    "interactions": "",
                    "processors": "",
                    "groups": "Joystick",
                    "action": "Navigate",
                    "isComposite": false,
                    "isPartOfComposite": true
                },
                {
                    "name": "left",
                    "id": "0392d399-f6dd-4c82-8062-c1e9c0d34835",
                    "path": "<Joystick>/stick/left",
                    "interactions": "",
                    "processors": "",
                    "groups": "Joystick",
                    "action": "Navigate",
                    "isComposite": false,
                    "isPartOfComposite": true
                },
                {
                    "name": "right",
                    "id": "942a66d9-d42f-43d6-8d70-ecb4ba5363bc",
                    "path": "<Joystick>/stick/right",
                    "interactions": "",
                    "processors": "",
                    "groups": "Joystick",
                    "action": "Navigate",
                    "isComposite": false,
                    "isPartOfComposite": true
                },
                {
                    "name": "Keyboard",
                    "id": "ff527021-f211-4c02-933e-5976594c46ed",
                    "path": "2DVector",
                    "interactions": "",
                    "processors": "",
                    "groups": "",
                    "action": "Navigate",
                    "isComposite": true,
                    "isPartOfComposite": false
                },
                {
                    "name": "up",
                    "id": "eb480147-c587-4a33-85ed-eb0ab9942c43",
                    "path": "<Keyboard>/upArrow",
                    "interactions": "",
                    "processors": "",
                    "groups": "Keyboard&Mouse",
                    "action": "Navigate",
                    "isComposite": false,
                    "isPartOfComposite": true
                },
                {
                    "name": "down",
                    "id": "85d264ad-e0a0-4565-b7ff-1a37edde51ac",
                    "path": "<Keyboard>/downArrow",
                    "interactions": "",
                    "processors": "",
                    "groups": "Keyboard&Mouse",
                    "action": "Navigate",
                    "isComposite": false,
                    "isPartOfComposite": true
                },
                {
                    "name": "left",
                    "id": "cea9b045-a000-445b-95b8-0c171af70a3b",
                    "path": "<Keyboard>/leftArrow",
                    "interactions": "",
                    "processors": "",
                    "groups": "Keyboard&Mouse",
                    "action": "Navigate",
                    "isComposite": false,
                    "isPartOfComposite": true
                },
                {
                    "name": "right",
                    "id": "4cda81dc-9edd-4e03-9d7c-a71a14345d0b",
                    "path": "<Keyboard>/rightArrow",
                    "interactions": "",
                    "processors": "",
                    "groups": "Keyboard&Mouse",
                    "action": "Navigate",
                    "isComposite": false,
                    "isPartOfComposite": true
                },
                {
                    "name": "",
                    "id": "9e92bb26-7e3b-4ec4-b06b-3c8f8e498ddc",
                    "path": "*/{Submit}",
                    "interactions": "",
                    "processors": "",
                    "groups": "",
                    "action": "Submit",
                    "isComposite": false,
                    "isPartOfComposite": false
                },
                {
                    "name": "",
                    "id": "82627dcc-3b13-4ba9-841d-e4b746d6553e",
                    "path": "*/{Cancel}",
                    "interactions": "",
                    "processors": "",
                    "groups": "",
                    "action": "Cancel",
                    "isComposite": false,
                    "isPartOfComposite": false
                },
                {
                    "name": "",
                    "id": "c52c8e0b-8179-41d3-b8a1-d149033bbe86",
                    "path": "<Mouse>/position",
                    "interactions": "",
                    "processors": "",
                    "groups": "Keyboard&Mouse",
                    "action": "Point",
                    "isComposite": false,
                    "isPartOfComposite": false
                },
                {
                    "name": "",
                    "id": "4faf7dc9-b979-4210-aa8c-e808e1ef89f5",
                    "path": "<Mouse>/leftButton",
                    "interactions": "",
                    "processors": "",
                    "groups": ";Keyboard&Mouse",
                    "action": "Click",
                    "isComposite": false,
                    "isPartOfComposite": false
                },
                {
                    "name": "",
                    "id": "8d66d5ba-88d7-48e6-b1cd-198bbfef7ace",
                    "path": "<Pen>/tip",
                    "interactions": "",
                    "processors": "",
                    "groups": ";Keyboard&Mouse",
                    "action": "Click",
                    "isComposite": false,
                    "isPartOfComposite": false
                },
                {
                    "name": "",
                    "id": "bb9e6b34-44bf-4381-ac63-5aa15d19f677",
                    "path": "<XRController>/trigger",
                    "interactions": "",
                    "processors": "",
                    "groups": "XR",
                    "action": "Click",
                    "isComposite": false,
                    "isPartOfComposite": false
                },
                {
                    "name": "",
                    "id": "38c99815-14ea-4617-8627-164d27641299",
                    "path": "<Mouse>/scroll",
                    "interactions": "",
                    "processors": "",
                    "groups": ";Keyboard&Mouse",
                    "action": "ScrollWheel",
                    "isComposite": false,
                    "isPartOfComposite": false
                },
                {
                    "name": "",
                    "id": "24066f69-da47-44f3-a07e-0015fb02eb2e",
                    "path": "<Mouse>/middleButton",
                    "interactions": "",
                    "processors": "",
                    "groups": ";Keyboard&Mouse",
                    "action": "MiddleClick",
                    "isComposite": false,
                    "isPartOfComposite": false
                },
                {
                    "name": "",
                    "id": "4c191405-5738-4d4b-a523-c6a301dbf754",
                    "path": "<Mouse>/rightButton",
                    "interactions": "",
                    "processors": "",
                    "groups": ";Keyboard&Mouse",
                    "action": "RightClick",
                    "isComposite": false,
                    "isPartOfComposite": false
                },
                {
                    "name": "",
                    "id": "7236c0d9-6ca3-47cf-a6ee-a97f5b59ea77",
                    "path": "<XRController>/devicePosition",
                    "interactions": "",
                    "processors": "",
                    "groups": "XR",
                    "action": "TrackedDevicePosition",
                    "isComposite": false,
                    "isPartOfComposite": false
                },
                {
                    "name": "",
                    "id": "23e01e3a-f935-4948-8d8b-9bcac77714fb",
                    "path": "<XRController>/deviceRotation",
                    "interactions": "",
                    "processors": "",
                    "groups": "XR",
                    "action": "TrackedDeviceOrientation",
                    "isComposite": false,
                    "isPartOfComposite": false
                }
            ]
        },
        {
            "name": "Developer",
            "id": "c5456901-7647-455e-bf42-1f61ded9df19",
            "actions": [
                {
                    "name": "Toggle Developer Console",
                    "type": "Button",
                    "id": "5b3fb2d7-5e52-4106-8a5e-c8486293c0b6",
                    "expectedControlType": "Button",
                    "processors": "",
                    "interactions": "",
                    "initialStateCheck": false
                },
                {
                    "name": "Navigate Console",
                    "type": "Value",
                    "id": "bcc38cf5-a95e-4072-81f9-da59f945ed64",
                    "expectedControlType": "Vector2",
                    "processors": "",
                    "interactions": "",
                    "initialStateCheck": true
                }
            ],
            "bindings": [
                {
                    "name": "",
                    "id": "773f6c2e-62f2-4a80-8752-c2ee99839a8e",
                    "path": "<Keyboard>/backquote",
                    "interactions": "",
                    "processors": "",
                    "groups": "Keyboard&Mouse",
                    "action": "Toggle Developer Console",
                    "isComposite": false,
                    "isPartOfComposite": false
                },
                {
                    "name": "Gamepad",
                    "id": "c3973211-b704-47fe-8399-896b79e25146",
                    "path": "2DVector",
                    "interactions": "",
                    "processors": "",
                    "groups": "",
                    "action": "Navigate Console",
                    "isComposite": true,
                    "isPartOfComposite": false
                },
                {
                    "name": "up",
                    "id": "86885d5f-54c2-4647-a185-b41707cf2449",
                    "path": "<Gamepad>/leftStick/up",
                    "interactions": "",
                    "processors": "",
                    "groups": ";Gamepad",
                    "action": "Navigate Console",
                    "isComposite": false,
                    "isPartOfComposite": true
                },
                {
                    "name": "up",
                    "id": "1895ea76-b2e2-400c-a460-419c0efea6c7",
                    "path": "<Gamepad>/rightStick/up",
                    "interactions": "",
                    "processors": "",
                    "groups": ";Gamepad",
                    "action": "Navigate Console",
                    "isComposite": false,
                    "isPartOfComposite": true
                },
                {
                    "name": "down",
                    "id": "5b74ac0e-b5a8-41d4-9340-565b23ba1310",
                    "path": "<Gamepad>/leftStick/down",
                    "interactions": "",
                    "processors": "",
                    "groups": ";Gamepad",
                    "action": "Navigate Console",
                    "isComposite": false,
                    "isPartOfComposite": true
                },
                {
                    "name": "down",
                    "id": "93ccf077-ebab-4c0e-922c-ff79e9eeb014",
                    "path": "<Gamepad>/rightStick/down",
                    "interactions": "",
                    "processors": "",
                    "groups": ";Gamepad",
                    "action": "Navigate Console",
                    "isComposite": false,
                    "isPartOfComposite": true
                },
                {
                    "name": "left",
                    "id": "ddfae4ff-2aac-4fe5-a9bb-4044de2b3508",
                    "path": "<Gamepad>/leftStick/left",
                    "interactions": "",
                    "processors": "",
                    "groups": ";Gamepad",
                    "action": "Navigate Console",
                    "isComposite": false,
                    "isPartOfComposite": true
                },
                {
                    "name": "left",
                    "id": "0b480a36-2202-4180-8af5-d0412fd4dc92",
                    "path": "<Gamepad>/rightStick/left",
                    "interactions": "",
                    "processors": "",
                    "groups": ";Gamepad",
                    "action": "Navigate Console",
                    "isComposite": false,
                    "isPartOfComposite": true
                },
                {
                    "name": "right",
                    "id": "416fb362-7925-4450-8f68-a5230abcd563",
                    "path": "<Gamepad>/leftStick/right",
                    "interactions": "",
                    "processors": "",
                    "groups": ";Gamepad",
                    "action": "Navigate Console",
                    "isComposite": false,
                    "isPartOfComposite": true
                },
                {
                    "name": "right",
                    "id": "e21ff19e-c559-485f-81db-7780bbb0d7d3",
                    "path": "<Gamepad>/rightStick/right",
                    "interactions": "",
                    "processors": "",
                    "groups": ";Gamepad",
                    "action": "Navigate Console",
                    "isComposite": false,
                    "isPartOfComposite": true
                },
                {
                    "name": "",
                    "id": "f8d150fe-1a2d-4f4d-82fe-5e92a6384cdd",
                    "path": "<Gamepad>/dpad",
                    "interactions": "",
                    "processors": "",
                    "groups": ";Gamepad",
                    "action": "Navigate Console",
                    "isComposite": false,
                    "isPartOfComposite": false
                },
                {
                    "name": "Joystick",
                    "id": "12856d04-d0af-4773-96d6-715723d6d4fd",
                    "path": "2DVector",
                    "interactions": "",
                    "processors": "",
                    "groups": "",
                    "action": "Navigate Console",
                    "isComposite": true,
                    "isPartOfComposite": false
                },
                {
                    "name": "up",
                    "id": "16e4af5d-39dc-4b01-a1cd-4898321e6a1b",
                    "path": "<Joystick>/stick/up",
                    "interactions": "",
                    "processors": "",
                    "groups": "Joystick",
                    "action": "Navigate Console",
                    "isComposite": false,
                    "isPartOfComposite": true
                },
                {
                    "name": "down",
                    "id": "1751eca7-bbef-4761-8b7f-430bf68e65ae",
                    "path": "<Joystick>/stick/down",
                    "interactions": "",
                    "processors": "",
                    "groups": "Joystick",
                    "action": "Navigate Console",
                    "isComposite": false,
                    "isPartOfComposite": true
                },
                {
                    "name": "left",
                    "id": "aa14d6c2-6ebc-4509-b29d-f2e915d57bc3",
                    "path": "<Joystick>/stick/left",
                    "interactions": "",
                    "processors": "",
                    "groups": "Joystick",
                    "action": "Navigate Console",
                    "isComposite": false,
                    "isPartOfComposite": true
                },
                {
                    "name": "right",
                    "id": "c805b8c0-ac5a-453a-ae43-7ef7223a392e",
                    "path": "<Joystick>/stick/right",
                    "interactions": "",
                    "processors": "",
                    "groups": "Joystick",
                    "action": "Navigate Console",
                    "isComposite": false,
                    "isPartOfComposite": true
                },
                {
                    "name": "Keyboard",
                    "id": "8107f22c-6810-4887-8aaa-57ed727daea8",
                    "path": "2DVector",
                    "interactions": "",
                    "processors": "",
                    "groups": "",
                    "action": "Navigate Console",
                    "isComposite": true,
                    "isPartOfComposite": false
                },
                {
                    "name": "up",
                    "id": "16be454e-7e8a-4122-8080-86d089dd4f04",
                    "path": "<Keyboard>/upArrow",
                    "interactions": "",
                    "processors": "",
                    "groups": "Keyboard&Mouse",
                    "action": "Navigate Console",
                    "isComposite": false,
                    "isPartOfComposite": true
                },
                {
                    "name": "down",
                    "id": "4046b2b1-a18e-40b0-bae1-8385832a1fff",
                    "path": "<Keyboard>/downArrow",
                    "interactions": "",
                    "processors": "",
                    "groups": "Keyboard&Mouse",
                    "action": "Navigate Console",
                    "isComposite": false,
                    "isPartOfComposite": true
                },
                {
                    "name": "left",
                    "id": "1e630d54-79d3-48d4-a0f9-3107bb66bddc",
                    "path": "<Keyboard>/leftArrow",
                    "interactions": "",
                    "processors": "",
                    "groups": "Keyboard&Mouse",
                    "action": "Navigate Console",
                    "isComposite": false,
                    "isPartOfComposite": true
                },
                {
                    "name": "right",
                    "id": "381f3c87-c20c-48fa-9e71-d5328ac1cc1d",
                    "path": "<Keyboard>/rightArrow",
                    "interactions": "",
                    "processors": "",
                    "groups": "Keyboard&Mouse",
                    "action": "Navigate Console",
                    "isComposite": false,
                    "isPartOfComposite": true
                }
            ]
        },
        {
            "name": "Player - PC",
            "id": "87cda955-632c-4d26-8fd8-9da2c966d6fd",
            "actions": [
                {
                    "name": "Move",
                    "type": "Value",
                    "id": "869256d7-bf12-43f1-b678-1137eeba8afb",
                    "expectedControlType": "Vector2",
                    "processors": "",
                    "interactions": "",
                    "initialStateCheck": true
                },
                {
                    "name": "Look",
                    "type": "Value",
                    "id": "426a9d81-387e-4c14-8d2e-f3dc48ef7472",
                    "expectedControlType": "Vector2",
                    "processors": "",
                    "interactions": "",
                    "initialStateCheck": true
                },
                {
                    "name": "Interact",
                    "type": "Button",
                    "id": "21e63131-28cd-4d79-9007-5764d9a17e7b",
                    "expectedControlType": "Button",
                    "processors": "",
                    "interactions": "",
                    "initialStateCheck": false
                },
                {
                    "name": "Flashlight",
                    "type": "Button",
                    "id": "a309b474-47e1-4356-94fb-8e498b80bfb4",
                    "expectedControlType": "Button",
                    "processors": "",
                    "interactions": "",
                    "initialStateCheck": false
                }
            ],
            "bindings": [
                {
                    "name": "",
                    "id": "978bfe49-cc26-4a3d-ab7b-7d7a29327403",
                    "path": "<Gamepad>/leftStick",
                    "interactions": "",
                    "processors": "",
                    "groups": ";Gamepad",
                    "action": "Move",
                    "isComposite": false,
                    "isPartOfComposite": false
                },
                {
                    "name": "WASD",
                    "id": "00ca640b-d935-4593-8157-c05846ea39b3",
                    "path": "Dpad",
                    "interactions": "",
                    "processors": "",
                    "groups": "",
                    "action": "Move",
                    "isComposite": true,
                    "isPartOfComposite": false
                },
                {
                    "name": "up",
                    "id": "e2062cb9-1b15-46a2-838c-2f8d72a0bdd9",
                    "path": "<Keyboard>/w",
                    "interactions": "",
                    "processors": "",
                    "groups": ";Keyboard&Mouse",
                    "action": "Move",
                    "isComposite": false,
                    "isPartOfComposite": true
                },
                {
                    "name": "up",
                    "id": "8180e8bd-4097-4f4e-ab88-4523101a6ce9",
                    "path": "<Keyboard>/upArrow",
                    "interactions": "",
                    "processors": "",
                    "groups": ";Keyboard&Mouse",
                    "action": "Move",
                    "isComposite": false,
                    "isPartOfComposite": true
                },
                {
                    "name": "down",
                    "id": "320bffee-a40b-4347-ac70-c210eb8bc73a",
                    "path": "<Keyboard>/s",
                    "interactions": "",
                    "processors": "",
                    "groups": ";Keyboard&Mouse",
                    "action": "Move",
                    "isComposite": false,
                    "isPartOfComposite": true
                },
                {
                    "name": "down",
                    "id": "1c5327b5-f71c-4f60-99c7-4e737386f1d1",
                    "path": "<Keyboard>/downArrow",
                    "interactions": "",
                    "processors": "",
                    "groups": ";Keyboard&Mouse",
                    "action": "Move",
                    "isComposite": false,
                    "isPartOfComposite": true
                },
                {
                    "name": "left",
                    "id": "d2581a9b-1d11-4566-b27d-b92aff5fabbc",
                    "path": "<Keyboard>/a",
                    "interactions": "",
                    "processors": "",
                    "groups": ";Keyboard&Mouse",
                    "action": "Move",
                    "isComposite": false,
                    "isPartOfComposite": true
                },
                {
                    "name": "left",
                    "id": "2e46982e-44cc-431b-9f0b-c11910bf467a",
                    "path": "<Keyboard>/leftArrow",
                    "interactions": "",
                    "processors": "",
                    "groups": ";Keyboard&Mouse",
                    "action": "Move",
                    "isComposite": false,
                    "isPartOfComposite": true
                },
                {
                    "name": "right",
                    "id": "fcfe95b8-67b9-4526-84b5-5d0bc98d6400",
                    "path": "<Keyboard>/d",
                    "interactions": "",
                    "processors": "",
                    "groups": ";Keyboard&Mouse",
                    "action": "Move",
                    "isComposite": false,
                    "isPartOfComposite": true
                },
                {
                    "name": "right",
                    "id": "77bff152-3580-4b21-b6de-dcd0c7e41164",
                    "path": "<Keyboard>/rightArrow",
                    "interactions": "",
                    "processors": "",
                    "groups": ";Keyboard&Mouse",
                    "action": "Move",
                    "isComposite": false,
                    "isPartOfComposite": true
                },
                {
                    "name": "",
                    "id": "3ea4d645-4504-4529-b061-ab81934c3752",
                    "path": "<Joystick>/stick",
                    "interactions": "",
                    "processors": "",
                    "groups": "Joystick",
                    "action": "Move",
                    "isComposite": false,
                    "isPartOfComposite": false
                },
                {
                    "name": "",
                    "id": "c1f7a91b-d0fd-4a62-997e-7fb9b69bf235",
                    "path": "<Gamepad>/rightStick",
                    "interactions": "",
                    "processors": "",
                    "groups": ";Gamepad",
                    "action": "Look",
                    "isComposite": false,
                    "isPartOfComposite": false
                },
                {
                    "name": "",
                    "id": "8c8e490b-c610-4785-884f-f04217b23ca4",
                    "path": "<Pointer>/delta",
                    "interactions": "",
                    "processors": "",
                    "groups": ";Keyboard&Mouse",
                    "action": "Look",
                    "isComposite": false,
                    "isPartOfComposite": false
                },
                {
                    "name": "",
                    "id": "3e5f5442-8668-4b27-a940-df99bad7e831",
                    "path": "<Joystick>/{Hatswitch}",
                    "interactions": "",
                    "processors": "",
                    "groups": "Joystick",
                    "action": "Look",
                    "isComposite": false,
                    "isPartOfComposite": false
                },
                {
                    "name": "",
                    "id": "143bb1cd-cc10-4eca-a2f0-a3664166fe91",
                    "path": "<Gamepad>/rightTrigger",
                    "interactions": "",
                    "processors": "",
                    "groups": ";Gamepad",
                    "action": "Interact",
                    "isComposite": false,
                    "isPartOfComposite": false
                },
                {
                    "name": "",
                    "id": "05f6913d-c316-48b2-a6bb-e225f14c7960",
                    "path": "<Mouse>/leftButton",
                    "interactions": "",
                    "processors": "",
                    "groups": ";Keyboard&Mouse",
                    "action": "Interact",
                    "isComposite": false,
                    "isPartOfComposite": false
                },
                {
                    "name": "",
                    "id": "722a3172-7986-43a3-8649-5635ed32f2e6",
                    "path": "<Keyboard>/e",
                    "interactions": "",
                    "processors": "",
                    "groups": "Keyboard&Mouse",
                    "action": "Interact",
                    "isComposite": false,
                    "isPartOfComposite": false
                },
                {
                    "name": "",
                    "id": "ee3d0cd2-254e-47a7-a8cb-bc94d9658c54",
                    "path": "<Joystick>/trigger",
                    "interactions": "",
                    "processors": "",
                    "groups": "Joystick",
                    "action": "Interact",
                    "isComposite": false,
                    "isPartOfComposite": false
                },
                {
                    "name": "",
                    "id": "c4ef55ea-c635-4e97-9741-10d27d6b0e6c",
                    "path": "<Keyboard>/f",
                    "interactions": "",
                    "processors": "",
                    "groups": "Keyboard&Mouse",
                    "action": "Flashlight",
                    "isComposite": false,
                    "isPartOfComposite": false
                }
            ]
        },
        {
            "name": "Player - VR",
            "id": "e26cfa24-4e87-478a-90d1-74a6aa418901",
            "actions": [
                {
                    "name": "Smooth Move LeftHand",
                    "type": "Value",
                    "id": "5fb1d099-eef7-4ea0-b983-5232d4ab0e82",
                    "expectedControlType": "Vector2",
                    "processors": "",
                    "interactions": "",
                    "initialStateCheck": true
                },
                {
                    "name": "Smooth Move RightHand",
                    "type": "Value",
                    "id": "91678801-4791-4f38-9927-e40ef8443a9b",
                    "expectedControlType": "Vector2",
                    "processors": "",
                    "interactions": "",
                    "initialStateCheck": true
                },
                {
                    "name": "Snap Rotate LeftHand",
                    "type": "Value",
                    "id": "f70044ac-a7d6-4934-8291-b1d80c603db9",
                    "expectedControlType": "Vector2",
                    "processors": "",
                    "interactions": "",
                    "initialStateCheck": true
                },
                {
                    "name": "Snap Rotate RightHand",
                    "type": "Value",
                    "id": "15db5dfe-49b6-4bdf-8a88-526dde201b50",
                    "expectedControlType": "Vector2",
                    "processors": "",
                    "interactions": "",
                    "initialStateCheck": true
                },
                {
                    "name": "Interact LeftHand",
                    "type": "Button",
                    "id": "9b206d2b-0e69-4e65-894f-dd1df9a870bd",
                    "expectedControlType": "Button",
                    "processors": "",
                    "interactions": "",
                    "initialStateCheck": false
                },
                {
                    "name": "Interact RightHand",
                    "type": "Button",
                    "id": "fc292b07-c140-4f65-bda6-21e0e8081c50",
                    "expectedControlType": "Button",
                    "processors": "",
                    "interactions": "",
                    "initialStateCheck": false
                },
                {
                    "name": "Item Use LeftHand",
                    "type": "Button",
                    "id": "f0c27080-3763-42b2-87d2-7799cc6782ee",
                    "expectedControlType": "Button",
                    "processors": "",
                    "interactions": "",
                    "initialStateCheck": false
                },
                {
                    "name": "Item Use RightHand",
                    "type": "Button",
                    "id": "19c7dc2b-684a-4327-a041-054644a7c45d",
                    "expectedControlType": "Button",
                    "processors": "",
                    "interactions": "",
                    "initialStateCheck": false
                },
                {
                    "name": "Item Release LeftHand",
                    "type": "Button",
                    "id": "75b3c4ce-751e-4d3c-9bbf-bec5d2d3f3b0",
                    "expectedControlType": "Button",
                    "processors": "",
                    "interactions": "",
                    "initialStateCheck": false
                },
                {
                    "name": "Item Release RightHand",
                    "type": "Button",
                    "id": "27a5be03-8ad1-43eb-9cdc-5cd3148bf58d",
                    "expectedControlType": "Button",
                    "processors": "",
                    "interactions": "",
                    "initialStateCheck": false
                },
                {
                    "name": "Item Alternate LeftHand",
                    "type": "Button",
                    "id": "575ed3a2-9e88-422f-ac6f-e124eace12de",
                    "expectedControlType": "Button",
                    "processors": "",
                    "interactions": "",
                    "initialStateCheck": false
                },
                {
                    "name": "Item Alternate RightHand",
                    "type": "Button",
                    "id": "2f86daf7-e10f-461a-98c3-f28e50413aba",
                    "expectedControlType": "Button",
                    "processors": "",
                    "interactions": "",
                    "initialStateCheck": false
                },
                {
                    "name": "Item Shoot LeftHand",
                    "type": "Value",
                    "id": "e300967e-549f-4ec8-ba78-c049766a3214",
                    "expectedControlType": "Axis",
                    "processors": "",
                    "interactions": "",
                    "initialStateCheck": true
                },
                {
                    "name": "Item Shoot RightHand",
                    "type": "Value",
                    "id": "e86e2a5a-eaea-4e34-9295-704025ba0556",
                    "expectedControlType": "Axis",
                    "processors": "",
                    "interactions": "",
                    "initialStateCheck": true
                }
            ],
            "bindings": [
                {
                    "name": "",
                    "id": "40303a95-353e-4957-81c9-bc46a6a8bdeb",
                    "path": "<XRController>{LeftHand}/{primary2DAxis}",
                    "interactions": "",
                    "processors": "",
                    "groups": "XR",
                    "action": "Smooth Move LeftHand",
                    "isComposite": false,
                    "isPartOfComposite": false
                },
                {
                    "name": "",
                    "id": "372c5e35-7352-47fd-a309-3273999dad06",
                    "path": "<XRController>{RightHand}/{primary2DAxis}",
                    "interactions": "",
                    "processors": "",
                    "groups": "XR",
                    "action": "Smooth Move RightHand",
                    "isComposite": false,
                    "isPartOfComposite": false
                },
                {
                    "name": "",
                    "id": "bc683069-515c-429b-b8f1-8eaac341f34e",
                    "path": "<XRController>{LeftHand}/{primary2DAxis}",
                    "interactions": "Sector(directions=12)",
                    "processors": "",
                    "groups": "XR",
                    "action": "Snap Rotate LeftHand",
                    "isComposite": false,
                    "isPartOfComposite": false
                },
                {
                    "name": "",
                    "id": "3c400edc-02e7-4c4b-b167-804a781620b3",
                    "path": "<XRController>{RightHand}/{primary2DAxis}",
                    "interactions": "Sector(directions=12)",
                    "processors": "",
                    "groups": "XR",
                    "action": "Snap Rotate RightHand",
                    "isComposite": false,
                    "isPartOfComposite": false
                },
                {
                    "name": "",
                    "id": "d321eda7-989f-46d8-97d7-7c763a59f32e",
                    "path": "<XRController>{LeftHand}/{grip}",
                    "interactions": "",
                    "processors": "",
                    "groups": "XR",
                    "action": "Interact LeftHand",
                    "isComposite": false,
                    "isPartOfComposite": false
                },
                {
                    "name": "",
                    "id": "eff4e792-9b02-4cdc-af22-d77d7321d40f",
                    "path": "<XRController>{LeftHand}/triggerPressed",
                    "interactions": "",
                    "processors": "",
                    "groups": "XR",
                    "action": "Interact LeftHand",
                    "isComposite": false,
                    "isPartOfComposite": false
                },
                {
                    "name": "",
                    "id": "2eba5342-e25a-47fd-9310-4cf3a495ca6d",
                    "path": "<XRController>{LeftHand}/triggerPressed",
                    "interactions": "",
                    "processors": "",
                    "groups": "XR",
                    "action": "Item Use LeftHand",
                    "isComposite": false,
                    "isPartOfComposite": false
                },
                {
                    "name": "",
                    "id": "6c36436d-75bd-49e0-8e5b-efa4f6675222",
                    "path": "<XRController>{RightHand}/{grip}",
                    "interactions": "",
                    "processors": "",
                    "groups": "XR",
                    "action": "Interact RightHand",
                    "isComposite": false,
                    "isPartOfComposite": false
                },
                {
                    "name": "",
                    "id": "81bb380a-cc54-4453-9774-dae2778904bf",
                    "path": "<XRController>{RightHand}/triggerPressed",
                    "interactions": "",
                    "processors": "",
                    "groups": "XR",
                    "action": "Interact RightHand",
                    "isComposite": false,
                    "isPartOfComposite": false
                },
                {
                    "name": "",
                    "id": "7dd2c910-777e-4446-aa37-f1f89e157a39",
                    "path": "<XRController>{LeftHand}/trigger",
                    "interactions": "",
                    "processors": "",
                    "groups": "XR",
                    "action": "Item Shoot LeftHand",
                    "isComposite": false,
                    "isPartOfComposite": false
                },
                {
                    "name": "",
                    "id": "e49dbc92-6ee1-4e8a-bcb3-82625e8ace9d",
                    "path": "<XRController>{RightHand}/trigger",
                    "interactions": "",
                    "processors": "",
                    "groups": "XR",
                    "action": "Item Shoot RightHand",
                    "isComposite": false,
                    "isPartOfComposite": false
                },
                {
                    "name": "",
                    "id": "898b3ada-1759-478c-b898-9ae89c028337",
                    "path": "<XRController>{LeftHand}/primaryButton",
                    "interactions": "",
                    "processors": "",
                    "groups": "XR",
                    "action": "Item Alternate LeftHand",
                    "isComposite": false,
                    "isPartOfComposite": false
                },
                {
                    "name": "",
                    "id": "f3049d9f-de31-4640-b01f-d4485f08cd7d",
                    "path": "<XRController>{RightHand}/triggerPressed",
                    "interactions": "",
                    "processors": "",
                    "groups": "XR",
                    "action": "Item Use RightHand",
                    "isComposite": false,
                    "isPartOfComposite": false
                },
                {
                    "name": "",
                    "id": "63343e84-ed0d-4c47-b801-f5f1e932ae6d",
                    "path": "<XRController>{RightHand}/primaryButton",
                    "interactions": "",
                    "processors": "",
                    "groups": "XR",
                    "action": "Item Alternate RightHand",
                    "isComposite": false,
                    "isPartOfComposite": false
                },
                {
                    "name": "",
                    "id": "cb1eed86-ee04-4266-b6fb-8be8adc131c2",
                    "path": "<XRController>{RightHand}/{grip}",
                    "interactions": "",
                    "processors": "",
                    "groups": "XR",
                    "action": "Item Release RightHand",
                    "isComposite": false,
                    "isPartOfComposite": false
                },
                {
                    "name": "",
                    "id": "a5af9cfc-c624-40e0-8f44-d58604222333",
                    "path": "<XRController>{LeftHand}/{grip}",
                    "interactions": "",
                    "processors": "",
                    "groups": "XR",
                    "action": "Item Release LeftHand",
                    "isComposite": false,
                    "isPartOfComposite": false
                }
            ]
        },
        {
            "name": "VR - Tracking",
            "id": "45c78705-ee79-43ff-9e6e-137fbea757f4",
            "actions": [
                {
                    "name": "HMD Position",
                    "type": "Value",
                    "id": "6d53ed11-955f-45b2-9f40-0064032c76f0",
                    "expectedControlType": "Vector3",
                    "processors": "",
                    "interactions": "",
                    "initialStateCheck": true
                },
                {
                    "name": "HMD Rotation",
                    "type": "Value",
                    "id": "5b392926-a600-49ae-be3b-aadcc1990a16",
                    "expectedControlType": "Quaternion",
                    "processors": "",
                    "interactions": "",
                    "initialStateCheck": true
                },
                {
                    "name": "HMD Tracked",
                    "type": "Value",
                    "id": "f49ef189-c65f-4871-8548-f5a36da3a74e",
                    "expectedControlType": "",
                    "processors": "",
                    "interactions": "",
                    "initialStateCheck": true
                },
                {
                    "name": "EyeRight Rotation",
                    "type": "Value",
                    "id": "5c7d1b75-4de4-4056-9261-43651019efe4",
                    "expectedControlType": "Quaternion",
                    "processors": "",
                    "interactions": "",
                    "initialStateCheck": true
                },
                {
                    "name": "EyeRight Position",
                    "type": "Value",
                    "id": "b5a92c2c-6d1d-402e-8c85-56f8b21f5fc2",
                    "expectedControlType": "Vector3",
                    "processors": "",
                    "interactions": "",
                    "initialStateCheck": true
                },
                {
                    "name": "EyeLeft Rotation",
                    "type": "Value",
                    "id": "8f0ba1e3-4c56-4cc6-a86e-b7259dce928c",
                    "expectedControlType": "Quaternion",
                    "processors": "",
                    "interactions": "",
                    "initialStateCheck": true
                },
                {
                    "name": "EyeLeft Position",
                    "type": "Value",
                    "id": "07811d33-1ca0-48ee-b852-5bdc48eecf5d",
                    "expectedControlType": "Vector3",
                    "processors": "",
                    "interactions": "",
                    "initialStateCheck": true
                },
                {
                    "name": "HandLeft Position",
                    "type": "Value",
                    "id": "7ce1a4b8-85b4-4171-a481-5a15fe10fa55",
                    "expectedControlType": "Vector3",
                    "processors": "",
                    "interactions": "",
                    "initialStateCheck": true
                },
                {
                    "name": "HandLeft Rotation",
                    "type": "Value",
                    "id": "74893f45-d125-4f47-947d-7adfd9b33bb2",
                    "expectedControlType": "Quaternion",
                    "processors": "",
                    "interactions": "",
                    "initialStateCheck": true
                },
                {
                    "name": "HandLeft Tracked",
                    "type": "Value",
                    "id": "0a7c93a8-b345-445e-87f6-e1bcf14cc9c2",
                    "expectedControlType": "",
                    "processors": "",
                    "interactions": "",
                    "initialStateCheck": true
                },
                {
                    "name": "HandLeft Grip",
                    "type": "Value",
                    "id": "234432f1-ee37-4028-827b-1bb15085c012",
                    "expectedControlType": "Axis",
                    "processors": "",
                    "interactions": "",
                    "initialStateCheck": true
                },
                {
                    "name": "HandRight Position",
                    "type": "Value",
                    "id": "180888e9-20b4-444e-9862-781335de28c7",
                    "expectedControlType": "Vector3",
                    "processors": "",
                    "interactions": "",
                    "initialStateCheck": true
                },
                {
                    "name": "HandRight Rotation",
                    "type": "Value",
                    "id": "c2c51343-cbde-44fc-bf7e-ed0d1af1199a",
                    "expectedControlType": "Quaternion",
                    "processors": "",
                    "interactions": "",
                    "initialStateCheck": true
                },
                {
                    "name": "HandRight Tracked",
                    "type": "Value",
                    "id": "624e9979-2073-4cd9-bb3d-09620ed78ac8",
                    "expectedControlType": "",
                    "processors": "",
                    "interactions": "",
                    "initialStateCheck": true
                },
                {
                    "name": "HandRight Grip",
                    "type": "Value",
                    "id": "d2726afd-cd78-4a91-9718-a9ee9356ab01",
                    "expectedControlType": "Axis",
                    "processors": "",
                    "interactions": "",
                    "initialStateCheck": true
                }
            ],
            "bindings": [
                {
                    "name": "",
                    "id": "575b385a-ae57-4101-b45c-c9dff74da246",
                    "path": "<XRHMD>/centerEyePosition",
                    "interactions": "",
                    "processors": "",
                    "groups": "XR",
                    "action": "HMD Position",
                    "isComposite": false,
                    "isPartOfComposite": false
                },
                {
                    "name": "",
                    "id": "c79a7367-a247-457e-89b3-e56af067ec20",
                    "path": "<XRHMD>/centerEyeRotation",
                    "interactions": "",
                    "processors": "",
                    "groups": "XR",
                    "action": "HMD Rotation",
                    "isComposite": false,
                    "isPartOfComposite": false
                },
                {
                    "name": "",
                    "id": "16dc89d6-9b4f-40dc-80a2-76b837cbd10f",
                    "path": "<XRController>{LeftHand}/devicePosition",
                    "interactions": "",
                    "processors": "",
                    "groups": "XR",
                    "action": "HandLeft Position",
                    "isComposite": false,
                    "isPartOfComposite": false
                },
                {
                    "name": "",
                    "id": "762bab9f-c189-4acd-ae59-c4d28b2df7e3",
                    "path": "<XRController>{LeftHand}/deviceRotation",
                    "interactions": "",
                    "processors": "",
                    "groups": "XR",
                    "action": "HandLeft Rotation",
                    "isComposite": false,
                    "isPartOfComposite": false
                },
                {
                    "name": "",
                    "id": "e50f7670-1ee0-4236-9b43-6b3746a6a9ba",
                    "path": "<XRController>{RightHand}/devicePosition",
                    "interactions": "",
                    "processors": "",
                    "groups": "XR",
                    "action": "HandRight Position",
                    "isComposite": false,
                    "isPartOfComposite": false
                },
                {
                    "name": "",
                    "id": "be625060-c4c9-49b6-9df1-a21dd88b41ec",
                    "path": "<XRController>{RightHand}/deviceRotation",
                    "interactions": "",
                    "processors": "",
                    "groups": "XR",
                    "action": "HandRight Rotation",
                    "isComposite": false,
                    "isPartOfComposite": false
                },
                {
                    "name": "",
                    "id": "e1782e07-cca5-48a2-8e3b-d7a673107cfe",
                    "path": "<XRHMD>/isTracked",
                    "interactions": "",
                    "processors": "",
                    "groups": "XR",
                    "action": "HMD Tracked",
                    "isComposite": false,
                    "isPartOfComposite": false
                },
                {
                    "name": "",
                    "id": "5f5960fc-0465-4beb-8566-d086ee3f002e",
                    "path": "<XRController>{LeftHand}/isTracked",
                    "interactions": "",
                    "processors": "",
                    "groups": "XR",
                    "action": "HandLeft Tracked",
                    "isComposite": false,
                    "isPartOfComposite": false
                },
                {
                    "name": "",
                    "id": "f302717c-f94b-4acf-80db-9e58084b892c",
                    "path": "<XRController>{RightHand}/isTracked",
                    "interactions": "",
                    "processors": "",
                    "groups": "XR",
                    "action": "HandRight Tracked",
                    "isComposite": false,
                    "isPartOfComposite": false
                },
                {
                    "name": "",
                    "id": "98c74ee7-bb93-4c45-9f39-97817ea67b93",
                    "path": "<XRHMD>/leftEyePosition",
                    "interactions": "",
                    "processors": "",
                    "groups": "XR",
                    "action": "EyeLeft Position",
                    "isComposite": false,
                    "isPartOfComposite": false
                },
                {
                    "name": "",
                    "id": "003ef555-f4b6-4bd8-ae39-dcb8f1db6f2e",
                    "path": "<XRHMD>/leftEyeRotation",
                    "interactions": "",
                    "processors": "",
                    "groups": "XR",
                    "action": "EyeLeft Rotation",
                    "isComposite": false,
                    "isPartOfComposite": false
                },
                {
                    "name": "",
                    "id": "07ae26d6-851b-403f-b002-ae90856f1cc4",
                    "path": "<XRHMD>/rightEyePosition",
                    "interactions": "",
                    "processors": "",
                    "groups": "XR",
                    "action": "EyeRight Position",
                    "isComposite": false,
                    "isPartOfComposite": false
                },
                {
                    "name": "",
                    "id": "387ff18a-a228-4e52-af73-847f7a47ffd9",
                    "path": "<XRHMD>/rightEyeRotation",
                    "interactions": "",
                    "processors": "",
                    "groups": "XR",
                    "action": "EyeRight Rotation",
                    "isComposite": false,
                    "isPartOfComposite": false
                },
                {
                    "name": "",
                    "id": "ede72d0f-12ed-442c-a7d3-0bc4b62d6b82",
                    "path": "<XRController>{RightHand}/grip",
                    "interactions": "",
                    "processors": "",
                    "groups": "XR",
                    "action": "HandRight Grip",
                    "isComposite": false,
                    "isPartOfComposite": false
                },
                {
                    "name": "",
                    "id": "fedae58e-1cbd-4046-b049-bd3d90746c00",
                    "path": "<XRController>{LeftHand}/grip",
                    "interactions": "",
                    "processors": "",
                    "groups": "XR",
                    "action": "HandLeft Grip",
                    "isComposite": false,
                    "isPartOfComposite": false
                }
            ]
        },
        {
            "name": "UI - VR",
            "id": "52759041-a2ac-4b20-ab1a-fc30fbd090d3",
            "actions": [
                {
                    "name": "Select RightHand",
                    "type": "Button",
                    "id": "e49da304-9d6b-4f88-aec1-bdb0e43c1eb3",
                    "expectedControlType": "Button",
                    "processors": "",
                    "interactions": "",
                    "initialStateCheck": false
                },
                {
                    "name": "Select LeftHand",
                    "type": "Button",
                    "id": "aa5a12d0-6d52-41b9-8a6d-3ab18db6cf9b",
                    "expectedControlType": "Button",
                    "processors": "",
                    "interactions": "",
                    "initialStateCheck": false
                },
                {
                    "name": "Menu Toggle",
                    "type": "Button",
                    "id": "0468b5d0-2549-466b-8aa1-5335194f27ee",
                    "expectedControlType": "Button",
                    "processors": "",
                    "interactions": "",
                    "initialStateCheck": false
                }
            ],
            "bindings": [
                {
                    "name": "",
                    "id": "ad13dd69-9dd5-4197-a1ec-f7ca7c9f21ea",
                    "path": "<XRController>{LeftHand}/triggerPressed",
                    "interactions": "",
                    "processors": "",
                    "groups": "XR",
                    "action": "Select LeftHand",
                    "isComposite": false,
                    "isPartOfComposite": false
                },
                {
                    "name": "",
                    "id": "33a1eb92-6fa8-4f72-9437-62ad5a0790b7",
                    "path": "<XRController>{RightHand}/triggerPressed",
                    "interactions": "",
                    "processors": "",
                    "groups": "XR",
                    "action": "Select RightHand",
                    "isComposite": false,
                    "isPartOfComposite": false
                },
                {
                    "name": "",
                    "id": "75018dc3-4079-49ba-839f-86e09b4a36b5",
                    "path": "<XRController>/menu",
                    "interactions": "",
                    "processors": "",
                    "groups": "XR",
                    "action": "Menu Toggle",
                    "isComposite": false,
                    "isPartOfComposite": false
                },
                {
                    "name": "",
                    "id": "d4ee7cad-9f3d-4752-b736-2e9b58856308",
                    "path": "<XRController>/secondaryButton",
                    "interactions": "Hold",
                    "processors": "",
                    "groups": "XR",
                    "action": "Menu Toggle",
                    "isComposite": false,
                    "isPartOfComposite": false
                }
            ]
        },
        {
            "name": "Haptic - VR",
            "id": "56accd4f-7932-4c7f-a3f2-a417617dac4e",
            "actions": [
                {
                    "name": "Haptic LeftHand",
                    "type": "PassThrough",
                    "id": "80672efe-f1a2-41c7-b254-3470b2eb5af1",
                    "expectedControlType": "Haptic",
                    "processors": "",
                    "interactions": "",
                    "initialStateCheck": false
                },
                {
                    "name": "Haptic RightHand",
                    "type": "PassThrough",
                    "id": "a693f319-5cf8-4ccd-af29-392313d965c0",
                    "expectedControlType": "Haptic",
                    "processors": "",
                    "interactions": "",
                    "initialStateCheck": false
                }
            ],
            "bindings": [
                {
                    "name": "",
                    "id": "04b9c889-031c-4677-bef4-74b8c27a424c",
                    "path": "<XRController>{LeftHand}/haptic",
                    "interactions": "",
                    "processors": "",
                    "groups": "XR",
                    "action": "Haptic LeftHand",
                    "isComposite": false,
                    "isPartOfComposite": false
                },
                {
                    "name": "",
                    "id": "c23da940-fc7b-4d1d-8fb1-5afaa2550afb",
                    "path": "<XRController>{RightHand}/haptic",
                    "interactions": "",
                    "processors": "",
                    "groups": "XR",
                    "action": "Haptic RightHand",
                    "isComposite": false,
                    "isPartOfComposite": false
                }
            ]
        },
        {
            "name": "Player Inventory",
            "id": "8b4f71fb-dd30-4f6c-ad42-f7d647b2db33",
            "actions": [
                {
                    "name": "Toggle Inventory",
                    "type": "Button",
                    "id": "aafa7468-1569-484a-8ee8-2a81a287e5ee",
                    "expectedControlType": "Button",
                    "processors": "",
                    "interactions": "",
                    "initialStateCheck": false
                }
            ],
            "bindings": [
                {
                    "name": "",
                    "id": "15efdbe7-1b8e-4304-afbe-6f2bf2305aca",
                    "path": "<Keyboard>/tab",
                    "interactions": "",
                    "processors": "",
                    "groups": "Keyboard&Mouse",
                    "action": "Toggle Inventory",
                    "isComposite": false,
                    "isPartOfComposite": false
                }
            ]
        }
    ],
    "controlSchemes": [
        {
            "name": "Keyboard&Mouse",
            "bindingGroup": "Keyboard&Mouse",
            "devices": [
                {
                    "devicePath": "<Keyboard>",
                    "isOptional": false,
                    "isOR": false
                },
                {
                    "devicePath": "<Mouse>",
                    "isOptional": false,
                    "isOR": false
                }
            ]
        },
        {
            "name": "Gamepad",
            "bindingGroup": "Gamepad",
            "devices": [
                {
                    "devicePath": "<Gamepad>",
                    "isOptional": false,
                    "isOR": false
                }
            ]
        },
        {
            "name": "Joystick",
            "bindingGroup": "Joystick",
            "devices": [
                {
                    "devicePath": "<Joystick>",
                    "isOptional": false,
                    "isOR": false
                }
            ]
        },
        {
            "name": "XR",
            "bindingGroup": "XR",
            "devices": [
                {
                    "devicePath": "<XRController>",
                    "isOptional": false,
                    "isOR": false
                }
            ]
        }
    ]
}