%YAML 1.1
%TAG !u! tag:unity3d.com,2011:
--- !u!114 &11400000
MonoBehaviour:
  m_ObjectHideFlags: 0
  m_CorrespondingSourceObject: {fileID: 0}
  m_PrefabInstance: {fileID: 0}
  m_PrefabAsset: {fileID: 0}
  m_GameObject: {fileID: 0}
  m_Enabled: 1
  m_EditorHideFlags: 0
  m_Script: {fileID: 11500000, guid: e89e7d9eb92794547a1ae2b3d0696334, type: 3}
  m_Name: BottleChunk03 - Metadata
  m_EditorClassIdentifier: 
  _resourceKey: Entities/Bottles/Beer/BottleChunk03
  _metadataComponents:
  - rid: 371909367028252678
  references:
    version: 2
    RefIds:
    - rid: 371909367028252678
      type: {class: DynamicEntityMetadata, ns: Game.Core.Entity, asm: Game.Core}
      data:
        _fadeInOnSpawn: 0
        _meshBoundsCenter: {x: 0.0031129979, y: 0.0012944043, z: -0.008955367}
        _meshBoundsSize: {x: 0.07075643, y: 0.14105381, z: 0.08195093}
