%YAML 1.1
%TAG !u! tag:unity3d.com,2011:
--- !u!114 &11400000
MonoBehaviour:
  m_ObjectHideFlags: 0
  m_CorrespondingSourceObject: {fileID: 0}
  m_PrefabInstance: {fileID: 0}
  m_PrefabAsset: {fileID: 0}
  m_GameObject: {fileID: 0}
  m_Enabled: 1
  m_EditorHideFlags: 0
  m_Script: {fileID: 11500000, guid: e89e7d9eb92794547a1ae2b3d0696334, type: 3}
  m_Name: BottleChunk04 - Metadata
  m_EditorClassIdentifier: 
  _resourceKey: Entities/Bottles/Beer/BottleChunk04
  _metadataComponents:
  - rid: 371909367028252681
  references:
    version: 2
    RefIds:
    - rid: 371909367028252681
      type: {class: DynamicEntityMetadata, ns: Game.Core.Entity, asm: Game.Core}
      data:
        _fadeInOnSpawn: 0
        _meshBoundsCenter: {x: 0.0036512539, y: 0.0001610145, z: -0.00061970577}
        _meshBoundsSize: {x: 0.06686048, y: 0.1535166, z: 0.061447352}
