%YAML 1.1
%TAG !u! tag:unity3d.com,2011:
--- !u!1001 &9111503510234293023
PrefabInstance:
  m_ObjectHideFlags: 0
  serializedVersion: 2
  m_Modification:
    m_TransformParent: {fileID: 0}
    m_Modifications:
    - target: {fileID: 2838824656660048789, guid: 342e97082e64e5a4bbdb089347af7952,
        type: 3}
      propertyPath: managedReferences[6]._maxIntensity._inlineValue
      value: 0.5
      objectReference: {fileID: 0}
    - target: {fileID: 2838824656660048789, guid: 342e97082e64e5a4bbdb089347af7952,
        type: 3}
      propertyPath: managedReferences[6]._minIntensity._inlineValue
      value: 0.25
      objectReference: {fileID: 0}
    - target: {fileID: 2838824656660048789, guid: 342e97082e64e5a4bbdb089347af7952,
        type: 3}
      propertyPath: managedReferences[7]._maxIntensity._inlineValue
      value: 0.5
      objectReference: {fileID: 0}
    - target: {fileID: 2838824656660048789, guid: 342e97082e64e5a4bbdb089347af7952,
        type: 3}
      propertyPath: managedReferences[7]._minIntensity._inlineValue
      value: 0.25
      objectReference: {fileID: 0}
    - target: {fileID: 3925671982858449719, guid: 342e97082e64e5a4bbdb089347af7952,
        type: 3}
      propertyPath: m_Range
      value: 3.5
      objectReference: {fileID: 0}
    - target: {fileID: 3925671982858449719, guid: 342e97082e64e5a4bbdb089347af7952,
        type: 3}
      propertyPath: m_Intensity
      value: 0.5
      objectReference: {fileID: 0}
    - target: {fileID: 7164919436822084137, guid: 342e97082e64e5a4bbdb089347af7952,
        type: 3}
      propertyPath: m_Name
      value: Haunted Lamp_cellar_wall Variant
      objectReference: {fileID: 0}
    - target: {fileID: 7504466926096228499, guid: 342e97082e64e5a4bbdb089347af7952,
        type: 3}
      propertyPath: m_RootOrder
      value: 0
      objectReference: {fileID: 0}
    - target: {fileID: 7504466926096228499, guid: 342e97082e64e5a4bbdb089347af7952,
        type: 3}
      propertyPath: m_LocalPosition.x
      value: 0
      objectReference: {fileID: 0}
    - target: {fileID: 7504466926096228499, guid: 342e97082e64e5a4bbdb089347af7952,
        type: 3}
      propertyPath: m_LocalPosition.y
      value: 0
      objectReference: {fileID: 0}
    - target: {fileID: 7504466926096228499, guid: 342e97082e64e5a4bbdb089347af7952,
        type: 3}
      propertyPath: m_LocalPosition.z
      value: 0
      objectReference: {fileID: 0}
    - target: {fileID: 7504466926096228499, guid: 342e97082e64e5a4bbdb089347af7952,
        type: 3}
      propertyPath: m_LocalRotation.w
      value: 1
      objectReference: {fileID: 0}
    - target: {fileID: 7504466926096228499, guid: 342e97082e64e5a4bbdb089347af7952,
        type: 3}
      propertyPath: m_LocalRotation.x
      value: 0
      objectReference: {fileID: 0}
    - target: {fileID: 7504466926096228499, guid: 342e97082e64e5a4bbdb089347af7952,
        type: 3}
      propertyPath: m_LocalRotation.y
      value: 0
      objectReference: {fileID: 0}
    - target: {fileID: 7504466926096228499, guid: 342e97082e64e5a4bbdb089347af7952,
        type: 3}
      propertyPath: m_LocalRotation.z
      value: 0
      objectReference: {fileID: 0}
    - target: {fileID: 7504466926096228499, guid: 342e97082e64e5a4bbdb089347af7952,
        type: 3}
      propertyPath: m_LocalEulerAnglesHint.x
      value: 0
      objectReference: {fileID: 0}
    - target: {fileID: 7504466926096228499, guid: 342e97082e64e5a4bbdb089347af7952,
        type: 3}
      propertyPath: m_LocalEulerAnglesHint.y
      value: 0
      objectReference: {fileID: 0}
    - target: {fileID: 7504466926096228499, guid: 342e97082e64e5a4bbdb089347af7952,
        type: 3}
      propertyPath: m_LocalEulerAnglesHint.z
      value: 0
      objectReference: {fileID: 0}
    m_RemovedComponents: []
  m_SourcePrefab: {fileID: 100100000, guid: 342e97082e64e5a4bbdb089347af7952, type: 3}
