%YAML 1.1
%TAG !u! tag:unity3d.com,2011:
--- !u!1001 &8567225043438495278
PrefabInstance:
  m_ObjectHideFlags: 0
  serializedVersion: 2
  m_Modification:
    m_TransformParent: {fileID: 0}
    m_Modifications:
    - target: {fileID: 2775380815168265803, guid: 97ca9b1d34afc2e4296a12d891a5f136,
        type: 3}
      propertyPath: m_Range
      value: 3.5
      objectReference: {fileID: 0}
    - target: {fileID: 2775380815168265803, guid: 97ca9b1d34afc2e4296a12d891a5f136,
        type: 3}
      propertyPath: m_Intensity
      value: 0.5
      objectReference: {fileID: 0}
    - target: {fileID: 8327159830592657237, guid: 97ca9b1d34afc2e4296a12d891a5f136,
        type: 3}
      propertyPath: m_Name
      value: Lamp_cellar_wall Variant
      objectReference: {fileID: 0}
    - target: {fileID: 8708786385975299567, guid: 97ca9b1d34afc2e4296a12d891a5f136,
        type: 3}
      propertyPath: m_RootOrder
      value: 0
      objectReference: {fileID: 0}
    - target: {fileID: 8708786385975299567, guid: 97ca9b1d34afc2e4296a12d891a5f136,
        type: 3}
      propertyPath: m_LocalPosition.x
      value: 0
      objectReference: {fileID: 0}
    - target: {fileID: 8708786385975299567, guid: 97ca9b1d34afc2e4296a12d891a5f136,
        type: 3}
      propertyPath: m_LocalPosition.y
      value: 0
      objectReference: {fileID: 0}
    - target: {fileID: 8708786385975299567, guid: 97ca9b1d34afc2e4296a12d891a5f136,
        type: 3}
      propertyPath: m_LocalPosition.z
      value: 0
      objectReference: {fileID: 0}
    - target: {fileID: 8708786385975299567, guid: 97ca9b1d34afc2e4296a12d891a5f136,
        type: 3}
      propertyPath: m_LocalRotation.w
      value: 1
      objectReference: {fileID: 0}
    - target: {fileID: 8708786385975299567, guid: 97ca9b1d34afc2e4296a12d891a5f136,
        type: 3}
      propertyPath: m_LocalRotation.x
      value: 0
      objectReference: {fileID: 0}
    - target: {fileID: 8708786385975299567, guid: 97ca9b1d34afc2e4296a12d891a5f136,
        type: 3}
      propertyPath: m_LocalRotation.y
      value: 0
      objectReference: {fileID: 0}
    - target: {fileID: 8708786385975299567, guid: 97ca9b1d34afc2e4296a12d891a5f136,
        type: 3}
      propertyPath: m_LocalRotation.z
      value: 0
      objectReference: {fileID: 0}
    - target: {fileID: 8708786385975299567, guid: 97ca9b1d34afc2e4296a12d891a5f136,
        type: 3}
      propertyPath: m_LocalEulerAnglesHint.x
      value: 0
      objectReference: {fileID: 0}
    - target: {fileID: 8708786385975299567, guid: 97ca9b1d34afc2e4296a12d891a5f136,
        type: 3}
      propertyPath: m_LocalEulerAnglesHint.y
      value: 0
      objectReference: {fileID: 0}
    - target: {fileID: 8708786385975299567, guid: 97ca9b1d34afc2e4296a12d891a5f136,
        type: 3}
      propertyPath: m_LocalEulerAnglesHint.z
      value: 0
      objectReference: {fileID: 0}
    m_RemovedComponents: []
  m_SourcePrefab: {fileID: 100100000, guid: 97ca9b1d34afc2e4296a12d891a5f136, type: 3}
--- !u!1 &9113688322332424519 stripped
GameObject:
  m_CorrespondingSourceObject: {fileID: 621134970978869097, guid: 97ca9b1d34afc2e4296a12d891a5f136,
    type: 3}
  m_PrefabInstance: {fileID: 8567225043438495278}
  m_PrefabAsset: {fileID: 0}
--- !u!114 &3137170082056072016
MonoBehaviour:
  m_ObjectHideFlags: 0
  m_CorrespondingSourceObject: {fileID: 0}
  m_PrefabInstance: {fileID: 0}
  m_PrefabAsset: {fileID: 0}
  m_GameObject: {fileID: 9113688322332424519}
  m_Enabled: 1
  m_EditorHideFlags: 0
  m_Script: {fileID: 11500000, guid: 474bcb49853aa07438625e644c072ee6, type: 3}
  m_Name: 
  m_EditorClassIdentifier: 
  m_Version: 1
  m_UsePipelineSettings: 1
  m_AdditionalLightsShadowResolutionTier: 2
  m_LightLayerMask: 1
  m_CustomShadowLayers: 0
  m_ShadowLayerMask: 1
  m_LightCookieSize: {x: 1, y: 1}
  m_LightCookieOffset: {x: 0, y: 0}
