%YAML 1.1
%TAG !u! tag:unity3d.com,2011:
--- !u!114 &11400000
MonoBehaviour:
  m_ObjectHideFlags: 0
  m_CorrespondingSourceObject: {fileID: 0}
  m_PrefabInstance: {fileID: 0}
  m_PrefabAsset: {fileID: 0}
  m_GameObject: {fileID: 0}
  m_Enabled: 1
  m_EditorHideFlags: 0
  m_Script: {fileID: 11500000, guid: 75b754fe5e2a62c4ab779a0df4ac64ed, type: 3}
  m_Name: Entance Hall
  m_EditorClassIdentifier: 
  _id: 04ee72b7-e7d4-4c14-b1a1-04e918d8a687
  _sceneBuildIndex: 2
  _description: Entrance Hall
  _spaceDataComponents:
  - rid: 0
  - rid: 1
  - rid: 2
  - rid: 4143725414640779323
  - rid: 2767731648614367236
  references:
    version: 2
    RefIds:
    - rid: 0
      type: {class: PlayerSpawnDataComponent, ns: Game.Player, asm: Game}
      data:
        _position: {x: 0, y: 0, z: -5.305}
        _rotation: {x: 0, y: 0, z: 0, w: 1}
    - rid: 1
      type: {class: HauntDataComponent, ns: Game.World.Haunt.Data, asm: Game}
      data:
        _passiveHauntRate:
          _useInline: 0
          _inlineValue: 0
          _variable: {fileID: 11400000, guid: a47101efd1d831e40b0014d6a0e3df58, type: 2}
        _minHauntLevelAmbientLight:
          _useInline: 0
          _inlineValue: {r: 0, g: 0, b: 0, a: 0}
          _variable: {fileID: 11400000, guid: e7cfde42b5360654393ba757fcae3242, type: 2}
        _maxHauntLevelAmbientLight:
          _useInline: 0
          _inlineValue: {r: 0, g: 0, b: 0, a: 0}
          _variable: {fileID: 11400000, guid: dab66dfba44b69b4cacb3d63ee4852b6, type: 2}
        _hauntMonsterSpawns:
        - _position: {x: 0, y: 0, z: 5.2}
          _rotation: {x: 0, y: 1, z: 0, w: -0.00000004371139}
        - _position: {x: 3.5, y: 3, z: -5}
          _rotation: {x: 0, y: 0, z: 0, w: 1}
        - _position: {x: -3.5, y: 3, z: -5}
          _rotation: {x: 0, y: 0, z: 0, w: 1}
        _maxHauntTraps:
          _useInline: 0
          _inlineValue: 0
          _variable: {fileID: 11400000, guid: 7c3bf2cc841adbd43ab4f191c910b076, type: 2}
        _hauntTrapSpawns:
        - _position: {x: -2.72, y: 3, z: 7.57}
          _rotation: {x: 0, y: 0.2970416, z: 0, w: 0.95486456}
        - _position: {x: -2.72, y: 0, z: 2.06}
          _rotation: {x: 0, y: 0.3271355, z: 0, w: -0.94497746}
        - _position: {x: 2.57, y: 0, z: 1.8}
          _rotation: {x: 0, y: 0.5891963, z: 0, w: 0.8079899}
        - _position: {x: 2.23, y: 0, z: -1.36}
          _rotation: {x: 0, y: 0.9131546, z: 0, w: 0.40761343}
        - _position: {x: 3.43, y: 3, z: -0.22}
          _rotation: {x: 0, y: 0.8557708, z: 0, w: -0.5173551}
        - _position: {x: -3.43, y: 3, z: 1.15}
          _rotation: {x: 0, y: 0.9924287, z: 0, w: 0.122822106}
        - _position: {x: 0, y: 3, z: 2.54}
          _rotation: {x: 0, y: 0.77301043, z: 0, w: 0.6343933}
        - _position: {x: 2.01, y: 3, z: 7.46}
          _rotation: {x: 0, y: 0.5960847, z: 0, w: 0.80292153}
    - rid: 2
      type: {class: WorldBuilderDataComponent, ns: Game.World.Builder.Data, asm: Game}
      data:
        _worldEntrance:
          _useInline: 1
          _inlineValue: 1
          _variable: {fileID: 0}
        _roomType: 2
        _allowedZones: 0000000001000000
        _maxLinkedSpaces:
          _useInline: 1
          _inlineValue: 4
          _variable: {fileID: 0}
        _dynamicPortals:
        - _portalId: f64e8354-e959-4085-87ca-2d52e409a1a6
          _worldEntrance: 0
          _zoneEntrance: 1
          _allowedDestinationTypes: 00000000
          _portalPosition: {x: -4.5, y: 4.075, z: -2}
          _portalRotation: {x: -0, y: -0.7071068, z: 0, w: 0.7071068}
          _portalScale: {x: 1.0000002, y: 2.15, z: 1.0000002}
        - _portalId: cbf65f0c-ea6e-43ff-8afc-d7ca2cc1ce3d
          _worldEntrance: 0
          _zoneEntrance: 0
          _allowedDestinationTypes: 00000000
          _portalPosition: {x: -3.5, y: 1.075, z: -1}
          _portalRotation: {x: -0, y: -0.7071068, z: 0, w: 0.7071068}
          _portalScale: {x: 1.0000002, y: 2.15, z: 1.0000002}
        - _portalId: 82f12462-883b-431d-aa81-35e70ee3259f
          _worldEntrance: 0
          _zoneEntrance: 1
          _allowedDestinationTypes: 00000000
          _portalPosition: {x: 0, y: 4.075, z: 8.5}
          _portalRotation: {x: -0, y: -0, z: -0, w: 1}
          _portalScale: {x: 1, y: 2.15, z: 1}
        - _portalId: 5b26d2ba-cf70-44d3-a35b-5dea93298cd1
          _worldEntrance: 1
          _zoneEntrance: -100
          _allowedDestinationTypes: 
          _portalPosition: {x: 0, y: 1.075, z: -6.5}
          _portalRotation: {x: -0, y: 1, z: -0, w: 0}
          _portalScale: {x: 2, y: 2.15, z: 1}
        - _portalId: 2cc62160-953f-494f-8867-f6fbded53a5d
          _worldEntrance: 0
          _zoneEntrance: 0
          _allowedDestinationTypes: 00000000
          _portalPosition: {x: 3.5, y: 1.075, z: -1}
          _portalRotation: {x: -0, y: 0.7071068, z: -0, w: 0.7071068}
          _portalScale: {x: 1.0000002, y: 2.15, z: 1.0000002}
        - _portalId: 58b06f42-13c6-45f6-afbc-af02d9af152c
          _worldEntrance: 0
          _zoneEntrance: 1
          _allowedDestinationTypes: 00000000
          _portalPosition: {x: 4.5, y: 4.075, z: -2}
          _portalRotation: {x: -0, y: 0.7071068, z: -0, w: 0.7071068}
          _portalScale: {x: 1.0000002, y: 2.15, z: 1.0000002}
    - rid: 2767731648614367236
      type: {class: WorldItemSpawnDataComponent, ns: Game.World.Item.Data, asm: Game}
      data:
        _itemSpawns:
        - _position: {x: 0, y: 0.83, z: 3.79}
          _rotation: {x: 0, y: 0, z: 0, w: 0}
          _fixedSpawnRotation: 0
          _allowedItemGroups:
          - {fileID: 11400000, guid: 866a9140ac8b0484baf17747a75a8ee3, type: 2}
        - _position: {x: 0, y: 3.82, z: 3.79}
          _rotation: {x: 0, y: 0, z: 0, w: 0}
          _fixedSpawnRotation: 0
          _allowedItemGroups:
          - {fileID: 11400000, guid: c30c5c8952207e74a9fb0ad6de2929a4, type: 2}
        - _position: {x: 0, y: 3.82, z: 4.35}
          _rotation: {x: 0, y: 0, z: 0, w: 0}
          _fixedSpawnRotation: 0
          _allowedItemGroups:
          - {fileID: 11400000, guid: c30c5c8952207e74a9fb0ad6de2929a4, type: 2}
        - _position: {x: 0, y: 3.82, z: 4.9}
          _rotation: {x: 0, y: 0, z: 0, w: 0}
          _fixedSpawnRotation: 0
          _allowedItemGroups:
          - {fileID: 11400000, guid: c30c5c8952207e74a9fb0ad6de2929a4, type: 2}
    - rid: 4143725414640779323
      type: {class: EntityManifestComponent, ns: Game.Core.Entity, asm: Game.Core}
      data:
        _entities:
        - _id: c228b795-48c4-4f5d-8ef8-7fca5c9de33c
          _name: Door_World_Entrance_Entity
          _entityAssetKey: Entities/Building/Door_World_Entrance_Entity
          _position: {x: 0, y: 0, z: -6.5}
          _rotation: {x: 0, y: 0, z: 0, w: 1}
          _scale: {x: 1, y: 1, z: 1}
          _serializedJson: 
