%YAML 1.1
%TAG !u! tag:unity3d.com,2011:
--- !u!114 &11400000
MonoBehaviour:
  m_ObjectHideFlags: 0
  m_CorrespondingSourceObject: {fileID: 0}
  m_PrefabInstance: {fileID: 0}
  m_PrefabAsset: {fileID: 0}
  m_GameObject: {fileID: 0}
  m_Enabled: 1
  m_EditorHideFlags: 0
  m_Script: {fileID: 11500000, guid: bbb281ee3bf0b054c82ac2347e9e782c, type: 3}
  m_Name: Effects-Item
  m_EditorClassIdentifier: 
  m_GroupName: Effects-Item
  m_Data:
    m_SerializedData: []
  m_GUID: f52cc5e746681e043a7c9b8d943ab367
  m_SerializeEntries:
  - m_GUID: b4a90be2ea14f4641aa9706c682cdbcf
    m_Address: Effects/Item/Pickup
    m_ReadOnly: 0
    m_SerializedLabels: []
  - m_GUID: e2bbc8035af83004fb7d3f68e9fa76f8
    m_Address: Effects/Item/Consume-Swallow
    m_ReadOnly: 0
    m_SerializedLabels: []
  - m_GUID: 9c1685267725af949ad3cc075f942919
    m_Address: Effects/Item/Backpack Pickup
    m_ReadOnly: 0
    m_SerializedLabels: []
  - m_GUID: 89058fcadd340974cae4c9da59dd0ba5
    m_Address: Effects/Item/Backpack Stash
    m_ReadOnly: 0
    m_SerializedLabels: []
  - m_GUID: 013006d55d807eb489830a40763273e7
    m_Address: Effects/Item/Weapon Pickup
    m_ReadOnly: 0
    m_SerializedLabels: []
  m_ReadOnly: 0
  m_Settings: {fileID: 11400000, guid: 7506acfdd7a92fc499f0775a6fc26725, type: 2}
  m_SchemaSet:
    m_Schemas:
    - {fileID: 11400000, guid: aad995d4ae9d57f44a33adef00f2cc4c, type: 2}
    - {fileID: 11400000, guid: 4050cb3e098e6244ca4e4427083f0f55, type: 2}
