%YAML 1.1
%TAG !u! tag:unity3d.com,2011:
--- !u!114 &11400000
MonoBehaviour:
  m_ObjectHideFlags: 0
  m_CorrespondingSourceObject: {fileID: 0}
  m_PrefabInstance: {fileID: 0}
  m_PrefabAsset: {fileID: 0}
  m_GameObject: {fileID: 0}
  m_Enabled: 1
  m_EditorHideFlags: 0
  m_Script: {fileID: 11500000, guid: bbb281ee3bf0b054c82ac2347e9e782c, type: 3}
  m_Name: Effects-Gun Impact
  m_EditorClassIdentifier: 
  m_GroupName: Effects-Gun Impact
  m_Data:
    m_SerializedData: []
  m_GUID: 6475a2aae7140844687aa686fda96544
  m_SerializeEntries:
  - m_GUID: 1eaedcd114ad5bb4f98782f493aebed7
    m_Address: Effects/Concrete/Gun Impact
    m_ReadOnly: 0
    m_SerializedLabels: []
  - m_GUID: 9a59be467941bec4fad23e7ae9e08d82
    m_Address: Effects/Wood/Gun Impact
    m_ReadOnly: 0
    m_SerializedLabels: []
  - m_GUID: 06c7226f7bdff584787bdaa02890507d
    m_Address: Effects/Hardened Steel/Gun Impact
    m_ReadOnly: 0
    m_SerializedLabels: []
  - m_GUID: b539770ed080ef9488f2d15c1142f538
    m_Address: Effects/Sheet Metal/Gun Impact
    m_ReadOnly: 0
    m_SerializedLabels: []
  - m_GUID: 2d9aa15acb33726439eb78bba6f5ce2c
    m_Address: Effects/Dust/Gun Impact
    m_ReadOnly: 0
    m_SerializedLabels: []
  - m_GUID: 2300fc7947691fa4f8fa90a8bcf64ef1
    m_Address: Effects/Glass/Gun Impact
    m_ReadOnly: 0
    m_SerializedLabels: []
  - m_GUID: c6d0dd3e59c20f6428865ffe975bc28d
    m_Address: Effects/Flesh/Gun Impact
    m_ReadOnly: 0
    m_SerializedLabels: []
  - m_GUID: e9bf2a13c24705446b594bc863737b81
    m_Address: Effects/Plastic/Gun Impact
    m_ReadOnly: 0
    m_SerializedLabels: []
  m_ReadOnly: 0
  m_Settings: {fileID: 11400000, guid: 7506acfdd7a92fc499f0775a6fc26725, type: 2}
  m_SchemaSet:
    m_Schemas:
    - {fileID: 11400000, guid: ae4103cd13a500a479bc7a700d84e1ef, type: 2}
    - {fileID: 11400000, guid: 82f9a3e232040894a95f9d40b6ee38b4, type: 2}
