%YAML 1.1
%TAG !u! tag:unity3d.com,2011:
--- !u!114 &11400000
MonoBehaviour:
  m_ObjectHideFlags: 0
  m_CorrespondingSourceObject: {fileID: 0}
  m_PrefabInstance: {fileID: 0}
  m_PrefabAsset: {fileID: 0}
  m_GameObject: {fileID: 0}
  m_Enabled: 1
  m_EditorHideFlags: 0
  m_Script: {fileID: 11500000, guid: bbb281ee3bf0b054c82ac2347e9e782c, type: 3}
  m_Name: Entity - Enemy
  m_EditorClassIdentifier: 
  m_GroupName: Entity - Enemy
  m_Data:
    m_SerializedData: []
  m_GUID: 140b95076e2139142888bd6d67c2d6ca
  m_SerializeEntries:
  - m_GUID: d56092a35b760f34381b4d96f2e95a58
    m_Address: Entities/Bear Trap
    m_ReadOnly: 0
    m_SerializedLabels:
    - Entity
  - m_GUID: 03169cd92208cda4e9a3821ec9a2b43a
    m_Address: Entities/Stalker
    m_ReadOnly: 0
    m_SerializedLabels:
    - Entity
  m_ReadOnly: 0
  m_Settings: {fileID: 11400000, guid: 7506acfdd7a92fc499f0775a6fc26725, type: 2}
  m_SchemaSet:
    m_Schemas:
    - {fileID: 11400000, guid: a4394cf6b3fff4241ae401738317d0f0, type: 2}
    - {fileID: 11400000, guid: f8040ca98935bde49832de693a52fbb3, type: 2}
