%YAML 1.1
%TAG !u! tag:unity3d.com,2011:
--- !u!114 &11400000
MonoBehaviour:
  m_ObjectHideFlags: 0
  m_CorrespondingSourceObject: {fileID: 0}
  m_PrefabInstance: {fileID: 0}
  m_PrefabAsset: {fileID: 0}
  m_GameObject: {fileID: 0}
  m_Enabled: 1
  m_EditorHideFlags: 0
  m_Script: {fileID: 11500000, guid: bbb281ee3bf0b054c82ac2347e9e782c, type: 3}
  m_Name: Entity - UI
  m_EditorClassIdentifier: 
  m_GroupName: Entity - UI
  m_Data:
    m_SerializedData: []
  m_GUID: a44b6a5cd7fbb2f4d94f0d7c22a82372
  m_SerializeEntries:
  - m_GUID: bd9d7b8d8424c3a4bada0477e7cbc1b5
    m_Address: Entities/UI/Main Menu
    m_ReadOnly: 0
    m_SerializedLabels: []
  m_ReadOnly: 0
  m_Settings: {fileID: 11400000, guid: 7506acfdd7a92fc499f0775a6fc26725, type: 2}
  m_SchemaSet:
    m_Schemas:
    - {fileID: 11400000, guid: 90c5e9d86d0bd984e94813aa51c13e77, type: 2}
    - {fileID: 11400000, guid: 837e25d0a9ff1e346b8d76e84b88a9f1, type: 2}
