%YAML 1.1
%TAG !u! tag:unity3d.com,2011:
--- !u!114 &11400000
MonoBehaviour:
  m_ObjectHideFlags: 0
  m_CorrespondingSourceObject: {fileID: 0}
  m_PrefabInstance: {fileID: 0}
  m_PrefabAsset: {fileID: 0}
  m_GameObject: {fileID: 0}
  m_Enabled: 1
  m_EditorHideFlags: 0
  m_Script: {fileID: 11500000, guid: bbb281ee3bf0b054c82ac2347e9e782c, type: 3}
  m_Name: Entity - Item
  m_EditorClassIdentifier: 
  m_GroupName: Entity - Item
  m_Data:
    m_SerializedData: []
  m_GUID: 1781aabfff5a19a49804da0775730828
  m_SerializeEntries:
  - m_GUID: f827e1f6c90b3df4fb1a716c04c776b6
    m_Address: Entities/Item/Basement Key
    m_ReadOnly: 0
    m_SerializedLabels:
    - Entity
  - m_GUID: 0e868197c8194e643988967c5c4cb550
    m_Address: Entities/Item/Flashlight
    m_ReadOnly: 0
    m_SerializedLabels:
    - Entity
  - m_GUID: 96404d6a5e3b4d14986d21f7435b7cdd
    m_Address: Entities/Item/Health
    m_ReadOnly: 0
    m_SerializedLabels:
    - Entity
  - m_GUID: 2b6143061fc75f74f89526c7db20cd1e
    m_Address: Entities/Item/Revolver Ammo
    m_ReadOnly: 0
    m_SerializedLabels:
    - Entity
  - m_GUID: 5a282cc49a52c864a907cd28093bbee5
    m_Address: Entities/Item/Revolver Ammo x6
    m_ReadOnly: 0
    m_SerializedLabels:
    - Entity
  - m_GUID: 6eb64d439fb894a4fa9b5ad1a813f54a
    m_Address: Entities/Item/Revolver
    m_ReadOnly: 0
    m_SerializedLabels:
    - Entity
  - m_GUID: c2718b04655171645871f2c7b00a5fde
    m_Address: Entities/Item/Revolver Ammo x2
    m_ReadOnly: 0
    m_SerializedLabels:
    - Entity
  - m_GUID: 79d84949762921e4298c2d96c78f6b70
    m_Address: Entities/Item/Revolver Ammo x3
    m_ReadOnly: 0
    m_SerializedLabels:
    - Entity
  - m_GUID: 72e6813dbe4d9c848b02aea4139d9dd4
    m_Address: Entities/Item/Revolver Ammo x4
    m_ReadOnly: 0
    m_SerializedLabels:
    - Entity
  - m_GUID: 6aeeedafbbc10e44a9e898ca2102e6cf
    m_Address: Entities/Item/Revolver Ammo x5
    m_ReadOnly: 0
    m_SerializedLabels:
    - Entity
  m_ReadOnly: 0
  m_Settings: {fileID: 11400000, guid: 7506acfdd7a92fc499f0775a6fc26725, type: 2}
  m_SchemaSet:
    m_Schemas:
    - {fileID: 11400000, guid: 735a292219d5e104885a54d29c8bb7dc, type: 2}
    - {fileID: 11400000, guid: 0d2f007637383df4d9c0565e4b6b66a7, type: 2}
