%YAML 1.1
%TAG !u! tag:unity3d.com,2011:
--- !u!114 &11400000
MonoBehaviour:
  m_ObjectHideFlags: 0
  m_CorrespondingSourceObject: {fileID: 0}
  m_PrefabInstance: {fileID: 0}
  m_PrefabAsset: {fileID: 0}
  m_GameObject: {fileID: 0}
  m_Enabled: 1
  m_EditorHideFlags: 0
  m_Script: {fileID: 11500000, guid: bbb281ee3bf0b054c82ac2347e9e782c, type: 3}
  m_Name: Item-Definition
  m_EditorClassIdentifier: 
  m_GroupName: Item-Definition
  m_Data:
    m_SerializedData: []
  m_GUID: e441f4e266004d64ebc6b6e4ff924390
  m_SerializeEntries:
  - m_GUID: 536781d16dc542449b31bece5f351192
    m_Address: Item Definition/Basement Key
    m_ReadOnly: 0
    m_SerializedLabels:
    - Item Definition
  - m_GUID: d038330b5a7e9c74c98b76c79f3c9b90
    m_Address: Item Definition/Flashlight
    m_ReadOnly: 0
    m_SerializedLabels:
    - Item Definition
  - m_GUID: 3068805b77a0e064f9bc8f384dc20ef0
    m_Address: Item Definition/Health
    m_ReadOnly: 0
    m_SerializedLabels:
    - Item Definition
  - m_GUID: da0d618843ec78d48b80406192a655b0
    m_Address: Item Definitions/VR Player Backpack
    m_ReadOnly: 0
    m_SerializedLabels:
    - Item Definition
  - m_GUID: 28c1205f946f2b14ab24143885ea3947
    m_Address: Item Definition/Revolver Ammo
    m_ReadOnly: 0
    m_SerializedLabels:
    - Item Definition
  - m_GUID: 195043b27ccfc0b468704b48e5f4c3ed
    m_Address: Item Definition/Revolver
    m_ReadOnly: 0
    m_SerializedLabels:
    - Item Definition
  m_ReadOnly: 0
  m_Settings: {fileID: 11400000, guid: 7506acfdd7a92fc499f0775a6fc26725, type: 2}
  m_SchemaSet:
    m_Schemas:
    - {fileID: 11400000, guid: e38d9b2d304265e47bae31b20fbfcb5e, type: 2}
    - {fileID: 11400000, guid: 243ec13fabe686e4fa2ce800d099c4dc, type: 2}
