%YAML 1.1
%TAG !u! tag:unity3d.com,2011:
--- !u!114 &11400000
MonoBehaviour:
  m_ObjectHideFlags: 0
  m_CorrespondingSourceObject: {fileID: 0}
  m_PrefabInstance: {fileID: 0}
  m_PrefabAsset: {fileID: 0}
  m_GameObject: {fileID: 0}
  m_Enabled: 1
  m_EditorHideFlags: 0
  m_Script: {fileID: 11500000, guid: bbb281ee3bf0b054c82ac2347e9e782c, type: 3}
  m_Name: Item-Flashlight
  m_EditorClassIdentifier: 
  m_GroupName: Item-Flashlight
  m_Data:
    m_SerializedData: []
  m_GUID: 438528a1fbe19fb49bd5e45a4e8dc0f5
  m_SerializeEntries:
  - m_GUID: c8d4e59cbcd22d945a8c9f0464f446f2
    m_Address: Item/Flashlight/Preview_Model
    m_ReadOnly: 0
    m_SerializedLabels: []
  - m_GUID: ee96b1015664be74a9c1be1d4600e31e
    m_Address: Item/Flashlight/Preview_Image
    m_ReadOnly: 0
    m_SerializedLabels: []
  - m_GUID: 6e4c5d543ddb12c4285bc185446c95ca
    m_Address: Item/Flashlight/Equiptable
    m_ReadOnly: 0
    m_SerializedLabels: []
  m_ReadOnly: 0
  m_Settings: {fileID: 11400000, guid: 7506acfdd7a92fc499f0775a6fc26725, type: 2}
  m_SchemaSet:
    m_Schemas:
    - {fileID: 11400000, guid: 86537dd72d76e064dbe2cbbe5df18bc1, type: 2}
    - {fileID: 11400000, guid: 00f970939ded8f946a403e0163fc686c, type: 2}
