%YAML 1.1
%TAG !u! tag:unity3d.com,2011:
--- !u!114 &11400000
MonoBehaviour:
  m_ObjectHideFlags: 0
  m_CorrespondingSourceObject: {fileID: 0}
  m_PrefabInstance: {fileID: 0}
  m_PrefabAsset: {fileID: 0}
  m_GameObject: {fileID: 0}
  m_Enabled: 1
  m_EditorHideFlags: 0
  m_Script: {fileID: 11500000, guid: bbb281ee3bf0b054c82ac2347e9e782c, type: 3}
  m_Name: Metadata
  m_EditorClassIdentifier: 
  m_GroupName: Metadata
  m_Data:
    m_SerializedData: []
  m_GUID: f784840b571fcc240b36a9b0b7a74953
  m_SerializeEntries:
  - m_GUID: 6b09c749e6fe42c4c8665bd784433e7e
    m_Address: Effects/Wood/Footstep Walk - Metadata
    m_ReadOnly: 0
    m_SerializedLabels:
    - Metadata
  - m_GUID: 71cf43e81074b884abd7b5001492a950
    m_Address: Effects/Wood/Footstep Land - Metadata
    m_ReadOnly: 0
    m_SerializedLabels:
    - Metadata
  - m_GUID: 50041cf6f7207a146ad4827af60fd6f8
    m_Address: Effects/Concrete/Footstep Walk - Metadata
    m_ReadOnly: 0
    m_SerializedLabels:
    - Metadata
  - m_GUID: d5497ac2adf6b04428f6bf60f7498249
    m_Address: Effects/Concrete/Footstep Land - Metadata
    m_ReadOnly: 0
    m_SerializedLabels:
    - Metadata
  - m_GUID: ad1d8df24f6397e4293faf1c36fed943
    m_Address: Effects/Carpet/Footstep Walk - Metadata
    m_ReadOnly: 0
    m_SerializedLabels:
    - Metadata
  - m_GUID: cca0cee4a7de2c443ba0d344d43a1bd8
    m_Address: Effects/Carpet/Footstep Land - Metadata
    m_ReadOnly: 0
    m_SerializedLabels:
    - Metadata
  - m_GUID: 764fa2590c893f645a6a66263cae1572
    m_Address: Entities/Entity Cube - Red - Metadata
    m_ReadOnly: 0
    m_SerializedLabels:
    - Metadata
  - m_GUID: e0fbb8d4f7b3e9243923b93a82774280
    m_Address: Entities/Stalker - Metadata
    m_ReadOnly: 0
    m_SerializedLabels:
    - Metadata
  - m_GUID: 3c803ef1328057d4a872e03cf536ca26
    m_Address: Entities/Entity Cube - Blue - Metadata
    m_ReadOnly: 0
    m_SerializedLabels:
    - Metadata
  - m_GUID: 555e684cddb531a49b0e337300721dfc
    m_Address: Entities/Entity Cube - Audio - Metadata
    m_ReadOnly: 0
    m_SerializedLabels:
    - Metadata
  - m_GUID: 79679564225b7d44d8b9f9be40f85f89
    m_Address: Effects/Player Damage/Player Bludgeoned - Metadata
    m_ReadOnly: 0
    m_SerializedLabels:
    - Metadata
  - m_GUID: 94c4afe5b153d524293ea5f54983e35a
    m_Address: Effects/Player Damage/Player Death - Metadata
    m_ReadOnly: 0
    m_SerializedLabels:
    - Metadata
  - m_GUID: 8e6c175057b39ae49aa91729d7907408
    m_Address: Entities/Item/Basement Key - Metadata
    m_ReadOnly: 0
    m_SerializedLabels:
    - Metadata
  - m_GUID: 06c4e2122c0a24c44a5746e5db4d7602
    m_Address: Effects/Item/Pickup - Metadata
    m_ReadOnly: 0
    m_SerializedLabels:
    - Metadata
  - m_GUID: 22820eaa6455005418c4544b08fba83b
    m_Address: Entities/Item/Flashlight - Metadata
    m_ReadOnly: 0
    m_SerializedLabels:
    - Metadata
  - m_GUID: 6b2858ccd8c89a24e9f692e7c18cc53f
    m_Address: Entities/Item/Health - Metadata
    m_ReadOnly: 0
    m_SerializedLabels:
    - Metadata
  - m_GUID: 1f653cda3f4dff24d8b54356146dbe83
    m_Address: Entities/Bear Trap - Metadata
    m_ReadOnly: 0
    m_SerializedLabels:
    - Metadata
  - m_GUID: cdabaeb979e3267479d7a054e64f4316
    m_Address: Effects/Item/Consume-Swallow - Metadata
    m_ReadOnly: 0
    m_SerializedLabels:
    - Metadata
  - m_GUID: 27601b5a0fe98504895477f4c450ede1
    m_Address: Entities/Entity Cube - Text - Metadata
    m_ReadOnly: 0
    m_SerializedLabels:
    - Metadata
  - m_GUID: a200e4f1a5129344d89c8de6205e22c3
    m_Address: Effects/Item/Backpack Pickup - Metadata
    m_ReadOnly: 0
    m_SerializedLabels:
    - Metadata
  - m_GUID: 84f2e6339a197874abb5ac969eddde13
    m_Address: Effects/Item/Backpack Stash - Metadata
    m_ReadOnly: 0
    m_SerializedLabels:
    - Metadata
  - m_GUID: f97270f679c8615408c5fdc64aaef98a
    m_Address: Entities/Bottles/Soda - Metadata
    m_ReadOnly: 0
    m_SerializedLabels:
    - Metadata
  - m_GUID: 5f3f239519659504bb3658c8f743cae6
    m_Address: Entities/Bottles/Green - Metadata
    m_ReadOnly: 0
    m_SerializedLabels:
    - Metadata
  - m_GUID: 363e506d12da5d74bbadb20c2b6d22ae
    m_Address: Entities/Bottles/Beer - Metadata
    m_ReadOnly: 0
    m_SerializedLabels:
    - Metadata
  - m_GUID: e42df3cd95c4f8346bdaa0599eeb30b8
    m_Address: Entities/Building/Door_Blocked_Entity - Metadata
    m_ReadOnly: 0
    m_SerializedLabels:
    - Metadata
  - m_GUID: 7ee1894f6aeb24f46ad3b2e7feaa1bcb
    m_Address: Entities/Building/Door_Double_Hinged_Entity - Metadata
    m_ReadOnly: 0
    m_SerializedLabels:
    - Metadata
  - m_GUID: a9c192f29c49533428ed938676058130
    m_Address: Entities/Building/Door_Hinged_Entity - Metadata
    m_ReadOnly: 0
    m_SerializedLabels:
    - Metadata
  - m_GUID: af0e712e5e81bbc4a8128572992b441e
    m_Address: Entities/Building/Door_Hinged_Shadow_Entity - Metadata
    m_ReadOnly: 0
    m_SerializedLabels:
    - Metadata
  - m_GUID: c02834c53969a5c42b57da213390ed11
    m_Address: Entities/Building/Door_World_Entrance_Entity - Metadata
    m_ReadOnly: 0
    m_SerializedLabels:
    - Metadata
  - m_GUID: 6534236e8b6ceaf45b8e729639436870
    m_Address: Entities/Item/Revolver Ammo - Metadata
    m_ReadOnly: 0
    m_SerializedLabels:
    - Metadata
  - m_GUID: a69749534a123914f8a6dd098069a6eb
    m_Address: Entities/Item/Revolver Ammo x6 - Metadata
    m_ReadOnly: 0
    m_SerializedLabels:
    - Metadata
  - m_GUID: 757db2b42df786f4e82ce30e34e85b25
    m_Address: Entities/Item/Revolver - Metadata
    m_ReadOnly: 0
    m_SerializedLabels:
    - Metadata
  - m_GUID: 1b93e97b6c5402e4fbbc07fc0a8a69a8
    m_Address: Effects/Item/Weapon Pickup - Metadata
    m_ReadOnly: 0
    m_SerializedLabels:
    - Metadata
  - m_GUID: a86fa71ef1e22bd46aa67f8a2d87eade
    m_Address: Effects/Concrete/Gun Impact - Metadata
    m_ReadOnly: 0
    m_SerializedLabels:
    - Metadata
  - m_GUID: 7fa0c5d3a3c45ea42846b1e43c4d8235
    m_Address: Effects/Wood/Gun Impact - Metadata
    m_ReadOnly: 0
    m_SerializedLabels:
    - Metadata
  - m_GUID: 03cbd7d0f39c87744be575ddcf7f27a3
    m_Address: Effects/Hardened Steel/Gun Impact - Metadata
    m_ReadOnly: 0
    m_SerializedLabels:
    - Metadata
  - m_GUID: 7bb248da58561ea4da071ded7c561fcf
    m_Address: Effects/Sheet Metal/Gun Impact - Metadata
    m_ReadOnly: 0
    m_SerializedLabels:
    - Metadata
  - m_GUID: c97af6a9dc7b83047adb9b62190e10bf
    m_Address: Effects/Dust/Gun Impact - Metadata
    m_ReadOnly: 0
    m_SerializedLabels:
    - Metadata
  - m_GUID: 88ecc5ed07ba5c443bda7435ff347801
    m_Address: Effects/Glass/Gun Impact - Metadata
    m_ReadOnly: 0
    m_SerializedLabels:
    - Metadata
  - m_GUID: 15920e9b6e34b134da2ca2fc03a642f8
    m_Address: Entities/Item/Revolver Ammo x5 - Metadata
    m_ReadOnly: 0
    m_SerializedLabels:
    - Metadata
  - m_GUID: e11c67634c8694e41a5b6ff27853c3ff
    m_Address: Entities/Item/Revolver Ammo x4 - Metadata
    m_ReadOnly: 0
    m_SerializedLabels:
    - Metadata
  - m_GUID: a301c58f3e0a7ca41b1ce93458f11361
    m_Address: Entities/Item/Revolver Ammo x3 - Metadata
    m_ReadOnly: 0
    m_SerializedLabels:
    - Metadata
  - m_GUID: 303598714953f6348af30dbd6436ffdd
    m_Address: Entities/Item/Revolver Ammo x2 - Metadata
    m_ReadOnly: 0
    m_SerializedLabels:
    - Metadata
  - m_GUID: 29ccb27449aa60c40a374c933c62a693
    m_Address: Effects/Flesh/Gun Impact - Metadata
    m_ReadOnly: 0
    m_SerializedLabels:
    - Metadata
  - m_GUID: c73fe864942adf547b5b2df6d499b9f2
    m_Address: Entities/UI/Main Menu - Metadata
    m_ReadOnly: 0
    m_SerializedLabels:
    - Metadata
  - m_GUID: 43738ae92323c924dbe1f0377c17c53c
    m_Address: Entities/Bottles/Beer/BottleChunk01 - Metadata
    m_ReadOnly: 0
    m_SerializedLabels:
    - Metadata
  - m_GUID: 21be979eecec79547916a9ebc2ca8eea
    m_Address: Entities/Bottles/Green/BottleChunk01 - Metadata
    m_ReadOnly: 0
    m_SerializedLabels:
    - Metadata
  - m_GUID: 7b01e03ef4cfd0f498a6fb2a3c7be0fa
    m_Address: Entities/Bottles/Soda/BottleChunk01 - Metadata
    m_ReadOnly: 0
    m_SerializedLabels:
    - Metadata
  - m_GUID: 0a69ddfa3f2f82841935a7afa8e7e53e
    m_Address: Entities/Bottles/Beer/BottleChunk02 - Metadata
    m_ReadOnly: 0
    m_SerializedLabels:
    - Metadata
  - m_GUID: 57203189042a3924bb72c53d347bb72f
    m_Address: Entities/Bottles/Green/BottleChunk02 - Metadata
    m_ReadOnly: 0
    m_SerializedLabels:
    - Metadata
  - m_GUID: 71f826a5ed73f664993a925913735e71
    m_Address: Entities/Bottles/Soda/BottleChunk02 - Metadata
    m_ReadOnly: 0
    m_SerializedLabels:
    - Metadata
  - m_GUID: a68fcf368aed0f144ad72885bae89791
    m_Address: Entities/Bottles/Beer/BottleChunk03 - Metadata
    m_ReadOnly: 0
    m_SerializedLabels:
    - Metadata
  - m_GUID: 450b678738a25504caa0796a84cb91d3
    m_Address: Entities/Bottles/Green/BottleChunk03 - Metadata
    m_ReadOnly: 0
    m_SerializedLabels:
    - Metadata
  - m_GUID: 9259266fc1388e946a1c796659f0f95d
    m_Address: Entities/Bottles/Soda/BottleChunk03 - Metadata
    m_ReadOnly: 0
    m_SerializedLabels:
    - Metadata
  - m_GUID: 91d0bff6575dc3148a0db1374df240c3
    m_Address: Entities/Bottles/Beer/BottleChunk04 - Metadata
    m_ReadOnly: 0
    m_SerializedLabels:
    - Metadata
  - m_GUID: bbd3e39e65bedf2479817920bc55baf8
    m_Address: Entities/Bottles/Green/BottleChunk04 - Metadata
    m_ReadOnly: 0
    m_SerializedLabels:
    - Metadata
  - m_GUID: e900d0f5644a8e34e83e261d65dad362
    m_Address: Entities/Bottles/Soda/BottleChunk04 - Metadata
    m_ReadOnly: 0
    m_SerializedLabels:
    - Metadata
  - m_GUID: b756faf13d261fe4cb617678a6706cdf
    m_Address: Entities/Bottles/Beer/BottleChunk05 - Metadata
    m_ReadOnly: 0
    m_SerializedLabels:
    - Metadata
  - m_GUID: 393f2b894e1b1184481a278215287e6f
    m_Address: Entities/Bottles/Green/BottleChunk05 - Metadata
    m_ReadOnly: 0
    m_SerializedLabels:
    - Metadata
  - m_GUID: 37849c4b1fb5b7b45a9c59b97b02c5ec
    m_Address: Entities/Bottles/Soda/BottleChunk05 - Metadata
    m_ReadOnly: 0
    m_SerializedLabels:
    - Metadata
  - m_GUID: b8bbe197fd4516e4b9569655a41536e1
    m_Address: Effects/Bottle/Break - Metadata
    m_ReadOnly: 0
    m_SerializedLabels:
    - Metadata
  - m_GUID: 9a5e68acca9312a4da5372ed726c92da
    m_Address: Entities/Entity Cube - Particles - Metadata
    m_ReadOnly: 0
    m_SerializedLabels:
    - Metadata
  - m_GUID: f34e969c1142e9d4d99f863251daac8d
    m_Address: Effects/Plastic/Gun Impact - Metadata
    m_ReadOnly: 0
    m_SerializedLabels:
    - Metadata
  m_ReadOnly: 0
  m_Settings: {fileID: 11400000, guid: 7506acfdd7a92fc499f0775a6fc26725, type: 2}
  m_SchemaSet:
    m_Schemas:
    - {fileID: 11400000, guid: cc195bd36fa2ba84e8fa6aab5cbda946, type: 2}
    - {fileID: 11400000, guid: 9c8a1253d7490594394b26a6f2c19904, type: 2}
