%YAML 1.1
%TAG !u! tag:unity3d.com,2011:
--- !u!1001 &4915419329232499281
PrefabInstance:
  m_ObjectHideFlags: 0
  serializedVersion: 2
  m_Modification:
    m_TransformParent: {fileID: 0}
    m_Modifications:
    - target: {fileID: 3643262316698884097, guid: a9e384b94d505eb4ebef5b49f5c0a880,
        type: 3}
      propertyPath: m_Name
      value: Haunted Lamp_wall_shade Variant
      objectReference: {fileID: 0}
    - target: {fileID: 4162636032138216123, guid: a9e384b94d505eb4ebef5b49f5c0a880,
        type: 3}
      propertyPath: m_RootOrder
      value: 0
      objectReference: {fileID: 0}
    - target: {fileID: 4162636032138216123, guid: a9e384b94d505eb4ebef5b49f5c0a880,
        type: 3}
      propertyPath: m_LocalPosition.x
      value: 0
      objectReference: {fileID: 0}
    - target: {fileID: 4162636032138216123, guid: a9e384b94d505eb4ebef5b49f5c0a880,
        type: 3}
      propertyPath: m_LocalPosition.y
      value: 0
      objectReference: {fileID: 0}
    - target: {fileID: 4162636032138216123, guid: a9e384b94d505eb4ebef5b49f5c0a880,
        type: 3}
      propertyPath: m_LocalPosition.z
      value: 0
      objectReference: {fileID: 0}
    - target: {fileID: 4162636032138216123, guid: a9e384b94d505eb4ebef5b49f5c0a880,
        type: 3}
      propertyPath: m_LocalRotation.w
      value: 1
      objectReference: {fileID: 0}
    - target: {fileID: 4162636032138216123, guid: a9e384b94d505eb4ebef5b49f5c0a880,
        type: 3}
      propertyPath: m_LocalRotation.x
      value: 0
      objectReference: {fileID: 0}
    - target: {fileID: 4162636032138216123, guid: a9e384b94d505eb4ebef5b49f5c0a880,
        type: 3}
      propertyPath: m_LocalRotation.y
      value: 0
      objectReference: {fileID: 0}
    - target: {fileID: 4162636032138216123, guid: a9e384b94d505eb4ebef5b49f5c0a880,
        type: 3}
      propertyPath: m_LocalRotation.z
      value: 0
      objectReference: {fileID: 0}
    - target: {fileID: 4162636032138216123, guid: a9e384b94d505eb4ebef5b49f5c0a880,
        type: 3}
      propertyPath: m_LocalEulerAnglesHint.x
      value: 0
      objectReference: {fileID: 0}
    - target: {fileID: 4162636032138216123, guid: a9e384b94d505eb4ebef5b49f5c0a880,
        type: 3}
      propertyPath: m_LocalEulerAnglesHint.y
      value: 0
      objectReference: {fileID: 0}
    - target: {fileID: 4162636032138216123, guid: a9e384b94d505eb4ebef5b49f5c0a880,
        type: 3}
      propertyPath: m_LocalEulerAnglesHint.z
      value: 0
      objectReference: {fileID: 0}
    - target: {fileID: 5959279303983257854, guid: a9e384b94d505eb4ebef5b49f5c0a880,
        type: 3}
      propertyPath: _conditionalEffects.Array.data[1]._lightEffect._effects.Array.data[1]._lightEffect._maxIntensity._inlineValue
      value: 0.3
      objectReference: {fileID: 0}
    - target: {fileID: 5959279303983257854, guid: a9e384b94d505eb4ebef5b49f5c0a880,
        type: 3}
      propertyPath: _conditionalEffects.Array.data[1]._lightEffect._effects.Array.data[3]._lightEffect._maxIntensity._inlineValue
      value: 0.3
      objectReference: {fileID: 0}
    - target: {fileID: 5959279303983257854, guid: a9e384b94d505eb4ebef5b49f5c0a880,
        type: 3}
      propertyPath: _conditionalEffects.Array.data[1]._lightEffect._effects.Array.data[3]._lightEffect._minIntensity._inlineValue
      value: 0.15
      objectReference: {fileID: 0}
    m_RemovedComponents: []
  m_SourcePrefab: {fileID: 100100000, guid: a9e384b94d505eb4ebef5b49f5c0a880, type: 3}
