%YAML 1.1
%TAG !u! tag:unity3d.com,2011:
--- !u!1001 &4743118402859041302
PrefabInstance:
  m_ObjectHideFlags: 0
  serializedVersion: 2
  m_Modification:
    m_TransformParent: {fileID: 0}
    m_Modifications:
    - target: {fileID: 2602620605779127199, guid: 6f32d0c39a00f5d42b81f874fd8b6480,
        type: 3}
      propertyPath: m_Range
      value: 9
      objectReference: {fileID: 0}
    - target: {fileID: 3958088514735426589, guid: 6f32d0c39a00f5d42b81f874fd8b6480,
        type: 3}
      propertyPath: m_RootOrder
      value: 0
      objectReference: {fileID: 0}
    - target: {fileID: 3958088514735426589, guid: 6f32d0c39a00f5d42b81f874fd8b6480,
        type: 3}
      propertyPath: m_LocalPosition.x
      value: 0
      objectReference: {fileID: 0}
    - target: {fileID: 3958088514735426589, guid: 6f32d0c39a00f5d42b81f874fd8b6480,
        type: 3}
      propertyPath: m_LocalPosition.y
      value: 0
      objectReference: {fileID: 0}
    - target: {fileID: 3958088514735426589, guid: 6f32d0c39a00f5d42b81f874fd8b6480,
        type: 3}
      propertyPath: m_LocalPosition.z
      value: 0
      objectReference: {fileID: 0}
    - target: {fileID: 3958088514735426589, guid: 6f32d0c39a00f5d42b81f874fd8b6480,
        type: 3}
      propertyPath: m_LocalRotation.w
      value: 1
      objectReference: {fileID: 0}
    - target: {fileID: 3958088514735426589, guid: 6f32d0c39a00f5d42b81f874fd8b6480,
        type: 3}
      propertyPath: m_LocalRotation.x
      value: 0
      objectReference: {fileID: 0}
    - target: {fileID: 3958088514735426589, guid: 6f32d0c39a00f5d42b81f874fd8b6480,
        type: 3}
      propertyPath: m_LocalRotation.y
      value: 0
      objectReference: {fileID: 0}
    - target: {fileID: 3958088514735426589, guid: 6f32d0c39a00f5d42b81f874fd8b6480,
        type: 3}
      propertyPath: m_LocalRotation.z
      value: 0
      objectReference: {fileID: 0}
    - target: {fileID: 3958088514735426589, guid: 6f32d0c39a00f5d42b81f874fd8b6480,
        type: 3}
      propertyPath: m_LocalEulerAnglesHint.x
      value: 0
      objectReference: {fileID: 0}
    - target: {fileID: 3958088514735426589, guid: 6f32d0c39a00f5d42b81f874fd8b6480,
        type: 3}
      propertyPath: m_LocalEulerAnglesHint.y
      value: 0
      objectReference: {fileID: 0}
    - target: {fileID: 3958088514735426589, guid: 6f32d0c39a00f5d42b81f874fd8b6480,
        type: 3}
      propertyPath: m_LocalEulerAnglesHint.z
      value: 0
      objectReference: {fileID: 0}
    - target: {fileID: 4442277819970197159, guid: 6f32d0c39a00f5d42b81f874fd8b6480,
        type: 3}
      propertyPath: m_Name
      value: Haunted Lamp_chandelier Variant
      objectReference: {fileID: 0}
    m_RemovedComponents: []
  m_SourcePrefab: {fileID: 100100000, guid: 6f32d0c39a00f5d42b81f874fd8b6480, type: 3}
