%YAML 1.1
%TAG !u! tag:unity3d.com,2011:
--- !u!1001 &6074357061759216346
PrefabInstance:
  m_ObjectHideFlags: 0
  serializedVersion: 2
  m_Modification:
    m_TransformParent: {fileID: 0}
    m_Modifications:
    - target: {fileID: 4766529284783504362, guid: 51023a5e301ef9b429d854f2547ef300,
        type: 3}
      propertyPath: m_RootOrder
      value: 0
      objectReference: {fileID: 0}
    - target: {fileID: 4766529284783504362, guid: 51023a5e301ef9b429d854f2547ef300,
        type: 3}
      propertyPath: m_LocalPosition.x
      value: 0
      objectReference: {fileID: 0}
    - target: {fileID: 4766529284783504362, guid: 51023a5e301ef9b429d854f2547ef300,
        type: 3}
      propertyPath: m_LocalPosition.y
      value: 0
      objectReference: {fileID: 0}
    - target: {fileID: 4766529284783504362, guid: 51023a5e301ef9b429d854f2547ef300,
        type: 3}
      propertyPath: m_LocalPosition.z
      value: 0
      objectReference: {fileID: 0}
    - target: {fileID: 4766529284783504362, guid: 51023a5e301ef9b429d854f2547ef300,
        type: 3}
      propertyPath: m_LocalRotation.w
      value: 1
      objectReference: {fileID: 0}
    - target: {fileID: 4766529284783504362, guid: 51023a5e301ef9b429d854f2547ef300,
        type: 3}
      propertyPath: m_LocalRotation.x
      value: 0
      objectReference: {fileID: 0}
    - target: {fileID: 4766529284783504362, guid: 51023a5e301ef9b429d854f2547ef300,
        type: 3}
      propertyPath: m_LocalRotation.y
      value: 0
      objectReference: {fileID: 0}
    - target: {fileID: 4766529284783504362, guid: 51023a5e301ef9b429d854f2547ef300,
        type: 3}
      propertyPath: m_LocalRotation.z
      value: 0
      objectReference: {fileID: 0}
    - target: {fileID: 4766529284783504362, guid: 51023a5e301ef9b429d854f2547ef300,
        type: 3}
      propertyPath: m_LocalEulerAnglesHint.x
      value: 0
      objectReference: {fileID: 0}
    - target: {fileID: 4766529284783504362, guid: 51023a5e301ef9b429d854f2547ef300,
        type: 3}
      propertyPath: m_LocalEulerAnglesHint.y
      value: 0
      objectReference: {fileID: 0}
    - target: {fileID: 4766529284783504362, guid: 51023a5e301ef9b429d854f2547ef300,
        type: 3}
      propertyPath: m_LocalEulerAnglesHint.z
      value: 0
      objectReference: {fileID: 0}
    - target: {fileID: 5291111146021200208, guid: 51023a5e301ef9b429d854f2547ef300,
        type: 3}
      propertyPath: m_Name
      value: Lamp_chandelier Variant
      objectReference: {fileID: 0}
    - target: {fileID: 5824759669822594152, guid: 51023a5e301ef9b429d854f2547ef300,
        type: 3}
      propertyPath: m_Range
      value: 9
      objectReference: {fileID: 0}
    m_RemovedComponents: []
  m_SourcePrefab: {fileID: 100100000, guid: 51023a5e301ef9b429d854f2547ef300, type: 3}
