%YAML 1.1
%TAG !u! tag:unity3d.com,2011:
--- !u!114 &11400000
MonoBehaviour:
  m_ObjectHideFlags: 0
  m_CorrespondingSourceObject: {fileID: 0}
  m_PrefabInstance: {fileID: 0}
  m_PrefabAsset: {fileID: 0}
  m_GameObject: {fileID: 0}
  m_Enabled: 1
  m_EditorHideFlags: 0
  m_Script: {fileID: 11500000, guid: e89e7d9eb92794547a1ae2b3d0696334, type: 3}
  m_Name: Gun Impact - Metadata
  m_EditorClassIdentifier: 
  _resourceKey: Effects/Hardened Steel/Gun Impact
  _metadataComponents:
  - rid: 306684199763181568
  references:
    version: 2
    RefIds:
    - rid: 306684199763181568
      type: {class: PoolableComponentMetadata, ns: Game.Core.Resource, asm: Game.Core}
      data:
        _poolSizeMin: 1
        _poolSizeMax: 3
