{    
    "Game.Command.PlayerHealthGetCommandProcessor": {},
    "Game.Command.PlayerHealthSetCommandProcessor": {},

    "Game.Command.PlayerInventoryAddCommandProcessor": {},
    "Game.Command.PlayerInventoryShowCommandProcessor": {},
    "Game.Command.PlayerInventoryUseCommandProcessor": {},

    "Game.Command.UnloadWorldCommandProcessor": {},

    "Game.Core.Command.EchoCommandProcessor": {},
    "Game.Core.Command.FpsCommandProcessor": {},
    "Game.Core.Command.HelpCommandProcessor": {},
    "Game.Core.Command.SettingCommandProcessor": {},
    "Game.Core.Command.SettingsProfileGetCommandProcessor": {},
    "Game.Core.Command.SettingsProfileSetCommandProcessor": {},
    "Game.Core.Command.SpawnEntityCommandProcessor": 
    {
        "Config":
        {         
            "MinClearDistance": 1,
            "MaxSpawnDistance": 5,
            "SpawnBoundsPadding": 0.1,
            "IgnoreLayers":
            [
                "Ignore Raycast",
                "Player",
                "Player Blocker",
                "Player Back",
                "Player Hand"
            ]
        }
    },
    "Game.Core.Command.ShutdownCommandProcessor": {},
    "Game.Core.Command.UnloadNonActiveSpacesCommandProcessor": {},
    "Game.Core.Command.VariableGetCommandProcessor": {},
    "Game.Core.Command.VariableSetCommandProcessor": {},
    "Game.Core.Command.VersionCommandProcessor": {},
    "Game.Core.Command.VolumeGetCommandProcessor": {},
    "Game.Core.Command.VolumeSetCommandProcessor": {},
    "Game.Core.Command.VSyncCommandProcessor": {},

    "Game.UI.Command.ShowFpsCommandProcessor": 
    {
        "Config":
        {           
            "FpsUiAssetKey": "UI/FpsCounter"
        }
    },
    "Game.UI.Console.Command.ClearConsoleCommandProcessor": {},
    "Game.UI.Console.Command.ConsoleFontSizeCommandProcessor": {}
}