{
    "Game.UI.UiManager": 
    {
        "Config":
        {
            "EventSystemAssetKey": "UI/EventSystem",
            "AllowedInputGroupTypes": 
            [
                "Game.Input.DeveloperInputGroup, Game.Input",
                "Game.Input.PlayerInventoryInputGroup, Game.Input",
                "Game.Input.UiInputGroup, Game.Input"
            ]
        }
    },
    
    "Game.UI.Inventory.InventoryUiManager":
    {
        "Config":
        {
            "InitializeOrder": 100,
            "InventoryUiAssetKey": "UI/InventoryScreen"
        }
    },
    
    "Game.Player.PC.PcPlayerManager": 
    {
        "Config":
        {
            "InitializeOrder": 250,
            "PlayerAssetKey": "Prefabs/PcPlayer",
            "HomeSpaceId": "aef1467a-d80a-4b7c-a46f-454bbb459909",
            "PlayerSpawnFadeInDuration": 3.0,
            "PlayerDeathFadeOutDuration": 3.0
        }
    }
}