{
    "Game.Core.EditorLogProcessor": {},
    "Game.UI.Console.ConsoleLogProcessor": {},
    
    "Game.Input.DeveloperInputGroup": {},
    "Game.Input.UiInputGroup": {},
    
    "Game.World.Haunt.AmbientLightEffect": {},
    "Game.World.Haunt.BuildingWearEffect": 
    {
        "BuildingWearShaderProperty": "GlobalWear"
    },
    "Game.World.Haunt.MonsterSpawnerEffect": 
    {
        "MonsterRespawnTimerDelay": 10.0,
        
        "MonsterSpawnConfigs":
        [
            {
                "Name": "Stalker 1",
                "MinHauntLevel": 50,
                "EntityAddress": "Entities/Stalker",
                "RespawnDelay": 60
            }
        ]
    },
    "Game.World.Haunt.PassiveHauntIncreaseEffect": 
    {
        "HauntIncreaseDelay": 20.0
    },
	"Game.World.Haunt.TrapSpawnerEffect":
	{
		"TrapSpawnConfigs":
        [
            {
                "Name": "BearTrap 1",
                "MinHauntLevel": 10,
                "EntityAddress": "Entities/Bear Trap"
            },
            {
                "Name": "BearTrap 2",
                "MinHauntLevel": 15,
                "EntityAddress": "Entities/Bear Trap"
            },
            {
                "Name": "BearTrap 3",
                "MinHauntLevel": 20,
                "EntityAddress": "Entities/Bear Trap"
            },
            {
                "Name": "BearTrap 4",
                "MinHauntLevel": 25,
                "EntityAddress": "Entities/Bear Trap"
            },
            {
                "Name": "BearTrap 5",
                "MinHauntLevel": 30,
                "EntityAddress": "Entities/Bear Trap"
            },
            {
                "Name": "BearTrap 6",
                "MinHauntLevel": 35,
                "EntityAddress": "Entities/Bear Trap"
            },
            {
                "Name": "BearTrap 7",
                "MinHauntLevel": 40,
                "EntityAddress": "Entities/Bear Trap"
            },
            {
                "Name": "BearTrap 8",
                "MinHauntLevel": 45,
                "EntityAddress": "Entities/Bear Trap"
            },
            {
                "Name": "BearTrap 9",
                "MinHauntLevel": 50,
                "EntityAddress": "Entities/Bear Trap"
            },
            {
                "Name": "BearTrap 10",
                "MinHauntLevel": 55,
                "EntityAddress": "Entities/Bear Trap"
            },
            
            {
                "Name": "BearTrap 11",
                "MinHauntLevel": 60,
                "EntityAddress": "Entities/Bear Trap"
            },
            {
                "Name": "BearTrap 12",
                "MinHauntLevel": 65,
                "EntityAddress": "Entities/Bear Trap"
            },
            {
                "Name": "BearTrap 13",
                "MinHauntLevel": 70,
                "EntityAddress": "Entities/Bear Trap"
            },
            {
                "Name": "BearTrap 14",
                "MinHauntLevel": 75,
                "EntityAddress": "Entities/Bear Trap"
            },
            {
                "Name": "BearTrap 15",
                "MinHauntLevel": 80,
                "EntityAddress": "Entities/Bear Trap"
            },
            {
                "Name": "BearTrap 16",
                "MinHauntLevel": 85,
                "EntityAddress": "Entities/Bear Trap"
            },
            {
                "Name": "BearTrap 17",
                "MinHauntLevel": 90,
                "EntityAddress": "Entities/Bear Trap"
            },
            {
                "Name": "BearTrap 18",
                "MinHauntLevel": 95,
                "EntityAddress": "Entities/Bear Trap"
            },
            {
                "Name": "BearTrap 19",
                "MinHauntLevel": 98,
                "EntityAddress": "Entities/Bear Trap"
            },
            {
                "Name": "BearTrap 20",
                "MinHauntLevel": 100,
                "EntityAddress": "Entities/Bear Trap"
            }
        ]
	},
    
    "Game.Core.Portal.PortalStaticShadowLightCreaterConfig": 
    {
        "MaxLightsPerPortal": 3,
        "MaxLightAngle": 70.0,
        "MinLightIntensity": 0.05
    }
}