%YAML 1.1
%TAG !u! tag:unity3d.com,2011:
--- !u!1001 &6649099321340282502
PrefabInstance:
  m_ObjectHideFlags: 0
  serializedVersion: 2
  m_Modification:
    m_TransformParent: {fileID: 0}
    m_Modifications:
    - target: {fileID: 3006960037251948040, guid: 4759f92449dd57b41be6a13ccb5fdb1f,
        type: 3}
      propertyPath: m_Range
      value: 6
      objectReference: {fileID: 0}
    - target: {fileID: 5004280200152381872, guid: 4759f92449dd57b41be6a13ccb5fdb1f,
        type: 3}
      propertyPath: m_Name
      value: Haunted Lamp_ceiling_cone_B Variant
      objectReference: {fileID: 0}
    - target: {fileID: 5636561665658594058, guid: 4759f92449dd57b41be6a13ccb5fdb1f,
        type: 3}
      propertyPath: m_RootOrder
      value: 0
      objectReference: {fileID: 0}
    - target: {fileID: 5636561665658594058, guid: 4759f92449dd57b41be6a13ccb5fdb1f,
        type: 3}
      propertyPath: m_LocalPosition.x
      value: 0
      objectReference: {fileID: 0}
    - target: {fileID: 5636561665658594058, guid: 4759f92449dd57b41be6a13ccb5fdb1f,
        type: 3}
      propertyPath: m_LocalPosition.y
      value: 0
      objectReference: {fileID: 0}
    - target: {fileID: 5636561665658594058, guid: 4759f92449dd57b41be6a13ccb5fdb1f,
        type: 3}
      propertyPath: m_LocalPosition.z
      value: 0
      objectReference: {fileID: 0}
    - target: {fileID: 5636561665658594058, guid: 4759f92449dd57b41be6a13ccb5fdb1f,
        type: 3}
      propertyPath: m_LocalRotation.w
      value: 1
      objectReference: {fileID: 0}
    - target: {fileID: 5636561665658594058, guid: 4759f92449dd57b41be6a13ccb5fdb1f,
        type: 3}
      propertyPath: m_LocalRotation.x
      value: 0
      objectReference: {fileID: 0}
    - target: {fileID: 5636561665658594058, guid: 4759f92449dd57b41be6a13ccb5fdb1f,
        type: 3}
      propertyPath: m_LocalRotation.y
      value: 0
      objectReference: {fileID: 0}
    - target: {fileID: 5636561665658594058, guid: 4759f92449dd57b41be6a13ccb5fdb1f,
        type: 3}
      propertyPath: m_LocalRotation.z
      value: 0
      objectReference: {fileID: 0}
    - target: {fileID: 5636561665658594058, guid: 4759f92449dd57b41be6a13ccb5fdb1f,
        type: 3}
      propertyPath: m_LocalEulerAnglesHint.x
      value: 0
      objectReference: {fileID: 0}
    - target: {fileID: 5636561665658594058, guid: 4759f92449dd57b41be6a13ccb5fdb1f,
        type: 3}
      propertyPath: m_LocalEulerAnglesHint.y
      value: 0
      objectReference: {fileID: 0}
    - target: {fileID: 5636561665658594058, guid: 4759f92449dd57b41be6a13ccb5fdb1f,
        type: 3}
      propertyPath: m_LocalEulerAnglesHint.z
      value: 0
      objectReference: {fileID: 0}
    m_RemovedComponents: []
  m_SourcePrefab: {fileID: 100100000, guid: 4759f92449dd57b41be6a13ccb5fdb1f, type: 3}
