%YAML 1.1
%TAG !u! tag:unity3d.com,2011:
--- !u!1001 &7618493180911030356
PrefabInstance:
  m_ObjectHideFlags: 0
  serializedVersion: 2
  m_Modification:
    m_TransformParent: {fileID: 0}
    m_Modifications:
    - target: {fileID: 214291046701462489, guid: e847c4c9805c8634287b1bc2edeffaf5,
        type: 3}
      propertyPath: m_Range
      value: 4
      objectReference: {fileID: 0}
    - target: {fileID: 214291046701462489, guid: e847c4c9805c8634287b1bc2edeffaf5,
        type: 3}
      propertyPath: m_Intensity
      value: 2
      objectReference: {fileID: 0}
    - target: {fileID: 214291046701462489, guid: e847c4c9805c8634287b1bc2edeffaf5,
        type: 3}
      propertyPath: m_SpotAngle
      value: 69.00453
      objectReference: {fileID: 0}
    - target: {fileID: 1453190809120260265, guid: e847c4c9805c8634287b1bc2edeffaf5,
        type: 3}
      propertyPath: m_Name
      value: Lamp_ceiling_spot Variant
      objectReference: {fileID: 0}
    - target: {fileID: 2261112659636754963, guid: e847c4c9805c8634287b1bc2edeffaf5,
        type: 3}
      propertyPath: m_RootOrder
      value: 0
      objectReference: {fileID: 0}
    - target: {fileID: 2261112659636754963, guid: e847c4c9805c8634287b1bc2edeffaf5,
        type: 3}
      propertyPath: m_LocalPosition.x
      value: 0
      objectReference: {fileID: 0}
    - target: {fileID: 2261112659636754963, guid: e847c4c9805c8634287b1bc2edeffaf5,
        type: 3}
      propertyPath: m_LocalPosition.y
      value: 0
      objectReference: {fileID: 0}
    - target: {fileID: 2261112659636754963, guid: e847c4c9805c8634287b1bc2edeffaf5,
        type: 3}
      propertyPath: m_LocalPosition.z
      value: 0
      objectReference: {fileID: 0}
    - target: {fileID: 2261112659636754963, guid: e847c4c9805c8634287b1bc2edeffaf5,
        type: 3}
      propertyPath: m_LocalRotation.w
      value: 1
      objectReference: {fileID: 0}
    - target: {fileID: 2261112659636754963, guid: e847c4c9805c8634287b1bc2edeffaf5,
        type: 3}
      propertyPath: m_LocalRotation.x
      value: 0
      objectReference: {fileID: 0}
    - target: {fileID: 2261112659636754963, guid: e847c4c9805c8634287b1bc2edeffaf5,
        type: 3}
      propertyPath: m_LocalRotation.y
      value: 0
      objectReference: {fileID: 0}
    - target: {fileID: 2261112659636754963, guid: e847c4c9805c8634287b1bc2edeffaf5,
        type: 3}
      propertyPath: m_LocalRotation.z
      value: 0
      objectReference: {fileID: 0}
    - target: {fileID: 2261112659636754963, guid: e847c4c9805c8634287b1bc2edeffaf5,
        type: 3}
      propertyPath: m_LocalEulerAnglesHint.x
      value: 0
      objectReference: {fileID: 0}
    - target: {fileID: 2261112659636754963, guid: e847c4c9805c8634287b1bc2edeffaf5,
        type: 3}
      propertyPath: m_LocalEulerAnglesHint.y
      value: 0
      objectReference: {fileID: 0}
    - target: {fileID: 2261112659636754963, guid: e847c4c9805c8634287b1bc2edeffaf5,
        type: 3}
      propertyPath: m_LocalEulerAnglesHint.z
      value: 0
      objectReference: {fileID: 0}
    - target: {fileID: 3911210822441218727, guid: e847c4c9805c8634287b1bc2edeffaf5,
        type: 3}
      propertyPath: m_Range
      value: 7
      objectReference: {fileID: 0}
    - target: {fileID: 3911210822441218727, guid: e847c4c9805c8634287b1bc2edeffaf5,
        type: 3}
      propertyPath: m_SpotAngle
      value: 69.00453
      objectReference: {fileID: 0}
    - target: {fileID: 6460577794184922217, guid: e847c4c9805c8634287b1bc2edeffaf5,
        type: 3}
      propertyPath: m_Range
      value: 4
      objectReference: {fileID: 0}
    - target: {fileID: 6460577794184922217, guid: e847c4c9805c8634287b1bc2edeffaf5,
        type: 3}
      propertyPath: m_Intensity
      value: 2
      objectReference: {fileID: 0}
    - target: {fileID: 6460577794184922217, guid: e847c4c9805c8634287b1bc2edeffaf5,
        type: 3}
      propertyPath: m_SpotAngle
      value: 69.00453
      objectReference: {fileID: 0}
    m_RemovedComponents: []
  m_SourcePrefab: {fileID: 100100000, guid: e847c4c9805c8634287b1bc2edeffaf5, type: 3}
