%YAML 1.1
%TAG !u! tag:unity3d.com,2011:
--- !u!114 &11400000
MonoBehaviour:
  m_ObjectHideFlags: 0
  m_CorrespondingSourceObject: {fileID: 0}
  m_PrefabInstance: {fileID: 0}
  m_PrefabAsset: {fileID: 0}
  m_GameObject: {fileID: 0}
  m_Enabled: 1
  m_EditorHideFlags: 0
  m_Script: {fileID: 11500000, guid: e89e7d9eb92794547a1ae2b3d0696334, type: 3}
  m_Name: Health - Metadata
  m_EditorClassIdentifier: 
  _resourceKey: Entities/Item/Health
  _metadataComponents:
  - rid: 1120291390833295361
  references:
    version: 2
    RefIds:
    - rid: 1120291390833295361
      type: {class: DynamicEntityMetadata, ns: Game.Core.Entity, asm: Game.Core}
      data:
        _fadeInOnSpawn: 0
        _meshBoundsCenter: {x: 0.00008939393, y: 0.0034805313, z: 0.000082243234}
        _meshBoundsSize: {x: 0.04691115, y: 0.087481916, z: 0.05039923}
