%YAML 1.1
%TAG !u! tag:unity3d.com,2011:
--- !u!114 &11400000
MonoBehaviour:
  m_ObjectHideFlags: 0
  m_CorrespondingSourceObject: {fileID: 0}
  m_PrefabInstance: {fileID: 0}
  m_PrefabAsset: {fileID: 0}
  m_GameObject: {fileID: 0}
  m_Enabled: 1
  m_EditorHideFlags: 0
  m_Script: {fileID: 11500000, guid: e89e7d9eb92794547a1ae2b3d0696334, type: 3}
  m_Name: Revolver - Metadata
  m_EditorClassIdentifier: 
  _resourceKey: Entities/Item/Revolver
  _metadataComponents:
  - rid: 306684048638214144
  references:
    version: 2
    RefIds:
    - rid: 306684048638214144
      type: {class: DynamicEntityMetadata, ns: Game.Core.Entity, asm: Game.Core}
      data:
        _fadeInOnSpawn: 0
        _meshBoundsCenter: {x: -0.00000037439167, y: -0.0020254962, z: 0.017608143}
        _meshBoundsSize: {x: 0.03691943, y: 0.1182365, z: 0.22144867}
