%YAML 1.1
%TAG !u! tag:unity3d.com,2011:
--- !u!1001 &5135855195490319180
PrefabInstance:
  m_ObjectHideFlags: 0
  serializedVersion: 2
  m_Modification:
    m_TransformParent: {fileID: 0}
    m_Modifications:
    - target: {fileID: 2085151261353476125, guid: cdaeabaec4be5504e8fb825616cff303,
        type: 3}
      propertyPath: m_Name
      value: Glass Gun Impact Effect
      objectReference: {fileID: 0}
    - target: {fileID: 3326493374570239227, guid: cdaeabaec4be5504e8fb825616cff303,
        type: 3}
      propertyPath: _audioClips._audioClips.Array.size
      value: 16
      objectReference: {fileID: 0}
    - target: {fileID: 3326493374570239227, guid: cdaeabaec4be5504e8fb825616cff303,
        type: 3}
      propertyPath: _audioClips._audioClips.Array.data[0]
      value: 
      objectReference: {fileID: 8300000, guid: bf7fa1efb5b4f3f448ab6d424eb1eae3, type: 3}
    - target: {fileID: 3326493374570239227, guid: cdaeabaec4be5504e8fb825616cff303,
        type: 3}
      propertyPath: _audioClips._audioClips.Array.data[1]
      value: 
      objectReference: {fileID: 8300000, guid: 4de6ff181a860544bae9b6ff7f06adef, type: 3}
    - target: {fileID: 3326493374570239227, guid: cdaeabaec4be5504e8fb825616cff303,
        type: 3}
      propertyPath: _audioClips._audioClips.Array.data[2]
      value: 
      objectReference: {fileID: 8300000, guid: 757ca4d560d92bc46b3f6f1a6eb84a9c, type: 3}
    - target: {fileID: 3326493374570239227, guid: cdaeabaec4be5504e8fb825616cff303,
        type: 3}
      propertyPath: _audioClips._audioClips.Array.data[3]
      value: 
      objectReference: {fileID: 8300000, guid: 2f1c1e56133b7a34aa474f12026eae94, type: 3}
    - target: {fileID: 3326493374570239227, guid: cdaeabaec4be5504e8fb825616cff303,
        type: 3}
      propertyPath: _audioClips._audioClips.Array.data[4]
      value: 
      objectReference: {fileID: 8300000, guid: 950bd4900f0dfb74a95dac528779125a, type: 3}
    - target: {fileID: 3326493374570239227, guid: cdaeabaec4be5504e8fb825616cff303,
        type: 3}
      propertyPath: _audioClips._audioClips.Array.data[5]
      value: 
      objectReference: {fileID: 8300000, guid: 02386c3b3f636ac4b9df4bee3824d437, type: 3}
    - target: {fileID: 3326493374570239227, guid: cdaeabaec4be5504e8fb825616cff303,
        type: 3}
      propertyPath: _audioClips._audioClips.Array.data[6]
      value: 
      objectReference: {fileID: 8300000, guid: ca2f0cbe329f5bc4189e4102a4fbeb82, type: 3}
    - target: {fileID: 3326493374570239227, guid: cdaeabaec4be5504e8fb825616cff303,
        type: 3}
      propertyPath: _audioClips._audioClips.Array.data[7]
      value: 
      objectReference: {fileID: 8300000, guid: ff7a8743b4885f24fa2bad7605e15baa, type: 3}
    - target: {fileID: 3326493374570239227, guid: cdaeabaec4be5504e8fb825616cff303,
        type: 3}
      propertyPath: _audioClips._audioClips.Array.data[8]
      value: 
      objectReference: {fileID: 8300000, guid: dac866c1660b26f4b984c4ddf2e70dcc, type: 3}
    - target: {fileID: 3326493374570239227, guid: cdaeabaec4be5504e8fb825616cff303,
        type: 3}
      propertyPath: _audioClips._audioClips.Array.data[9]
      value: 
      objectReference: {fileID: 8300000, guid: 7b317e8eb533a19419f8595a46cdd433, type: 3}
    - target: {fileID: 3326493374570239227, guid: cdaeabaec4be5504e8fb825616cff303,
        type: 3}
      propertyPath: _audioClips._audioClips.Array.data[10]
      value: 
      objectReference: {fileID: 8300000, guid: 7aa3aeb8166b70b44a5467d8c3c420c3, type: 3}
    - target: {fileID: 3326493374570239227, guid: cdaeabaec4be5504e8fb825616cff303,
        type: 3}
      propertyPath: _audioClips._audioClips.Array.data[11]
      value: 
      objectReference: {fileID: 8300000, guid: 122123db0caecf5429cae1f5bc75098b, type: 3}
    - target: {fileID: 3326493374570239227, guid: cdaeabaec4be5504e8fb825616cff303,
        type: 3}
      propertyPath: _audioClips._audioClips.Array.data[12]
      value: 
      objectReference: {fileID: 8300000, guid: f4e11bf6d20a01a4e87cb6284ed942b1, type: 3}
    - target: {fileID: 3326493374570239227, guid: cdaeabaec4be5504e8fb825616cff303,
        type: 3}
      propertyPath: _audioClips._audioClips.Array.data[13]
      value: 
      objectReference: {fileID: 8300000, guid: 2e1fcc0b08b5bbb47945fe69f4a8883c, type: 3}
    - target: {fileID: 3326493374570239227, guid: cdaeabaec4be5504e8fb825616cff303,
        type: 3}
      propertyPath: _audioClips._audioClips.Array.data[14]
      value: 
      objectReference: {fileID: 8300000, guid: eddc04e815c86cb42a151ade33f9ca9f, type: 3}
    - target: {fileID: 3326493374570239227, guid: cdaeabaec4be5504e8fb825616cff303,
        type: 3}
      propertyPath: _audioClips._audioClips.Array.data[15]
      value: 
      objectReference: {fileID: 8300000, guid: 75368603c87dd664a8c43473d7912814, type: 3}
    - target: {fileID: 5310486037571301655, guid: cdaeabaec4be5504e8fb825616cff303,
        type: 3}
      propertyPath: InitialModule.startColor.maxColor.a
      value: 0.23529412
      objectReference: {fileID: 0}
    - target: {fileID: 5310486037571301655, guid: cdaeabaec4be5504e8fb825616cff303,
        type: 3}
      propertyPath: InitialModule.startColor.maxColor.b
      value: 0.8962264
      objectReference: {fileID: 0}
    - target: {fileID: 5310486037571301655, guid: cdaeabaec4be5504e8fb825616cff303,
        type: 3}
      propertyPath: InitialModule.startColor.maxColor.g
      value: 0.8962264
      objectReference: {fileID: 0}
    - target: {fileID: 5310486037571301655, guid: cdaeabaec4be5504e8fb825616cff303,
        type: 3}
      propertyPath: InitialModule.startColor.maxColor.r
      value: 0.8962264
      objectReference: {fileID: 0}
    - target: {fileID: 5557134769862522399, guid: cdaeabaec4be5504e8fb825616cff303,
        type: 3}
      propertyPath: m_RootOrder
      value: 0
      objectReference: {fileID: 0}
    - target: {fileID: 5557134769862522399, guid: cdaeabaec4be5504e8fb825616cff303,
        type: 3}
      propertyPath: m_LocalPosition.x
      value: 0
      objectReference: {fileID: 0}
    - target: {fileID: 5557134769862522399, guid: cdaeabaec4be5504e8fb825616cff303,
        type: 3}
      propertyPath: m_LocalPosition.y
      value: 0
      objectReference: {fileID: 0}
    - target: {fileID: 5557134769862522399, guid: cdaeabaec4be5504e8fb825616cff303,
        type: 3}
      propertyPath: m_LocalPosition.z
      value: 0
      objectReference: {fileID: 0}
    - target: {fileID: 5557134769862522399, guid: cdaeabaec4be5504e8fb825616cff303,
        type: 3}
      propertyPath: m_LocalRotation.w
      value: 1
      objectReference: {fileID: 0}
    - target: {fileID: 5557134769862522399, guid: cdaeabaec4be5504e8fb825616cff303,
        type: 3}
      propertyPath: m_LocalRotation.x
      value: 0
      objectReference: {fileID: 0}
    - target: {fileID: 5557134769862522399, guid: cdaeabaec4be5504e8fb825616cff303,
        type: 3}
      propertyPath: m_LocalRotation.y
      value: 0
      objectReference: {fileID: 0}
    - target: {fileID: 5557134769862522399, guid: cdaeabaec4be5504e8fb825616cff303,
        type: 3}
      propertyPath: m_LocalRotation.z
      value: 0
      objectReference: {fileID: 0}
    - target: {fileID: 5557134769862522399, guid: cdaeabaec4be5504e8fb825616cff303,
        type: 3}
      propertyPath: m_LocalEulerAnglesHint.x
      value: 0
      objectReference: {fileID: 0}
    - target: {fileID: 5557134769862522399, guid: cdaeabaec4be5504e8fb825616cff303,
        type: 3}
      propertyPath: m_LocalEulerAnglesHint.y
      value: 0
      objectReference: {fileID: 0}
    - target: {fileID: 5557134769862522399, guid: cdaeabaec4be5504e8fb825616cff303,
        type: 3}
      propertyPath: m_LocalEulerAnglesHint.z
      value: 0
      objectReference: {fileID: 0}
    m_RemovedComponents: []
  m_SourcePrefab: {fileID: 100100000, guid: cdaeabaec4be5504e8fb825616cff303, type: 3}
