%YAML 1.1
%TAG !u! tag:unity3d.com,2011:
--- !u!114 &11400000
MonoBehaviour:
  m_ObjectHideFlags: 0
  m_CorrespondingSourceObject: {fileID: 0}
  m_PrefabInstance: {fileID: 0}
  m_PrefabAsset: {fileID: 0}
  m_GameObject: {fileID: 0}
  m_Enabled: 1
  m_EditorHideFlags: 0
  m_Script: {fileID: 11500000, guid: 75b754fe5e2a62c4ab779a0df4ac64ed, type: 3}
  m_Name: Home
  m_EditorClassIdentifier: 
  _id: aef1467a-d80a-4b7c-a46f-454bbb459909
  _sceneBuildIndex: 1
  _description: The home scene the player loads into on start and death
  _spaceDataComponents:
  - rid: 1952561826040119314
  references:
    version: 2
    RefIds:
    - rid: 1952561826040119314
      type: {class: PlayerSpawnDataComponent, ns: Game.Player, asm: Game}
      data:
        _position: {x: 0, y: 0, z: -3.5}
        _rotation: {x: 0, y: 0, z: 0, w: 1}
