%YAML 1.1
%TAG !u! tag:unity3d.com,2011:
--- !u!1001 &6501685402166217709
PrefabInstance:
  m_ObjectHideFlags: 0
  serializedVersion: 2
  m_Modification:
    m_TransformParent: {fileID: 0}
    m_Modifications:
    - target: {fileID: 2059318746692149983, guid: ad45d2f0b0a6afa458c6eae066b84d13,
        type: 3}
      propertyPath: m_Range
      value: 5
      objectReference: {fileID: 0}
    - target: {fileID: 8635705277444937722, guid: ad45d2f0b0a6afa458c6eae066b84d13,
        type: 3}
      propertyPath: m_RootOrder
      value: 0
      objectReference: {fileID: 0}
    - target: {fileID: 8635705277444937722, guid: ad45d2f0b0a6afa458c6eae066b84d13,
        type: 3}
      propertyPath: m_LocalPosition.x
      value: 0
      objectReference: {fileID: 0}
    - target: {fileID: 8635705277444937722, guid: ad45d2f0b0a6afa458c6eae066b84d13,
        type: 3}
      propertyPath: m_LocalPosition.y
      value: 0
      objectReference: {fileID: 0}
    - target: {fileID: 8635705277444937722, guid: ad45d2f0b0a6afa458c6eae066b84d13,
        type: 3}
      propertyPath: m_LocalPosition.z
      value: 0
      objectReference: {fileID: 0}
    - target: {fileID: 8635705277444937722, guid: ad45d2f0b0a6afa458c6eae066b84d13,
        type: 3}
      propertyPath: m_LocalRotation.w
      value: 1
      objectReference: {fileID: 0}
    - target: {fileID: 8635705277444937722, guid: ad45d2f0b0a6afa458c6eae066b84d13,
        type: 3}
      propertyPath: m_LocalRotation.x
      value: 0
      objectReference: {fileID: 0}
    - target: {fileID: 8635705277444937722, guid: ad45d2f0b0a6afa458c6eae066b84d13,
        type: 3}
      propertyPath: m_LocalRotation.y
      value: 0
      objectReference: {fileID: 0}
    - target: {fileID: 8635705277444937722, guid: ad45d2f0b0a6afa458c6eae066b84d13,
        type: 3}
      propertyPath: m_LocalRotation.z
      value: 0
      objectReference: {fileID: 0}
    - target: {fileID: 8635705277444937722, guid: ad45d2f0b0a6afa458c6eae066b84d13,
        type: 3}
      propertyPath: m_LocalEulerAnglesHint.x
      value: 0
      objectReference: {fileID: 0}
    - target: {fileID: 8635705277444937722, guid: ad45d2f0b0a6afa458c6eae066b84d13,
        type: 3}
      propertyPath: m_LocalEulerAnglesHint.y
      value: 0
      objectReference: {fileID: 0}
    - target: {fileID: 8635705277444937722, guid: ad45d2f0b0a6afa458c6eae066b84d13,
        type: 3}
      propertyPath: m_LocalEulerAnglesHint.z
      value: 0
      objectReference: {fileID: 0}
    - target: {fileID: 8976765454670499136, guid: ad45d2f0b0a6afa458c6eae066b84d13,
        type: 3}
      propertyPath: m_Name
      value: Haunted Lamp_hanging_fluorescent Variant
      objectReference: {fileID: 0}
    m_RemovedComponents: []
  m_SourcePrefab: {fileID: 100100000, guid: ad45d2f0b0a6afa458c6eae066b84d13, type: 3}
