%YAML 1.1
%TAG !u! tag:unity3d.com,2011:
--- !u!1001 &2408967672323313642
PrefabInstance:
  m_ObjectHideFlags: 0
  serializedVersion: 2
  m_Modification:
    m_TransformParent: {fileID: 0}
    m_Modifications:
    - target: {fileID: 1049916986, guid: 5c461b2ebe068f8488a879a2d8547f50, type: 3}
      propertyPath: m_Range
      value: 5
      objectReference: {fileID: 0}
    - target: {fileID: 6919723531598371237, guid: 5c461b2ebe068f8488a879a2d8547f50,
        type: 3}
      propertyPath: m_Name
      value: Lamp_hanging_fluorescent Variant
      objectReference: {fileID: 0}
    - target: {fileID: 7731584687988359967, guid: 5c461b2ebe068f8488a879a2d8547f50,
        type: 3}
      propertyPath: m_RootOrder
      value: 0
      objectReference: {fileID: 0}
    - target: {fileID: 7731584687988359967, guid: 5c461b2ebe068f8488a879a2d8547f50,
        type: 3}
      propertyPath: m_LocalPosition.x
      value: 0
      objectReference: {fileID: 0}
    - target: {fileID: 7731584687988359967, guid: 5c461b2ebe068f8488a879a2d8547f50,
        type: 3}
      propertyPath: m_LocalPosition.y
      value: 0
      objectReference: {fileID: 0}
    - target: {fileID: 7731584687988359967, guid: 5c461b2ebe068f8488a879a2d8547f50,
        type: 3}
      propertyPath: m_LocalPosition.z
      value: 0
      objectReference: {fileID: 0}
    - target: {fileID: 7731584687988359967, guid: 5c461b2ebe068f8488a879a2d8547f50,
        type: 3}
      propertyPath: m_LocalRotation.w
      value: 1
      objectReference: {fileID: 0}
    - target: {fileID: 7731584687988359967, guid: 5c461b2ebe068f8488a879a2d8547f50,
        type: 3}
      propertyPath: m_LocalRotation.x
      value: 0
      objectReference: {fileID: 0}
    - target: {fileID: 7731584687988359967, guid: 5c461b2ebe068f8488a879a2d8547f50,
        type: 3}
      propertyPath: m_LocalRotation.y
      value: 0
      objectReference: {fileID: 0}
    - target: {fileID: 7731584687988359967, guid: 5c461b2ebe068f8488a879a2d8547f50,
        type: 3}
      propertyPath: m_LocalRotation.z
      value: 0
      objectReference: {fileID: 0}
    - target: {fileID: 7731584687988359967, guid: 5c461b2ebe068f8488a879a2d8547f50,
        type: 3}
      propertyPath: m_LocalEulerAnglesHint.x
      value: 0
      objectReference: {fileID: 0}
    - target: {fileID: 7731584687988359967, guid: 5c461b2ebe068f8488a879a2d8547f50,
        type: 3}
      propertyPath: m_LocalEulerAnglesHint.y
      value: 0
      objectReference: {fileID: 0}
    - target: {fileID: 7731584687988359967, guid: 5c461b2ebe068f8488a879a2d8547f50,
        type: 3}
      propertyPath: m_LocalEulerAnglesHint.z
      value: 0
      objectReference: {fileID: 0}
    m_RemovedComponents: []
  m_SourcePrefab: {fileID: 100100000, guid: 5c461b2ebe068f8488a879a2d8547f50, type: 3}
