%YAML 1.1
%TAG !u! tag:unity3d.com,2011:
--- !u!78 &1
TagManager:
  serializedVersion: 2
  tags: []
  layers:
  - Default
  - TransparentFX
  - Ignore Raycast
  - Portal Entity Detector
  - Water
  - UI
  - Interactable
  - Portal
  - Door
  - Player
  - Player Blocker
  - Enemy
  - Player Hand
  - Player Held Item
  - Player Item Holster
  - Enemy Hitbox
  - 
  - 
  - 
  - 
  - 
  - 
  - 
  - 
  - 
  - 
  - Space Renderer 6
  - Space Renderer 5
  - Space Renderer 4
  - Space Renderer 3
  - Space Renderer 2
  - Space Renderer 1
  m_SortingLayers:
  - name: Default
    uniqueID: 0
    locked: 0
