%YAML 1.1
%TAG !u! tag:unity3d.com,2011:
--- !u!1 &6550865953207551277
GameObject:
  m_ObjectHideFlags: 0
  m_CorrespondingSourceObject: {fileID: 0}
  m_PrefabInstance: {fileID: 0}
  m_PrefabAsset: {fileID: 0}
  serializedVersion: 6
  m_Component:
  - component: {fileID: 8685233125857312840}
  m_Layer: 0
  m_Name: Basement Key Preview Model
  m_TagString: Untagged
  m_Icon: {fileID: 0}
  m_NavMeshLayer: 0
  m_StaticEditorFlags: 0
  m_IsActive: 1
--- !u!4 &8685233125857312840
Transform:
  m_ObjectHideFlags: 0
  m_CorrespondingSourceObject: {fileID: 0}
  m_PrefabInstance: {fileID: 0}
  m_PrefabAsset: {fileID: 0}
  m_GameObject: {fileID: 6550865953207551277}
  m_LocalRotation: {x: 0, y: 0, z: 0, w: 1}
  m_LocalPosition: {x: 0, y: 0, z: 0}
  m_LocalScale: {x: 1, y: 1, z: 1}
  m_ConstrainProportionsScale: 0
  m_Children:
  - {fileID: 1434227213708009001}
  m_Father: {fileID: 0}
  m_RootOrder: 0
  m_LocalEulerAnglesHint: {x: 0, y: 0, z: 0}
--- !u!1001 &307491570270126602
PrefabInstance:
  m_ObjectHideFlags: 0
  serializedVersion: 2
  m_Modification:
    m_TransformParent: {fileID: 8685233125857312840}
    m_Modifications:
    - target: {fileID: 1703218249914866723, guid: dcdfb3165f5d54b458c66af67af1c5c3,
        type: 3}
      propertyPath: m_RootOrder
      value: 0
      objectReference: {fileID: 0}
    - target: {fileID: 1703218249914866723, guid: dcdfb3165f5d54b458c66af67af1c5c3,
        type: 3}
      propertyPath: m_LocalScale.x
      value: 0.15
      objectReference: {fileID: 0}
    - target: {fileID: 1703218249914866723, guid: dcdfb3165f5d54b458c66af67af1c5c3,
        type: 3}
      propertyPath: m_LocalScale.y
      value: 0.15
      objectReference: {fileID: 0}
    - target: {fileID: 1703218249914866723, guid: dcdfb3165f5d54b458c66af67af1c5c3,
        type: 3}
      propertyPath: m_LocalScale.z
      value: 0.15
      objectReference: {fileID: 0}
    - target: {fileID: 1703218249914866723, guid: dcdfb3165f5d54b458c66af67af1c5c3,
        type: 3}
      propertyPath: m_LocalPosition.x
      value: 0
      objectReference: {fileID: 0}
    - target: {fileID: 1703218249914866723, guid: dcdfb3165f5d54b458c66af67af1c5c3,
        type: 3}
      propertyPath: m_LocalPosition.y
      value: 0
      objectReference: {fileID: 0}
    - target: {fileID: 1703218249914866723, guid: dcdfb3165f5d54b458c66af67af1c5c3,
        type: 3}
      propertyPath: m_LocalPosition.z
      value: 0
      objectReference: {fileID: 0}
    - target: {fileID: 1703218249914866723, guid: dcdfb3165f5d54b458c66af67af1c5c3,
        type: 3}
      propertyPath: m_LocalRotation.w
      value: 0.7071068
      objectReference: {fileID: 0}
    - target: {fileID: 1703218249914866723, guid: dcdfb3165f5d54b458c66af67af1c5c3,
        type: 3}
      propertyPath: m_LocalRotation.x
      value: 0
      objectReference: {fileID: 0}
    - target: {fileID: 1703218249914866723, guid: dcdfb3165f5d54b458c66af67af1c5c3,
        type: 3}
      propertyPath: m_LocalRotation.y
      value: -0.7071068
      objectReference: {fileID: 0}
    - target: {fileID: 1703218249914866723, guid: dcdfb3165f5d54b458c66af67af1c5c3,
        type: 3}
      propertyPath: m_LocalRotation.z
      value: 0
      objectReference: {fileID: 0}
    - target: {fileID: 1703218249914866723, guid: dcdfb3165f5d54b458c66af67af1c5c3,
        type: 3}
      propertyPath: m_LocalEulerAnglesHint.x
      value: 0
      objectReference: {fileID: 0}
    - target: {fileID: 1703218249914866723, guid: dcdfb3165f5d54b458c66af67af1c5c3,
        type: 3}
      propertyPath: m_LocalEulerAnglesHint.y
      value: -90
      objectReference: {fileID: 0}
    - target: {fileID: 1703218249914866723, guid: dcdfb3165f5d54b458c66af67af1c5c3,
        type: 3}
      propertyPath: m_LocalEulerAnglesHint.z
      value: 0
      objectReference: {fileID: 0}
    - target: {fileID: 4124397709746833393, guid: dcdfb3165f5d54b458c66af67af1c5c3,
        type: 3}
      propertyPath: m_Name
      value: Basement Key Model
      objectReference: {fileID: 0}
    m_RemovedComponents: []
  m_SourcePrefab: {fileID: 100100000, guid: dcdfb3165f5d54b458c66af67af1c5c3, type: 3}
--- !u!4 &1434227213708009001 stripped
Transform:
  m_CorrespondingSourceObject: {fileID: 1703218249914866723, guid: dcdfb3165f5d54b458c66af67af1c5c3,
    type: 3}
  m_PrefabInstance: {fileID: 307491570270126602}
  m_PrefabAsset: {fileID: 0}
