%YAML 1.1
%TAG !u! tag:unity3d.com,2011:
--- !u!114 &11400000
MonoBehaviour:
  m_ObjectHideFlags: 0
  m_CorrespondingSourceObject: {fileID: 0}
  m_PrefabInstance: {fileID: 0}
  m_PrefabAsset: {fileID: 0}
  m_GameObject: {fileID: 0}
  m_Enabled: 1
  m_EditorHideFlags: 0
  m_Script: {fileID: 11500000, guid: f979e15e487fc204d848b93d0587a24c, type: 3}
  m_Name: Basement Key Definition
  m_EditorClassIdentifier: 
  _id: a135122c-59d3-4953-a504-0772666971af
  _name: basement_key
  _inventorySpriteIconAddress: Item/Basement_Key/Preview_Image
  _inventoryPreviewModelAddress: Item/Basement_Key/Preview_Model
  _playerPickupEffectAddress: Effects/Item/Pickup
  _playerStashEffectAddress: Effects/Item/Pickup
  _equiptableAddress: Item/Basement_Key/Equiptable
  _itemEntityAddress: Entities/Item/Basement Key
  _unlockModelAddress: Item/Basement_Key/Unlock_Model
