%YAML 1.1
%TAG !u! tag:unity3d.com,2011:
--- !u!1001 &6413862777679669674
PrefabInstance:
  m_ObjectHideFlags: 0
  serializedVersion: 2
  m_Modification:
    m_TransformParent: {fileID: 0}
    m_Modifications:
    - target: {fileID: 7311082184227457107, guid: 50a6a33431c49de47af903186e5e6ce0,
        type: 3}
      propertyPath: m_Name
      value: Lamp_wall_fluorescent Variant
      objectReference: {fileID: 0}
    - target: {fileID: 7943784792751919849, guid: 50a6a33431c49de47af903186e5e6ce0,
        type: 3}
      propertyPath: m_RootOrder
      value: 0
      objectReference: {fileID: 0}
    - target: {fileID: 7943784792751919849, guid: 50a6a33431c49de47af903186e5e6ce0,
        type: 3}
      propertyPath: m_LocalPosition.x
      value: 0
      objectReference: {fileID: 0}
    - target: {fileID: 7943784792751919849, guid: 50a6a33431c49de47af903186e5e6ce0,
        type: 3}
      propertyPath: m_LocalPosition.y
      value: 0
      objectReference: {fileID: 0}
    - target: {fileID: 7943784792751919849, guid: 50a6a33431c49de47af903186e5e6ce0,
        type: 3}
      propertyPath: m_LocalPosition.z
      value: 0
      objectReference: {fileID: 0}
    - target: {fileID: 7943784792751919849, guid: 50a6a33431c49de47af903186e5e6ce0,
        type: 3}
      propertyPath: m_LocalRotation.w
      value: 1
      objectReference: {fileID: 0}
    - target: {fileID: 7943784792751919849, guid: 50a6a33431c49de47af903186e5e6ce0,
        type: 3}
      propertyPath: m_LocalRotation.x
      value: 0
      objectReference: {fileID: 0}
    - target: {fileID: 7943784792751919849, guid: 50a6a33431c49de47af903186e5e6ce0,
        type: 3}
      propertyPath: m_LocalRotation.y
      value: 0
      objectReference: {fileID: 0}
    - target: {fileID: 7943784792751919849, guid: 50a6a33431c49de47af903186e5e6ce0,
        type: 3}
      propertyPath: m_LocalRotation.z
      value: 0
      objectReference: {fileID: 0}
    - target: {fileID: 7943784792751919849, guid: 50a6a33431c49de47af903186e5e6ce0,
        type: 3}
      propertyPath: m_LocalEulerAnglesHint.x
      value: 0
      objectReference: {fileID: 0}
    - target: {fileID: 7943784792751919849, guid: 50a6a33431c49de47af903186e5e6ce0,
        type: 3}
      propertyPath: m_LocalEulerAnglesHint.y
      value: 0
      objectReference: {fileID: 0}
    - target: {fileID: 7943784792751919849, guid: 50a6a33431c49de47af903186e5e6ce0,
        type: 3}
      propertyPath: m_LocalEulerAnglesHint.z
      value: 0
      objectReference: {fileID: 0}
    m_RemovedComponents:
    - {fileID: 8717437846873562010, guid: 50a6a33431c49de47af903186e5e6ce0, type: 3}
  m_SourcePrefab: {fileID: 100100000, guid: 50a6a33431c49de47af903186e5e6ce0, type: 3}
--- !u!4 &6413862778040916280 stripped
Transform:
  m_CorrespondingSourceObject: {fileID: 1049161874, guid: 50a6a33431c49de47af903186e5e6ce0,
    type: 3}
  m_PrefabInstance: {fileID: 6413862777679669674}
  m_PrefabAsset: {fileID: 0}
--- !u!1 &6413862778040916283 stripped
GameObject:
  m_CorrespondingSourceObject: {fileID: 1049161873, guid: 50a6a33431c49de47af903186e5e6ce0,
    type: 3}
  m_PrefabInstance: {fileID: 6413862777679669674}
  m_PrefabAsset: {fileID: 0}
--- !u!114 &2608445923458003449
MonoBehaviour:
  m_ObjectHideFlags: 0
  m_CorrespondingSourceObject: {fileID: 0}
  m_PrefabInstance: {fileID: 0}
  m_PrefabAsset: {fileID: 0}
  m_GameObject: {fileID: 6413862778040916283}
  m_Enabled: 1
  m_EditorHideFlags: 0
  m_Script: {fileID: 11500000, guid: 13f8e373f76e917408676eedf07c9095, type: 3}
  m_Name: 
  m_EditorClassIdentifier: 
  _isLightDynamic: 0
  _defaultLightEffect:
    rid: 0
  _conditionalEffects:
  - _condition:
      rid: 1
    _lightEffect:
      rid: 2
  - _condition:
      rid: 3
    _lightEffect:
      rid: 4
  references:
    version: 2
    RefIds:
    - rid: 0
      type: {class: LightOnEffect, ns: Game.Core.Render.Lighting, asm: Game.Core}
    - rid: 1
      type: {class: FloatGreaterThan, ns: Game.Core.Conditional, asm: Game.Core}
      data:
        _floatLeftSide:
          _useInline: 0
          _inlineValue: 0
          _variable: {fileID: 11400000, guid: 41454e7569b17354f84a92d443f2d263, type: 2}
        _floatRightSide:
          _useInline: 1
          _inlineValue: 70
          _variable: {fileID: 0}
    - rid: 2
      type: {class: LightOffEffect, ns: Game.Core.Render.Lighting, asm: Game.Core}
    - rid: 3
      type: {class: FloatGreaterThan, ns: Game.Core.Conditional, asm: Game.Core}
      data:
        _floatLeftSide:
          _useInline: 0
          _inlineValue: 0
          _variable: {fileID: 11400000, guid: 41454e7569b17354f84a92d443f2d263, type: 2}
        _floatRightSide:
          _useInline: 1
          _inlineValue: 30
          _variable: {fileID: 0}
    - rid: 4
      type: {class: LightEffectSequence, ns: Game.Core.Render.Lighting, asm: Game.Core}
      data:
        _effects:
        - _lightEffect:
            rid: 5
          _minDurationMillis:
            _useInline: 1
            _inlineValue: 1500
            _variable: {fileID: 0}
          _maxDurationMillis:
            _useInline: 1
            _inlineValue: 3500
            _variable: {fileID: 0}
        - _lightEffect:
            rid: 6
          _minDurationMillis:
            _useInline: 1
            _inlineValue: 500
            _variable: {fileID: 0}
          _maxDurationMillis:
            _useInline: 1
            _inlineValue: 800
            _variable: {fileID: 0}
        - _lightEffect:
            rid: 0
          _minDurationMillis:
            _useInline: 1
            _inlineValue: 1000
            _variable: {fileID: 0}
          _maxDurationMillis:
            _useInline: 1
            _inlineValue: 2000
            _variable: {fileID: 0}
        - _lightEffect:
            rid: 7
          _minDurationMillis:
            _useInline: 1
            _inlineValue: 600
            _variable: {fileID: 0}
          _maxDurationMillis:
            _useInline: 1
            _inlineValue: 1500
            _variable: {fileID: 0}
    - rid: 5
      type: {class: LightOffEffect, ns: Game.Core.Render.Lighting, asm: Game.Core}
    - rid: 6
      type: {class: LightFlickerEffect, ns: Game.Core.Render.Lighting, asm: Game.Core}
      data:
        _minIntensity:
          _useInline: 1
          _inlineValue: 0.05
          _variable: {fileID: 0}
        _maxIntensity:
          _useInline: 1
          _inlineValue: 1.4
          _variable: {fileID: 0}
        _smoothing:
          _useInline: 1
          _inlineValue: 5
          _variable: {fileID: 0}
    - rid: 7
      type: {class: LightFlickerEffect, ns: Game.Core.Render.Lighting, asm: Game.Core}
      data:
        _minIntensity:
          _useInline: 1
          _inlineValue: 0.7
          _variable: {fileID: 0}
        _maxIntensity:
          _useInline: 1
          _inlineValue: 1.4
          _variable: {fileID: 0}
        _smoothing:
          _useInline: 1
          _inlineValue: 3
          _variable: {fileID: 0}
--- !u!1 &7719889620791216046 stripped
GameObject:
  m_CorrespondingSourceObject: {fileID: 3611905058356997636, guid: 50a6a33431c49de47af903186e5e6ce0,
    type: 3}
  m_PrefabInstance: {fileID: 6413862777679669674}
  m_PrefabAsset: {fileID: 0}
--- !u!114 &580826094988880439
MonoBehaviour:
  m_ObjectHideFlags: 0
  m_CorrespondingSourceObject: {fileID: 0}
  m_PrefabInstance: {fileID: 0}
  m_PrefabAsset: {fileID: 0}
  m_GameObject: {fileID: 7719889620791216046}
  m_Enabled: 1
  m_EditorHideFlags: 0
  m_Script: {fileID: 11500000, guid: 43b6579024f5cf94680dbf0fd7786289, type: 3}
  m_Name: 
  m_EditorClassIdentifier: 
  _lightObj: {fileID: 6413862778040916280}
  _lightOffMaterial: {fileID: 2100000, guid: 014f6ff09339fe64588a08135e3fabf3, type: 2}
