%YAML 1.1
%TAG !u! tag:unity3d.com,2011:
--- !u!114 &11400000
MonoBehaviour:
  m_ObjectHideFlags: 0
  m_CorrespondingSourceObject: {fileID: 0}
  m_PrefabInstance: {fileID: 0}
  m_PrefabAsset: {fileID: 0}
  m_GameObject: {fileID: 0}
  m_Enabled: 1
  m_EditorHideFlags: 0
  m_Script: {fileID: 11500000, guid: a91e2363f15f7724d91ff98a56a30a95, type: 3}
  m_Name: Player Health
  m_EditorClassIdentifier: 
  _id: f7d8aaad-b254-465f-a142-cbc3d8e5a88b
  _isConstant: 0
  _triggerEvents: 1
  _value: 3
