%YAML 1.1
%TAG !u! tag:unity3d.com,2011:
--- !u!1001 &9189560621007625348
PrefabInstance:
  m_ObjectHideFlags: 0
  serializedVersion: 2
  m_Modification:
    m_TransformParent: {fileID: 0}
    m_Modifications:
    - target: {fileID: 2733053400724727726, guid: 464c190e05b8f904d8e943cb252fd354,
        type: 3}
      propertyPath: m_RootOrder
      value: 0
      objectReference: {fileID: 0}
    - target: {fileID: 2733053400724727726, guid: 464c190e05b8f904d8e943cb252fd354,
        type: 3}
      propertyPath: m_LocalPosition.x
      value: 0
      objectReference: {fileID: 0}
    - target: {fileID: 2733053400724727726, guid: 464c190e05b8f904d8e943cb252fd354,
        type: 3}
      propertyPath: m_LocalPosition.y
      value: 0
      objectReference: {fileID: 0}
    - target: {fileID: 2733053400724727726, guid: 464c190e05b8f904d8e943cb252fd354,
        type: 3}
      propertyPath: m_LocalPosition.z
      value: 0
      objectReference: {fileID: 0}
    - target: {fileID: 2733053400724727726, guid: 464c190e05b8f904d8e943cb252fd354,
        type: 3}
      propertyPath: m_LocalRotation.w
      value: 1
      objectReference: {fileID: 0}
    - target: {fileID: 2733053400724727726, guid: 464c190e05b8f904d8e943cb252fd354,
        type: 3}
      propertyPath: m_LocalRotation.x
      value: 0
      objectReference: {fileID: 0}
    - target: {fileID: 2733053400724727726, guid: 464c190e05b8f904d8e943cb252fd354,
        type: 3}
      propertyPath: m_LocalRotation.y
      value: 0
      objectReference: {fileID: 0}
    - target: {fileID: 2733053400724727726, guid: 464c190e05b8f904d8e943cb252fd354,
        type: 3}
      propertyPath: m_LocalRotation.z
      value: 0
      objectReference: {fileID: 0}
    - target: {fileID: 2733053400724727726, guid: 464c190e05b8f904d8e943cb252fd354,
        type: 3}
      propertyPath: m_LocalEulerAnglesHint.x
      value: 0
      objectReference: {fileID: 0}
    - target: {fileID: 2733053400724727726, guid: 464c190e05b8f904d8e943cb252fd354,
        type: 3}
      propertyPath: m_LocalEulerAnglesHint.y
      value: 0
      objectReference: {fileID: 0}
    - target: {fileID: 2733053400724727726, guid: 464c190e05b8f904d8e943cb252fd354,
        type: 3}
      propertyPath: m_LocalEulerAnglesHint.z
      value: 0
      objectReference: {fileID: 0}
    - target: {fileID: 3361393116793715988, guid: 464c190e05b8f904d8e943cb252fd354,
        type: 3}
      propertyPath: m_Name
      value: Ceiling_Concrete_6x6
      objectReference: {fileID: 0}
    - target: {fileID: 8189804894132879315, guid: 464c190e05b8f904d8e943cb252fd354,
        type: 3}
      propertyPath: m_Materials.Array.data[0]
      value: 
      objectReference: {fileID: 2100000, guid: 7f7d31eee75aefc409f11f3c06cf4044, type: 2}
    m_RemovedComponents: []
  m_SourcePrefab: {fileID: 100100000, guid: 464c190e05b8f904d8e943cb252fd354, type: 3}
