%YAML 1.1
%TAG !u! tag:unity3d.com,2011:
--- !u!1001 &823974070150802540
PrefabInstance:
  m_ObjectHideFlags: 0
  serializedVersion: 2
  m_Modification:
    m_TransformParent: {fileID: 0}
    m_Modifications:
    - target: {fileID: 1889642991832644725, guid: f3cbcb03612985847b580a516459553a,
        type: 3}
      propertyPath: m_Materials.Array.data[0]
      value: 
      objectReference: {fileID: 2100000, guid: 7f7d31eee75aefc409f11f3c06cf4044, type: 2}
    - target: {fileID: 5091250942776811990, guid: f3cbcb03612985847b580a516459553a,
        type: 3}
      propertyPath: m_Name
      value: Ceiling_Concrete_2x3
      objectReference: {fileID: 0}
    - target: {fileID: 8141549467792004037, guid: f3cbcb03612985847b580a516459553a,
        type: 3}
      propertyPath: m_RootOrder
      value: 0
      objectReference: {fileID: 0}
    - target: {fileID: 8141549467792004037, guid: f3cbcb03612985847b580a516459553a,
        type: 3}
      propertyPath: m_LocalPosition.x
      value: 0
      objectReference: {fileID: 0}
    - target: {fileID: 8141549467792004037, guid: f3cbcb03612985847b580a516459553a,
        type: 3}
      propertyPath: m_LocalPosition.y
      value: 0
      objectReference: {fileID: 0}
    - target: {fileID: 8141549467792004037, guid: f3cbcb03612985847b580a516459553a,
        type: 3}
      propertyPath: m_LocalPosition.z
      value: 0
      objectReference: {fileID: 0}
    - target: {fileID: 8141549467792004037, guid: f3cbcb03612985847b580a516459553a,
        type: 3}
      propertyPath: m_LocalRotation.w
      value: 1
      objectReference: {fileID: 0}
    - target: {fileID: 8141549467792004037, guid: f3cbcb03612985847b580a516459553a,
        type: 3}
      propertyPath: m_LocalRotation.x
      value: 0
      objectReference: {fileID: 0}
    - target: {fileID: 8141549467792004037, guid: f3cbcb03612985847b580a516459553a,
        type: 3}
      propertyPath: m_LocalRotation.y
      value: 0
      objectReference: {fileID: 0}
    - target: {fileID: 8141549467792004037, guid: f3cbcb03612985847b580a516459553a,
        type: 3}
      propertyPath: m_LocalRotation.z
      value: 0
      objectReference: {fileID: 0}
    - target: {fileID: 8141549467792004037, guid: f3cbcb03612985847b580a516459553a,
        type: 3}
      propertyPath: m_LocalEulerAnglesHint.x
      value: 0
      objectReference: {fileID: 0}
    - target: {fileID: 8141549467792004037, guid: f3cbcb03612985847b580a516459553a,
        type: 3}
      propertyPath: m_LocalEulerAnglesHint.y
      value: 0
      objectReference: {fileID: 0}
    - target: {fileID: 8141549467792004037, guid: f3cbcb03612985847b580a516459553a,
        type: 3}
      propertyPath: m_LocalEulerAnglesHint.z
      value: 0
      objectReference: {fileID: 0}
    m_RemovedComponents: []
  m_SourcePrefab: {fileID: 100100000, guid: f3cbcb03612985847b580a516459553a, type: 3}
