%YAML 1.1
%TAG !u! tag:unity3d.com,2011:
--- !u!114 &11400000
MonoBehaviour:
  m_ObjectHideFlags: 0
  m_CorrespondingSourceObject: {fileID: 0}
  m_PrefabInstance: {fileID: 0}
  m_PrefabAsset: {fileID: 0}
  m_GameObject: {fileID: 0}
  m_Enabled: 1
  m_EditorHideFlags: 0
  m_Script: {fileID: 11500000, guid: e89e7d9eb92794547a1ae2b3d0696334, type: 3}
  m_Name: Beer - Metadata
  m_EditorClassIdentifier: 
  _resourceKey: Entities/Bottles/Beer
  _metadataComponents:
  - rid: 2767731963080998914
  references:
    version: 2
    RefIds:
    - rid: 2767731963080998914
      type: {class: DynamicEntityMetadata, ns: Game.Core.Entity, asm: Game.Core}
      data:
        _fadeInOnSpawn: 1
        _meshBoundsCenter: {x: 0, y: 0.11527046, z: -0.0000000018626451}
        _meshBoundsSize: {x: 0.058191955, y: 0.23054092, z: 0.058191963}
