%YAML 1.1
%TAG !u! tag:unity3d.com,2011:
--- !u!114 &11400000
MonoBehaviour:
  m_ObjectHideFlags: 0
  m_CorrespondingSourceObject: {fileID: 0}
  m_PrefabInstance: {fileID: 0}
  m_PrefabAsset: {fileID: 0}
  m_GameObject: {fileID: 0}
  m_Enabled: 1
  m_EditorHideFlags: 0
  m_Script: {fileID: 11500000, guid: 75b754fe5e2a62c4ab779a0df4ac64ed, type: 3}
  m_Name: Hallway - Pillar
  m_EditorClassIdentifier: 
  _id: 75a91b85-668e-4017-be94-41feb5dd5560
  _sceneBuildIndex: 10
  _description: A four way hallway with a center pillar
  _spaceDataComponents:
  - rid: 193847833838223361
  - rid: 193847833838223365
  - rid: 193847833838223366
  references:
    version: 2
    RefIds:
    - rid: 193847833838223361
      type: {class: PlayerSpawnDataComponent, ns: Game.Player, asm: Game}
      data:
        _position: {x: 0, y: 0, z: 0}
        _rotation: {x: 0, y: 0, z: 0, w: 1}
    - rid: 193847833838223365
      type: {class: HauntDataComponent, ns: Game.World.Haunt.Data, asm: Game}
      data:
        _passiveHauntRate:
          _useInline: 0
          _inlineValue: 0
          _variable: {fileID: 11400000, guid: a47101efd1d831e40b0014d6a0e3df58, type: 2}
        _minHauntLevelAmbientLight:
          _useInline: 0
          _inlineValue: {r: 0, g: 0, b: 0, a: 0}
          _variable: {fileID: 11400000, guid: e7cfde42b5360654393ba757fcae3242, type: 2}
        _maxHauntLevelAmbientLight:
          _useInline: 0
          _inlineValue: {r: 0, g: 0, b: 0, a: 0}
          _variable: {fileID: 11400000, guid: dab66dfba44b69b4cacb3d63ee4852b6, type: 2}
        _hauntMonsterSpawns:
        - _position: {x: 0, y: 0, z: -3}
          _rotation: {x: 0, y: 0, z: 0, w: 0}
        - _position: {x: 0, y: 0, z: 3}
          _rotation: {x: 0, y: 1, z: 0, w: -0.00000004371139}
        _maxHauntTraps:
          _useInline: 0
          _inlineValue: 0
          _variable: {fileID: 11400000, guid: 7c3bf2cc841adbd43ab4f191c910b076, type: 2}
        _hauntTrapSpawns:
        - _position: {x: -1.93, y: 0, z: 0}
          _rotation: {x: 0, y: 0.8550024, z: 0, w: -0.518624}
        - _position: {x: 2.11, y: 0, z: 0}
          _rotation: {x: 0, y: 0.4219064, z: 0, w: -0.9066394}
        - _position: {x: 0, y: 0, z: 1.94}
          _rotation: {x: 0, y: 0.88587993, z: 0, w: 0.46391457}
        - _position: {x: 0, y: 0, z: -1.91}
          _rotation: {x: 0, y: 0.15134709, z: 0, w: 0.9884807}
    - rid: 193847833838223366
      type: {class: WorldBuilderDataComponent, ns: Game.World.Builder.Data, asm: Game}
      data:
        _worldEntrance:
          _useInline: 1
          _inlineValue: 0
          _variable: {fileID: 0}
        _roomType: 0
        _allowedZones: 0000000001000000
        _maxLinkedSpaces:
          _useInline: 1
          _inlineValue: 3
          _variable: {fileID: 0}
        _dynamicPortals:
        - _portalId: 4601db48-5630-4728-8db0-ed4230f76ea4
          _worldEntrance: 0
          _zoneEntrance: -100
          _allowedDestinationTypes: 
          _portalPosition: {x: 0, y: 1.075, z: 9}
          _portalRotation: {x: -0, y: -0, z: -0, w: 1}
          _portalScale: {x: 1, y: 2.15, z: 1}
        - _portalId: b1cbec67-4606-443f-9535-77682f103ace
          _worldEntrance: 0
          _zoneEntrance: -100
          _allowedDestinationTypes: 
          _portalPosition: {x: 0, y: 1.075, z: -9}
          _portalRotation: {x: -0, y: 1, z: -0, w: 0}
          _portalScale: {x: 1, y: 2.15, z: 1}
        - _portalId: 26afcf81-ec00-412f-937e-3bc1de73a876
          _worldEntrance: 0
          _zoneEntrance: -100
          _allowedDestinationTypes: 
          _portalPosition: {x: -9, y: 1.075, z: 0}
          _portalRotation: {x: -0, y: -0.7071068, z: 0, w: 0.7071068}
          _portalScale: {x: 1.0000002, y: 2.15, z: 1.0000002}
        - _portalId: e2f5294f-4579-499e-aa86-178ee960529c
          _worldEntrance: 0
          _zoneEntrance: -100
          _allowedDestinationTypes: 
          _portalPosition: {x: 9, y: 1.075, z: 0}
          _portalRotation: {x: -0, y: 0.7071068, z: -0, w: 0.7071068}
          _portalScale: {x: 1.0000002, y: 2.15, z: 1.0000002}
