%YAML 1.1
%TAG !u! tag:unity3d.com,2011:
--- !u!1001 &8719805595645176349
PrefabInstance:
  m_ObjectHideFlags: 0
  serializedVersion: 2
  m_Modification:
    m_TransformParent: {fileID: 0}
    m_Modifications:
    - target: {fileID: 2085151261353476125, guid: 1a2bc36263f949a44afe6174d03d6438,
        type: 3}
      propertyPath: m_Name
      value: Concrete Floor Footsteps Land Effect
      objectReference: {fileID: 0}
    - target: {fileID: 5557134769862522399, guid: 1a2bc36263f949a44afe6174d03d6438,
        type: 3}
      propertyPath: m_RootOrder
      value: 0
      objectReference: {fileID: 0}
    - target: {fileID: 5557134769862522399, guid: 1a2bc36263f949a44afe6174d03d6438,
        type: 3}
      propertyPath: m_LocalPosition.x
      value: 0
      objectReference: {fileID: 0}
    - target: {fileID: 5557134769862522399, guid: 1a2bc36263f949a44afe6174d03d6438,
        type: 3}
      propertyPath: m_LocalPosition.y
      value: 0
      objectReference: {fileID: 0}
    - target: {fileID: 5557134769862522399, guid: 1a2bc36263f949a44afe6174d03d6438,
        type: 3}
      propertyPath: m_LocalPosition.z
      value: 0
      objectReference: {fileID: 0}
    - target: {fileID: 5557134769862522399, guid: 1a2bc36263f949a44afe6174d03d6438,
        type: 3}
      propertyPath: m_LocalRotation.w
      value: 1
      objectReference: {fileID: 0}
    - target: {fileID: 5557134769862522399, guid: 1a2bc36263f949a44afe6174d03d6438,
        type: 3}
      propertyPath: m_LocalRotation.x
      value: 0
      objectReference: {fileID: 0}
    - target: {fileID: 5557134769862522399, guid: 1a2bc36263f949a44afe6174d03d6438,
        type: 3}
      propertyPath: m_LocalRotation.y
      value: 0
      objectReference: {fileID: 0}
    - target: {fileID: 5557134769862522399, guid: 1a2bc36263f949a44afe6174d03d6438,
        type: 3}
      propertyPath: m_LocalRotation.z
      value: 0
      objectReference: {fileID: 0}
    - target: {fileID: 5557134769862522399, guid: 1a2bc36263f949a44afe6174d03d6438,
        type: 3}
      propertyPath: m_LocalEulerAnglesHint.x
      value: 0
      objectReference: {fileID: 0}
    - target: {fileID: 5557134769862522399, guid: 1a2bc36263f949a44afe6174d03d6438,
        type: 3}
      propertyPath: m_LocalEulerAnglesHint.y
      value: 0
      objectReference: {fileID: 0}
    - target: {fileID: 5557134769862522399, guid: 1a2bc36263f949a44afe6174d03d6438,
        type: 3}
      propertyPath: m_LocalEulerAnglesHint.z
      value: 0
      objectReference: {fileID: 0}
    - target: {fileID: 8145328748696037376, guid: 1a2bc36263f949a44afe6174d03d6438,
        type: 3}
      propertyPath: _audioClips._audioClips.Array.size
      value: 11
      objectReference: {fileID: 0}
    - target: {fileID: 8145328748696037376, guid: 1a2bc36263f949a44afe6174d03d6438,
        type: 3}
      propertyPath: _audioClips._audioClips.Array.data[0]
      value: 
      objectReference: {fileID: 8300000, guid: 01e53c3f9df5af74e94030f336e5908d, type: 3}
    - target: {fileID: 8145328748696037376, guid: 1a2bc36263f949a44afe6174d03d6438,
        type: 3}
      propertyPath: _audioClips._audioClips.Array.data[1]
      value: 
      objectReference: {fileID: 8300000, guid: 47b43bcb8f276624aa937d7406945c4b, type: 3}
    - target: {fileID: 8145328748696037376, guid: 1a2bc36263f949a44afe6174d03d6438,
        type: 3}
      propertyPath: _audioClips._audioClips.Array.data[2]
      value: 
      objectReference: {fileID: 8300000, guid: 7344d419bbeecb0468a15407736f264e, type: 3}
    - target: {fileID: 8145328748696037376, guid: 1a2bc36263f949a44afe6174d03d6438,
        type: 3}
      propertyPath: _audioClips._audioClips.Array.data[3]
      value: 
      objectReference: {fileID: 8300000, guid: 4910d625f4c9c0243b9fdea92c00cc97, type: 3}
    - target: {fileID: 8145328748696037376, guid: 1a2bc36263f949a44afe6174d03d6438,
        type: 3}
      propertyPath: _audioClips._audioClips.Array.data[4]
      value: 
      objectReference: {fileID: 8300000, guid: fc763e28bd97175428520c8bad8623b0, type: 3}
    - target: {fileID: 8145328748696037376, guid: 1a2bc36263f949a44afe6174d03d6438,
        type: 3}
      propertyPath: _audioClips._audioClips.Array.data[5]
      value: 
      objectReference: {fileID: 8300000, guid: 734656bfa32c1e5418cd6af4acab8cd4, type: 3}
    - target: {fileID: 8145328748696037376, guid: 1a2bc36263f949a44afe6174d03d6438,
        type: 3}
      propertyPath: _audioClips._audioClips.Array.data[6]
      value: 
      objectReference: {fileID: 8300000, guid: 6f7d890335a5c3d459829971ef193d24, type: 3}
    - target: {fileID: 8145328748696037376, guid: 1a2bc36263f949a44afe6174d03d6438,
        type: 3}
      propertyPath: _audioClips._audioClips.Array.data[7]
      value: 
      objectReference: {fileID: 8300000, guid: 9f0649b4454f99342b4c554e4eeffc05, type: 3}
    - target: {fileID: 8145328748696037376, guid: 1a2bc36263f949a44afe6174d03d6438,
        type: 3}
      propertyPath: _audioClips._audioClips.Array.data[8]
      value: 
      objectReference: {fileID: 8300000, guid: 5d585be2cb666ab45b56445211f9efe3, type: 3}
    - target: {fileID: 8145328748696037376, guid: 1a2bc36263f949a44afe6174d03d6438,
        type: 3}
      propertyPath: _audioClips._audioClips.Array.data[9]
      value: 
      objectReference: {fileID: 8300000, guid: a799926109b670146b0d95ca20089f7c, type: 3}
    - target: {fileID: 8145328748696037376, guid: 1a2bc36263f949a44afe6174d03d6438,
        type: 3}
      propertyPath: _audioClips._audioClips.Array.data[10]
      value: 
      objectReference: {fileID: 8300000, guid: 81ebdc2ac0ebfaa4a8ffdfb02aadfef5, type: 3}
    - target: {fileID: 8145328748696037376, guid: 1a2bc36263f949a44afe6174d03d6438,
        type: 3}
      propertyPath: _audioClips._audioClips.Array.data[11]
      value: 
      objectReference: {fileID: 8300000, guid: 7575188c740947a40936256eecfa3c95, type: 3}
    - target: {fileID: 8145328748696037376, guid: 1a2bc36263f949a44afe6174d03d6438,
        type: 3}
      propertyPath: _audioClips._audioClips.Array.data[12]
      value: 
      objectReference: {fileID: 8300000, guid: 80344c66aa1f64f4cb7e487836c575bb, type: 3}
    - target: {fileID: 8145328748696037376, guid: 1a2bc36263f949a44afe6174d03d6438,
        type: 3}
      propertyPath: _audioClips._audioClips.Array.data[13]
      value: 
      objectReference: {fileID: 8300000, guid: 9079b286933796746b97bb354464d1c7, type: 3}
    - target: {fileID: 8145328748696037376, guid: 1a2bc36263f949a44afe6174d03d6438,
        type: 3}
      propertyPath: _audioClips._audioClips.Array.data[14]
      value: 
      objectReference: {fileID: 8300000, guid: 402159807525af344a6b39afca40d308, type: 3}
    - target: {fileID: 8145328748696037376, guid: 1a2bc36263f949a44afe6174d03d6438,
        type: 3}
      propertyPath: _audioClips._audioClips.Array.data[15]
      value: 
      objectReference: {fileID: 8300000, guid: 9d8bcd7044edce642a437fcd0bb472c2, type: 3}
    - target: {fileID: 8145328748696037376, guid: 1a2bc36263f949a44afe6174d03d6438,
        type: 3}
      propertyPath: _audioClips._audioClips.Array.data[16]
      value: 
      objectReference: {fileID: 8300000, guid: 01e37585db1374046b1671ccecff4b2a, type: 3}
    - target: {fileID: 8145328748696037376, guid: 1a2bc36263f949a44afe6174d03d6438,
        type: 3}
      propertyPath: _audioClips._audioClips.Array.data[17]
      value: 
      objectReference: {fileID: 8300000, guid: 182c68edd66d791438fe07962d9b0337, type: 3}
    - target: {fileID: 8145328748696037376, guid: 1a2bc36263f949a44afe6174d03d6438,
        type: 3}
      propertyPath: _audioClips._audioClips.Array.data[18]
      value: 
      objectReference: {fileID: 8300000, guid: 7ee89eeabe5163b4bbbd122cc963f876, type: 3}
    - target: {fileID: 8145328748696037376, guid: 1a2bc36263f949a44afe6174d03d6438,
        type: 3}
      propertyPath: _audioClips._audioClips.Array.data[19]
      value: 
      objectReference: {fileID: 8300000, guid: edec7837311104642b97d78e7a0ec693, type: 3}
    - target: {fileID: 8145328748696037376, guid: 1a2bc36263f949a44afe6174d03d6438,
        type: 3}
      propertyPath: _audioClips._audioClips.Array.data[20]
      value: 
      objectReference: {fileID: 8300000, guid: 9ccf28c00d9bea34187fecb1986242f2, type: 3}
    - target: {fileID: 8145328748696037376, guid: 1a2bc36263f949a44afe6174d03d6438,
        type: 3}
      propertyPath: _audioClips._audioClips.Array.data[21]
      value: 
      objectReference: {fileID: 8300000, guid: 5d17fa02096d0eb4cb1484395e3bf2c4, type: 3}
    m_RemovedComponents: []
  m_SourcePrefab: {fileID: 100100000, guid: 1a2bc36263f949a44afe6174d03d6438, type: 3}
