{
    "m_SGVersion": 3,
    "m_Type": "UnityEditor.ShaderGraph.GraphData",
    "m_ObjectId": "4110b82bf77f4592846a647ee862f847",
    "m_Properties": [
        {
            "m_Id": "0d8713b6960943a5ab619ab5f1826be9"
        },
        {
            "m_Id": "0ef2b90d33104deb801d90b1d65b9044"
        },
        {
            "m_Id": "4841968718e6493690c96524bc0bb8a3"
        },
        {
            "m_Id": "0372eda6e32d4c309e31d6e289d8e0c3"
        },
        {
            "m_Id": "f3a5a9313eec4f3da2f988299dc25026"
        },
        {
            "m_Id": "e136e0c8c16546588ca9029e44a8bde2"
        },
        {
            "m_Id": "5599b6ef5418454987e1dce72742e6f0"
        },
        {
            "m_Id": "455f1e77c8b0403981bbab3bbc0bba66"
        },
        {
            "m_Id": "97ef0a1dd4c64fd4a9ba90583bff3cf6"
        }
    ],
    "m_Keywords": [],
    "m_Dropdowns": [],
    "m_CategoryData": [
        {
            "m_Id": "cc0a2e290cae4beeac31c60f3eda8e97"
        }
    ],
    "m_Nodes": [
        {
            "m_Id": "730b4d6928f74dd1830cd4e9bd94f47c"
        },
        {
            "m_Id": "e8bde906e29c48c6a7592c2e7063b3da"
        },
        {
            "m_Id": "18d7ff8340d246b699c97848d91b1582"
        },
        {
            "m_Id": "32c4cc9dd7b74b7ba64eff9fc1fa4ab7"
        },
        {
            "m_Id": "71c8a0336763464bba827c60476bb43f"
        },
        {
            "m_Id": "7f56a9c4b0a14da4a79e654482297134"
        },
        {
            "m_Id": "e9a73bcc2c11465086e7849945001794"
        },
        {
            "m_Id": "29cb9033af8c46418b784846cd9c582d"
        },
        {
            "m_Id": "d39de7f4d9cd47e0a6c921f67796af95"
        },
        {
            "m_Id": "19b63abb282a4148954d8b42ebdab715"
        },
        {
            "m_Id": "338ebeda204e47cfbf77782b256ecf1e"
        },
        {
            "m_Id": "2eb47d348e15466fbe26ce7fad842008"
        },
        {
            "m_Id": "ce69ce2e32a54aceb342290a53598365"
        },
        {
            "m_Id": "174fbdb1fc3d4ec5aed9af12896058c6"
        },
        {
            "m_Id": "5624b66ba022460c851d7929bb79a0c0"
        },
        {
            "m_Id": "cf1e0670a1bf498b9fce0eda42478c23"
        },
        {
            "m_Id": "66f11bb35d4a4ba5a9160b7968fbf6fe"
        },
        {
            "m_Id": "b5098cdf3b61459ca8187a2ad3c9e11c"
        },
        {
            "m_Id": "c2d41272d71d4aa9a885eb8f140ed942"
        },
        {
            "m_Id": "c1179177c82d4585b7e0f9bf15fc8214"
        },
        {
            "m_Id": "640a99a3cd4e4bc295a553fbc18b107a"
        },
        {
            "m_Id": "457c5e0b577e446da0dd52f02053c8c9"
        },
        {
            "m_Id": "21099ff12e3643f0bf95f0fd275e6aae"
        },
        {
            "m_Id": "619698bfefad4691b1a0425aeb4ae46d"
        },
        {
            "m_Id": "2d2bb183a29a4e27a080e85fd5e59e81"
        },
        {
            "m_Id": "fc4d6a51e5cd421090431fcd48e0cb6d"
        },
        {
            "m_Id": "86b6bbef57e04f579725caefeffa59e6"
        }
    ],
    "m_GroupDatas": [],
    "m_StickyNoteDatas": [],
    "m_Edges": [
        {
            "m_OutputSlot": {
                "m_Node": {
                    "m_Id": "174fbdb1fc3d4ec5aed9af12896058c6"
                },
                "m_SlotId": 0
            },
            "m_InputSlot": {
                "m_Node": {
                    "m_Id": "457c5e0b577e446da0dd52f02053c8c9"
                },
                "m_SlotId": -1331750282
            }
        },
        {
            "m_OutputSlot": {
                "m_Node": {
                    "m_Id": "19b63abb282a4148954d8b42ebdab715"
                },
                "m_SlotId": 0
            },
            "m_InputSlot": {
                "m_Node": {
                    "m_Id": "c1179177c82d4585b7e0f9bf15fc8214"
                },
                "m_SlotId": -328722544
            }
        },
        {
            "m_OutputSlot": {
                "m_Node": {
                    "m_Id": "2d2bb183a29a4e27a080e85fd5e59e81"
                },
                "m_SlotId": 1
            },
            "m_InputSlot": {
                "m_Node": {
                    "m_Id": "21099ff12e3643f0bf95f0fd275e6aae"
                },
                "m_SlotId": 0
            }
        },
        {
            "m_OutputSlot": {
                "m_Node": {
                    "m_Id": "2eb47d348e15466fbe26ce7fad842008"
                },
                "m_SlotId": 0
            },
            "m_InputSlot": {
                "m_Node": {
                    "m_Id": "c1179177c82d4585b7e0f9bf15fc8214"
                },
                "m_SlotId": -857413362
            }
        },
        {
            "m_OutputSlot": {
                "m_Node": {
                    "m_Id": "338ebeda204e47cfbf77782b256ecf1e"
                },
                "m_SlotId": 0
            },
            "m_InputSlot": {
                "m_Node": {
                    "m_Id": "c1179177c82d4585b7e0f9bf15fc8214"
                },
                "m_SlotId": -1331750282
            }
        },
        {
            "m_OutputSlot": {
                "m_Node": {
                    "m_Id": "457c5e0b577e446da0dd52f02053c8c9"
                },
                "m_SlotId": 1
            },
            "m_InputSlot": {
                "m_Node": {
                    "m_Id": "71c8a0336763464bba827c60476bb43f"
                },
                "m_SlotId": 0
            }
        },
        {
            "m_OutputSlot": {
                "m_Node": {
                    "m_Id": "5624b66ba022460c851d7929bb79a0c0"
                },
                "m_SlotId": 0
            },
            "m_InputSlot": {
                "m_Node": {
                    "m_Id": "640a99a3cd4e4bc295a553fbc18b107a"
                },
                "m_SlotId": -1331750282
            }
        },
        {
            "m_OutputSlot": {
                "m_Node": {
                    "m_Id": "640a99a3cd4e4bc295a553fbc18b107a"
                },
                "m_SlotId": 1
            },
            "m_InputSlot": {
                "m_Node": {
                    "m_Id": "66f11bb35d4a4ba5a9160b7968fbf6fe"
                },
                "m_SlotId": 0
            }
        },
        {
            "m_OutputSlot": {
                "m_Node": {
                    "m_Id": "66f11bb35d4a4ba5a9160b7968fbf6fe"
                },
                "m_SlotId": 1
            },
            "m_InputSlot": {
                "m_Node": {
                    "m_Id": "7f56a9c4b0a14da4a79e654482297134"
                },
                "m_SlotId": 0
            }
        },
        {
            "m_OutputSlot": {
                "m_Node": {
                    "m_Id": "66f11bb35d4a4ba5a9160b7968fbf6fe"
                },
                "m_SlotId": 2
            },
            "m_InputSlot": {
                "m_Node": {
                    "m_Id": "d39de7f4d9cd47e0a6c921f67796af95"
                },
                "m_SlotId": 0
            }
        },
        {
            "m_OutputSlot": {
                "m_Node": {
                    "m_Id": "66f11bb35d4a4ba5a9160b7968fbf6fe"
                },
                "m_SlotId": 4
            },
            "m_InputSlot": {
                "m_Node": {
                    "m_Id": "e9a73bcc2c11465086e7849945001794"
                },
                "m_SlotId": 0
            }
        },
        {
            "m_OutputSlot": {
                "m_Node": {
                    "m_Id": "86b6bbef57e04f579725caefeffa59e6"
                },
                "m_SlotId": 0
            },
            "m_InputSlot": {
                "m_Node": {
                    "m_Id": "2d2bb183a29a4e27a080e85fd5e59e81"
                },
                "m_SlotId": -1343654539
            }
        },
        {
            "m_OutputSlot": {
                "m_Node": {
                    "m_Id": "b5098cdf3b61459ca8187a2ad3c9e11c"
                },
                "m_SlotId": 0
            },
            "m_InputSlot": {
                "m_Node": {
                    "m_Id": "457c5e0b577e446da0dd52f02053c8c9"
                },
                "m_SlotId": -857413362
            }
        },
        {
            "m_OutputSlot": {
                "m_Node": {
                    "m_Id": "c1179177c82d4585b7e0f9bf15fc8214"
                },
                "m_SlotId": 1
            },
            "m_InputSlot": {
                "m_Node": {
                    "m_Id": "32c4cc9dd7b74b7ba64eff9fc1fa4ab7"
                },
                "m_SlotId": 0
            }
        },
        {
            "m_OutputSlot": {
                "m_Node": {
                    "m_Id": "c2d41272d71d4aa9a885eb8f140ed942"
                },
                "m_SlotId": 0
            },
            "m_InputSlot": {
                "m_Node": {
                    "m_Id": "640a99a3cd4e4bc295a553fbc18b107a"
                },
                "m_SlotId": -857413362
            }
        },
        {
            "m_OutputSlot": {
                "m_Node": {
                    "m_Id": "ce69ce2e32a54aceb342290a53598365"
                },
                "m_SlotId": 0
            },
            "m_InputSlot": {
                "m_Node": {
                    "m_Id": "457c5e0b577e446da0dd52f02053c8c9"
                },
                "m_SlotId": -328722544
            }
        },
        {
            "m_OutputSlot": {
                "m_Node": {
                    "m_Id": "cf1e0670a1bf498b9fce0eda42478c23"
                },
                "m_SlotId": 0
            },
            "m_InputSlot": {
                "m_Node": {
                    "m_Id": "640a99a3cd4e4bc295a553fbc18b107a"
                },
                "m_SlotId": -328722544
            }
        },
        {
            "m_OutputSlot": {
                "m_Node": {
                    "m_Id": "fc4d6a51e5cd421090431fcd48e0cb6d"
                },
                "m_SlotId": 0
            },
            "m_InputSlot": {
                "m_Node": {
                    "m_Id": "2d2bb183a29a4e27a080e85fd5e59e81"
                },
                "m_SlotId": -1493240477
            }
        }
    ],
    "m_VertexContext": {
        "m_Position": {
            "x": 2382.000244140625,
            "y": 1186.0
        },
        "m_Blocks": [
            {
                "m_Id": "730b4d6928f74dd1830cd4e9bd94f47c"
            },
            {
                "m_Id": "e8bde906e29c48c6a7592c2e7063b3da"
            },
            {
                "m_Id": "18d7ff8340d246b699c97848d91b1582"
            }
        ]
    },
    "m_FragmentContext": {
        "m_Position": {
            "x": 2382.000244140625,
            "y": 1474.666748046875
        },
        "m_Blocks": [
            {
                "m_Id": "32c4cc9dd7b74b7ba64eff9fc1fa4ab7"
            },
            {
                "m_Id": "71c8a0336763464bba827c60476bb43f"
            },
            {
                "m_Id": "7f56a9c4b0a14da4a79e654482297134"
            },
            {
                "m_Id": "e9a73bcc2c11465086e7849945001794"
            },
            {
                "m_Id": "29cb9033af8c46418b784846cd9c582d"
            },
            {
                "m_Id": "d39de7f4d9cd47e0a6c921f67796af95"
            },
            {
                "m_Id": "619698bfefad4691b1a0425aeb4ae46d"
            },
            {
                "m_Id": "21099ff12e3643f0bf95f0fd275e6aae"
            }
        ]
    },
    "m_PreviewData": {
        "serializedMesh": {
            "m_SerializedMesh": "{\"mesh\":{\"instanceID\":0}}",
            "m_Guid": ""
        },
        "preventRotation": false
    },
    "m_Path": "Shader Graphs",
    "m_GraphPrecision": 0,
    "m_PreviewMode": 2,
    "m_OutputNode": {
        "m_Id": ""
    },
    "m_ActiveTargets": [
        {
            "m_Id": "64295f7d26bb4478b8bb4c6ed6079faa"
        }
    ]
}

{
    "m_SGVersion": 0,
    "m_Type": "UnityEditor.ShaderGraph.Texture2DMaterialSlot",
    "m_ObjectId": "017416dd3757431c97c564f0b2841ac9",
    "m_Id": 0,
    "m_DisplayName": "Wear Metallic Map",
    "m_SlotType": 1,
    "m_Hidden": false,
    "m_ShaderOutputName": "Out",
    "m_StageCapability": 3,
    "m_BareResource": false
}

{
    "m_SGVersion": 0,
    "m_Type": "UnityEditor.ShaderGraph.Internal.Texture2DShaderProperty",
    "m_ObjectId": "0372eda6e32d4c309e31d6e289d8e0c3",
    "m_Guid": {
        "m_GuidSerialized": "ca310a02-c5fd-406f-a961-9633a4cee71b"
    },
    "m_Name": "Clean Metallic Map",
    "m_DefaultRefNameVersion": 0,
    "m_RefNameGeneratedByDisplayName": "",
    "m_DefaultReferenceName": "Texture2D_0372eda6e32d4c309e31d6e289d8e0c3",
    "m_OverrideReferenceName": "",
    "m_GeneratePropertyBlock": true,
    "m_UseCustomSlotLabel": false,
    "m_CustomSlotLabel": "",
    "m_Precision": 0,
    "overrideHLSLDeclaration": false,
    "hlslDeclarationOverride": 0,
    "m_Hidden": false,
    "m_Value": {
        "m_SerializedTexture": "{\"texture\":{\"instanceID\":0}}",
        "m_Guid": ""
    },
    "isMainTexture": false,
    "useTilingAndOffset": false,
    "m_Modifiable": true,
    "m_DefaultType": 0
}

{
    "m_SGVersion": 1,
    "m_Type": "UnityEditor.ShaderGraph.Internal.Vector1ShaderProperty",
    "m_ObjectId": "0d8713b6960943a5ab619ab5f1826be9",
    "m_Guid": {
        "m_GuidSerialized": "b9d18a0e-8bf4-45d3-9c0b-a4662439ee33"
    },
    "m_Name": "Wear",
    "m_DefaultRefNameVersion": 0,
    "m_RefNameGeneratedByDisplayName": "",
    "m_DefaultReferenceName": "Vector1_0d8713b6960943a5ab619ab5f1826be9",
    "m_OverrideReferenceName": "GlobalWear",
    "m_GeneratePropertyBlock": false,
    "m_UseCustomSlotLabel": false,
    "m_CustomSlotLabel": "",
    "m_Precision": 0,
    "overrideHLSLDeclaration": false,
    "hlslDeclarationOverride": 0,
    "m_Hidden": false,
    "m_Value": 0.0,
    "m_FloatType": 1,
    "m_RangeValues": {
        "x": 0.0,
        "y": 1.0
    }
}

{
    "m_SGVersion": 0,
    "m_Type": "UnityEditor.ShaderGraph.Vector1MaterialSlot",
    "m_ObjectId": "0eb6a3223155401aa58ee9032816a644",
    "m_Id": 1,
    "m_DisplayName": "R",
    "m_SlotType": 1,
    "m_Hidden": false,
    "m_ShaderOutputName": "R",
    "m_StageCapability": 3,
    "m_Value": 0.0,
    "m_DefaultValue": 0.0,
    "m_Labels": []
}

{
    "m_SGVersion": 0,
    "m_Type": "UnityEditor.ShaderGraph.Internal.Texture2DShaderProperty",
    "m_ObjectId": "0ef2b90d33104deb801d90b1d65b9044",
    "m_Guid": {
        "m_GuidSerialized": "ab4b9b59-edb2-4200-889d-b2e43299c503"
    },
    "m_Name": "Clean Base Map",
    "m_DefaultRefNameVersion": 0,
    "m_RefNameGeneratedByDisplayName": "",
    "m_DefaultReferenceName": "Texture2D_0ef2b90d33104deb801d90b1d65b9044",
    "m_OverrideReferenceName": "",
    "m_GeneratePropertyBlock": true,
    "m_UseCustomSlotLabel": false,
    "m_CustomSlotLabel": "",
    "m_Precision": 0,
    "overrideHLSLDeclaration": false,
    "hlslDeclarationOverride": 0,
    "m_Hidden": false,
    "m_Value": {
        "m_SerializedTexture": "{\"texture\":{\"instanceID\":0}}",
        "m_Guid": ""
    },
    "isMainTexture": false,
    "useTilingAndOffset": false,
    "m_Modifiable": true,
    "m_DefaultType": 0
}

{
    "m_SGVersion": 0,
    "m_Type": "UnityEditor.ShaderGraph.PropertyNode",
    "m_ObjectId": "174fbdb1fc3d4ec5aed9af12896058c6",
    "m_Group": {
        "m_Id": ""
    },
    "m_Name": "Property",
    "m_DrawState": {
        "m_Expanded": true,
        "m_Position": {
            "serializedVersion": "2",
            "x": 1544.0,
            "y": 1514.0,
            "width": 177.0,
            "height": 33.9998779296875
        }
    },
    "m_Slots": [
        {
            "m_Id": "d7165839c4c6486c84b7948d7a006298"
        }
    ],
    "synonyms": [],
    "m_Precision": 0,
    "m_PreviewExpanded": true,
    "m_PreviewMode": 0,
    "m_CustomColors": {
        "m_SerializableColors": []
    },
    "m_Property": {
        "m_Id": "e136e0c8c16546588ca9029e44a8bde2"
    }
}

{
    "m_SGVersion": 0,
    "m_Type": "UnityEditor.ShaderGraph.BlockNode",
    "m_ObjectId": "18d7ff8340d246b699c97848d91b1582",
    "m_Group": {
        "m_Id": ""
    },
    "m_Name": "VertexDescription.Tangent",
    "m_DrawState": {
        "m_Expanded": true,
        "m_Position": {
            "serializedVersion": "2",
            "x": 0.0,
            "y": 0.0,
            "width": 0.0,
            "height": 0.0
        }
    },
    "m_Slots": [
        {
            "m_Id": "38ccac18d99e4f08b0e9c5e53157496e"
        }
    ],
    "synonyms": [],
    "m_Precision": 0,
    "m_PreviewExpanded": true,
    "m_PreviewMode": 0,
    "m_CustomColors": {
        "m_SerializableColors": []
    },
    "m_SerializedDescriptor": "VertexDescription.Tangent"
}

{
    "m_SGVersion": 0,
    "m_Type": "UnityEditor.ShaderGraph.PropertyNode",
    "m_ObjectId": "19b63abb282a4148954d8b42ebdab715",
    "m_Group": {
        "m_Id": ""
    },
    "m_Name": "Property",
    "m_DrawState": {
        "m_Expanded": true,
        "m_Position": {
            "serializedVersion": "2",
            "x": 1525.0,
            "y": 1271.0,
            "width": 168.0,
            "height": 34.0
        }
    },
    "m_Slots": [
        {
            "m_Id": "cddc006f7dda4c9abca5a382a74b0809"
        }
    ],
    "synonyms": [],
    "m_Precision": 0,
    "m_PreviewExpanded": true,
    "m_PreviewMode": 0,
    "m_CustomColors": {
        "m_SerializableColors": []
    },
    "m_Property": {
        "m_Id": "0ef2b90d33104deb801d90b1d65b9044"
    }
}

{
    "m_SGVersion": 0,
    "m_Type": "UnityEditor.ShaderGraph.Vector1MaterialSlot",
    "m_ObjectId": "1a90d06cc2644fc4929f34a15b9c8158",
    "m_Id": 1,
    "m_DisplayName": "Alpha",
    "m_SlotType": 1,
    "m_Hidden": false,
    "m_ShaderOutputName": "Alpha",
    "m_StageCapability": 3,
    "m_Value": 0.0,
    "m_DefaultValue": 0.0,
    "m_Labels": []
}

{
    "m_SGVersion": 0,
    "m_Type": "UnityEditor.ShaderGraph.BlockNode",
    "m_ObjectId": "21099ff12e3643f0bf95f0fd275e6aae",
    "m_Group": {
        "m_Id": ""
    },
    "m_Name": "SurfaceDescription.Alpha",
    "m_DrawState": {
        "m_Expanded": true,
        "m_Position": {
            "serializedVersion": "2",
            "x": 2397.33349609375,
            "y": 1795.33349609375,
            "width": 200.0,
            "height": 42.6666259765625
        }
    },
    "m_Slots": [
        {
            "m_Id": "683dc5cf10984840bdf925dea821c5e0"
        }
    ],
    "synonyms": [],
    "m_Precision": 0,
    "m_PreviewExpanded": true,
    "m_PreviewMode": 0,
    "m_CustomColors": {
        "m_SerializableColors": []
    },
    "m_SerializedDescriptor": "SurfaceDescription.Alpha"
}

{
    "m_SGVersion": 0,
    "m_Type": "UnityEditor.ShaderGraph.BlockNode",
    "m_ObjectId": "29cb9033af8c46418b784846cd9c582d",
    "m_Group": {
        "m_Id": ""
    },
    "m_Name": "SurfaceDescription.Emission",
    "m_DrawState": {
        "m_Expanded": true,
        "m_Position": {
            "serializedVersion": "2",
            "x": 0.0,
            "y": 0.0,
            "width": 0.0,
            "height": 0.0
        }
    },
    "m_Slots": [
        {
            "m_Id": "c7ce17c2695748e98a7d11d48be84497"
        }
    ],
    "synonyms": [],
    "m_Precision": 0,
    "m_PreviewExpanded": true,
    "m_PreviewMode": 0,
    "m_CustomColors": {
        "m_SerializableColors": []
    },
    "m_SerializedDescriptor": "SurfaceDescription.Emission"
}

{
    "m_SGVersion": 0,
    "m_Type": "UnityEditor.ShaderGraph.SubGraphNode",
    "m_ObjectId": "2d2bb183a29a4e27a080e85fd5e59e81",
    "m_Group": {
        "m_Id": ""
    },
    "m_Name": "Entity Portal Clip",
    "m_DrawState": {
        "m_Expanded": true,
        "m_Position": {
            "serializedVersion": "2",
            "x": 1870.666748046875,
            "y": 1848.6668701171875,
            "width": 246.6669921875,
            "height": 303.9996337890625
        }
    },
    "m_Slots": [
        {
            "m_Id": "91abfb9ab4fe4d7b84da188a18623fdd"
        },
        {
            "m_Id": "73af5d8c2b9b4d91ae8680d71388ba25"
        },
        {
            "m_Id": "1a90d06cc2644fc4929f34a15b9c8158"
        }
    ],
    "synonyms": [],
    "m_Precision": 0,
    "m_PreviewExpanded": false,
    "m_PreviewMode": 0,
    "m_CustomColors": {
        "m_SerializableColors": []
    },
    "m_SerializedSubGraph": "{\n    \"subGraph\": {\n        \"fileID\": -5475051401550479605,\n        \"guid\": \"5e78a0a5b2f2419429f640d176181943\",\n        \"type\": 3\n    }\n}",
    "m_PropertyGuids": [
        "4fa95a18-35fe-40a3-b77e-ac2032e45889",
        "aa2a64ce-8cda-492d-bfd6-59abde4bb7e7"
    ],
    "m_PropertyIds": [
        -1493240477,
        -1343654539
    ],
    "m_Dropdowns": [],
    "m_DropdownSelectedEntries": []
}

{
    "m_SGVersion": 0,
    "m_Type": "UnityEditor.ShaderGraph.PropertyNode",
    "m_ObjectId": "2eb47d348e15466fbe26ce7fad842008",
    "m_Group": {
        "m_Id": ""
    },
    "m_Name": "Property",
    "m_DrawState": {
        "m_Expanded": true,
        "m_Position": {
            "serializedVersion": "2",
            "x": 1590.0,
            "y": 1339.0,
            "width": 103.0,
            "height": 34.0
        }
    },
    "m_Slots": [
        {
            "m_Id": "52f2fe52ed2c402aad7a6445be4b619f"
        }
    ],
    "synonyms": [],
    "m_Precision": 0,
    "m_PreviewExpanded": true,
    "m_PreviewMode": 0,
    "m_CustomColors": {
        "m_SerializableColors": []
    },
    "m_Property": {
        "m_Id": "0d8713b6960943a5ab619ab5f1826be9"
    }
}

{
    "m_SGVersion": 0,
    "m_Type": "UnityEditor.ShaderGraph.NormalMaterialSlot",
    "m_ObjectId": "306c4d4f45224f22b7f317168e6c0f93",
    "m_Id": 0,
    "m_DisplayName": "Normal",
    "m_SlotType": 0,
    "m_Hidden": false,
    "m_ShaderOutputName": "Normal",
    "m_StageCapability": 1,
    "m_Value": {
        "x": 0.0,
        "y": 0.0,
        "z": 0.0
    },
    "m_DefaultValue": {
        "x": 0.0,
        "y": 0.0,
        "z": 0.0
    },
    "m_Labels": [],
    "m_Space": 0
}

{
    "m_SGVersion": 0,
    "m_Type": "UnityEditor.Rendering.Universal.ShaderGraph.UniversalLitSubTarget",
    "m_ObjectId": "3211557cba714ff584589555739c05a6",
    "m_WorkflowMode": 1,
    "m_NormalDropOffSpace": 0,
    "m_ClearCoat": false
}

{
    "m_SGVersion": 0,
    "m_Type": "UnityEditor.ShaderGraph.BlockNode",
    "m_ObjectId": "32c4cc9dd7b74b7ba64eff9fc1fa4ab7",
    "m_Group": {
        "m_Id": ""
    },
    "m_Name": "SurfaceDescription.BaseColor",
    "m_DrawState": {
        "m_Expanded": true,
        "m_Position": {
            "serializedVersion": "2",
            "x": 0.0,
            "y": 0.0,
            "width": 0.0,
            "height": 0.0
        }
    },
    "m_Slots": [
        {
            "m_Id": "a417a511c996455484d9f54a122cff5c"
        }
    ],
    "synonyms": [],
    "m_Precision": 0,
    "m_PreviewExpanded": true,
    "m_PreviewMode": 0,
    "m_CustomColors": {
        "m_SerializableColors": []
    },
    "m_SerializedDescriptor": "SurfaceDescription.BaseColor"
}

{
    "m_SGVersion": 0,
    "m_Type": "UnityEditor.ShaderGraph.PropertyNode",
    "m_ObjectId": "338ebeda204e47cfbf77782b256ecf1e",
    "m_Group": {
        "m_Id": ""
    },
    "m_Name": "Property",
    "m_DrawState": {
        "m_Expanded": true,
        "m_Position": {
            "serializedVersion": "2",
            "x": 1527.0,
            "y": 1305.0,
            "width": 166.0,
            "height": 34.0
        }
    },
    "m_Slots": [
        {
            "m_Id": "5fb16774de3648b9a4c27c0e54d7f3de"
        }
    ],
    "synonyms": [],
    "m_Precision": 0,
    "m_PreviewExpanded": true,
    "m_PreviewMode": 0,
    "m_CustomColors": {
        "m_SerializableColors": []
    },
    "m_Property": {
        "m_Id": "f3a5a9313eec4f3da2f988299dc25026"
    }
}

{
    "m_SGVersion": 0,
    "m_Type": "UnityEditor.ShaderGraph.Vector1MaterialSlot",
    "m_ObjectId": "356195c1122e439995ad497244755513",
    "m_Id": 0,
    "m_DisplayName": "Ambient Occlusion",
    "m_SlotType": 0,
    "m_Hidden": false,
    "m_ShaderOutputName": "Occlusion",
    "m_StageCapability": 2,
    "m_Value": 1.0,
    "m_DefaultValue": 1.0,
    "m_Labels": []
}

{
    "m_SGVersion": 0,
    "m_Type": "UnityEditor.ShaderGraph.Texture2DInputMaterialSlot",
    "m_ObjectId": "38ad4f079578437ca374a94a8bae2ed6",
    "m_Id": -328722544,
    "m_DisplayName": "Texture Map A",
    "m_SlotType": 0,
    "m_Hidden": false,
    "m_ShaderOutputName": "_Texture_Map_A",
    "m_StageCapability": 2,
    "m_BareResource": false,
    "m_Texture": {
        "m_SerializedTexture": "{\"texture\":{\"instanceID\":0}}",
        "m_Guid": ""
    },
    "m_DefaultType": 0
}

{
    "m_SGVersion": 0,
    "m_Type": "UnityEditor.ShaderGraph.TangentMaterialSlot",
    "m_ObjectId": "38ccac18d99e4f08b0e9c5e53157496e",
    "m_Id": 0,
    "m_DisplayName": "Tangent",
    "m_SlotType": 0,
    "m_Hidden": false,
    "m_ShaderOutputName": "Tangent",
    "m_StageCapability": 1,
    "m_Value": {
        "x": 0.0,
        "y": 0.0,
        "z": 0.0
    },
    "m_DefaultValue": {
        "x": 0.0,
        "y": 0.0,
        "z": 0.0
    },
    "m_Labels": [],
    "m_Space": 0
}

{
    "m_SGVersion": 0,
    "m_Type": "UnityEditor.ShaderGraph.Vector1MaterialSlot",
    "m_ObjectId": "3e4e8a455d2e4801a016c2949dfe8915",
    "m_Id": 0,
    "m_DisplayName": "Wear",
    "m_SlotType": 1,
    "m_Hidden": false,
    "m_ShaderOutputName": "Out",
    "m_StageCapability": 3,
    "m_Value": 0.0,
    "m_DefaultValue": 0.0,
    "m_Labels": []
}

{
    "m_SGVersion": 0,
    "m_Type": "UnityEditor.ShaderGraph.Texture2DInputMaterialSlot",
    "m_ObjectId": "407d2092d61e408a979d2656f1f8ccea",
    "m_Id": -1331750282,
    "m_DisplayName": "Texture Map B",
    "m_SlotType": 0,
    "m_Hidden": false,
    "m_ShaderOutputName": "_Texture_Map_B",
    "m_StageCapability": 2,
    "m_BareResource": false,
    "m_Texture": {
        "m_SerializedTexture": "{\"texture\":{\"instanceID\":0}}",
        "m_Guid": ""
    },
    "m_DefaultType": 0
}

{
    "m_SGVersion": 0,
    "m_Type": "UnityEditor.ShaderGraph.Internal.BooleanShaderProperty",
    "m_ObjectId": "455f1e77c8b0403981bbab3bbc0bba66",
    "m_Guid": {
        "m_GuidSerialized": "cc7ecbd9-63f2-4bb5-b849-9e94dc98a3d8"
    },
    "m_Name": "Enable Portal Plane",
    "m_DefaultRefNameVersion": 1,
    "m_RefNameGeneratedByDisplayName": "Enable Portal Plane",
    "m_DefaultReferenceName": "_Enable_Portal_Plane",
    "m_OverrideReferenceName": "",
    "m_GeneratePropertyBlock": true,
    "m_UseCustomSlotLabel": false,
    "m_CustomSlotLabel": "",
    "m_Precision": 0,
    "overrideHLSLDeclaration": false,
    "hlslDeclarationOverride": 0,
    "m_Hidden": false,
    "m_Value": false
}

{
    "m_SGVersion": 0,
    "m_Type": "UnityEditor.ShaderGraph.SubGraphNode",
    "m_ObjectId": "457c5e0b577e446da0dd52f02053c8c9",
    "m_Group": {
        "m_Id": ""
    },
    "m_Name": "Normal Texture Blend",
    "m_DrawState": {
        "m_Expanded": true,
        "m_Position": {
            "serializedVersion": "2",
            "x": 1767.9998779296875,
            "y": 1451.0,
            "width": 225.0001220703125,
            "height": 142.0
        }
    },
    "m_Slots": [
        {
            "m_Id": "38ad4f079578437ca374a94a8bae2ed6"
        },
        {
            "m_Id": "407d2092d61e408a979d2656f1f8ccea"
        },
        {
            "m_Id": "cf9c8416d6814432a44c2efa84b845e6"
        },
        {
            "m_Id": "e0877dab8167485e9343304b78effc1d"
        }
    ],
    "synonyms": [],
    "m_Precision": 0,
    "m_PreviewExpanded": false,
    "m_PreviewMode": 0,
    "m_CustomColors": {
        "m_SerializableColors": []
    },
    "m_SerializedSubGraph": "{\n    \"subGraph\": {\n        \"fileID\": -5475051401550479605,\n        \"guid\": \"941fdec07002b354d81b848ff1b79c74\",\n        \"type\": 3\n    }\n}",
    "m_PropertyGuids": [
        "d866d1f3-83c8-406e-af0c-6b0a04490b7e",
        "dd77cd0a-978e-406f-9c74-c4886e3443a5",
        "b0e536aa-4be2-47c0-a48d-6232e219a309"
    ],
    "m_PropertyIds": [
        -328722544,
        -1331750282,
        -857413362
    ],
    "m_Dropdowns": [],
    "m_DropdownSelectedEntries": []
}

{
    "m_SGVersion": 0,
    "m_Type": "UnityEditor.ShaderGraph.Internal.Texture2DShaderProperty",
    "m_ObjectId": "4841968718e6493690c96524bc0bb8a3",
    "m_Guid": {
        "m_GuidSerialized": "8ac0a44d-7165-48f2-b4c1-0527b272434c"
    },
    "m_Name": "Clean Normal Map",
    "m_DefaultRefNameVersion": 0,
    "m_RefNameGeneratedByDisplayName": "",
    "m_DefaultReferenceName": "Texture2D_4841968718e6493690c96524bc0bb8a3",
    "m_OverrideReferenceName": "",
    "m_GeneratePropertyBlock": true,
    "m_UseCustomSlotLabel": false,
    "m_CustomSlotLabel": "",
    "m_Precision": 0,
    "overrideHLSLDeclaration": false,
    "hlslDeclarationOverride": 0,
    "m_Hidden": false,
    "m_Value": {
        "m_SerializedTexture": "{\"texture\":{\"instanceID\":0}}",
        "m_Guid": ""
    },
    "isMainTexture": false,
    "useTilingAndOffset": false,
    "m_Modifiable": true,
    "m_DefaultType": 0
}

{
    "m_SGVersion": 0,
    "m_Type": "UnityEditor.ShaderGraph.Texture2DInputMaterialSlot",
    "m_ObjectId": "4be9762cb50b4f6abf14f728eca36aef",
    "m_Id": -328722544,
    "m_DisplayName": "Texture Map A",
    "m_SlotType": 0,
    "m_Hidden": false,
    "m_ShaderOutputName": "_Texture_Map_A",
    "m_StageCapability": 2,
    "m_BareResource": false,
    "m_Texture": {
        "m_SerializedTexture": "{\"texture\":{\"instanceID\":0}}",
        "m_Guid": ""
    },
    "m_DefaultType": 0
}

{
    "m_SGVersion": 0,
    "m_Type": "UnityEditor.ShaderGraph.Vector1MaterialSlot",
    "m_ObjectId": "4c15a9e6e690474ba3acaa028114a68f",
    "m_Id": 4,
    "m_DisplayName": "A",
    "m_SlotType": 1,
    "m_Hidden": false,
    "m_ShaderOutputName": "A",
    "m_StageCapability": 3,
    "m_Value": 0.0,
    "m_DefaultValue": 0.0,
    "m_Labels": []
}

{
    "m_SGVersion": 0,
    "m_Type": "UnityEditor.ShaderGraph.Vector1MaterialSlot",
    "m_ObjectId": "52f2fe52ed2c402aad7a6445be4b619f",
    "m_Id": 0,
    "m_DisplayName": "Wear",
    "m_SlotType": 1,
    "m_Hidden": false,
    "m_ShaderOutputName": "Out",
    "m_StageCapability": 3,
    "m_Value": 0.0,
    "m_DefaultValue": 0.0,
    "m_Labels": []
}

{
    "m_SGVersion": 0,
    "m_Type": "UnityEditor.ShaderGraph.Internal.Texture2DShaderProperty",
    "m_ObjectId": "5599b6ef5418454987e1dce72742e6f0",
    "m_Guid": {
        "m_GuidSerialized": "9958a71f-8648-4889-a750-df8b91c38979"
    },
    "m_Name": "Wear Metallic Map",
    "m_DefaultRefNameVersion": 0,
    "m_RefNameGeneratedByDisplayName": "",
    "m_DefaultReferenceName": "Texture2D_5599b6ef5418454987e1dce72742e6f0",
    "m_OverrideReferenceName": "",
    "m_GeneratePropertyBlock": true,
    "m_UseCustomSlotLabel": false,
    "m_CustomSlotLabel": "",
    "m_Precision": 0,
    "overrideHLSLDeclaration": false,
    "hlslDeclarationOverride": 0,
    "m_Hidden": false,
    "m_Value": {
        "m_SerializedTexture": "{\"texture\":{\"instanceID\":0}}",
        "m_Guid": ""
    },
    "isMainTexture": false,
    "useTilingAndOffset": false,
    "m_Modifiable": true,
    "m_DefaultType": 0
}

{
    "m_SGVersion": 0,
    "m_Type": "UnityEditor.ShaderGraph.PropertyNode",
    "m_ObjectId": "5624b66ba022460c851d7929bb79a0c0",
    "m_Group": {
        "m_Id": ""
    },
    "m_Name": "Property",
    "m_DrawState": {
        "m_Expanded": true,
        "m_Position": {
            "serializedVersion": "2",
            "x": 1384.0,
            "y": 1691.9998779296875,
            "width": 181.0,
            "height": 34.0001220703125
        }
    },
    "m_Slots": [
        {
            "m_Id": "017416dd3757431c97c564f0b2841ac9"
        }
    ],
    "synonyms": [],
    "m_Precision": 0,
    "m_PreviewExpanded": true,
    "m_PreviewMode": 0,
    "m_CustomColors": {
        "m_SerializableColors": []
    },
    "m_Property": {
        "m_Id": "5599b6ef5418454987e1dce72742e6f0"
    }
}

{
    "m_SGVersion": 0,
    "m_Type": "UnityEditor.ShaderGraph.Vector1MaterialSlot",
    "m_ObjectId": "5808e82ad7f641bda5f39ef16d88d9f1",
    "m_Id": -857413362,
    "m_DisplayName": "Blend",
    "m_SlotType": 0,
    "m_Hidden": false,
    "m_ShaderOutputName": "_Blend",
    "m_StageCapability": 2,
    "m_Value": 0.0,
    "m_DefaultValue": 0.0,
    "m_Labels": []
}

{
    "m_SGVersion": 0,
    "m_Type": "UnityEditor.ShaderGraph.PositionMaterialSlot",
    "m_ObjectId": "5da8e6f39c0149e6962c4a0b9b640ac1",
    "m_Id": 0,
    "m_DisplayName": "Position",
    "m_SlotType": 0,
    "m_Hidden": false,
    "m_ShaderOutputName": "Position",
    "m_StageCapability": 1,
    "m_Value": {
        "x": 0.0,
        "y": 0.0,
        "z": 0.0
    },
    "m_DefaultValue": {
        "x": 0.0,
        "y": 0.0,
        "z": 0.0
    },
    "m_Labels": [],
    "m_Space": 0
}

{
    "m_SGVersion": 0,
    "m_Type": "UnityEditor.ShaderGraph.Texture2DMaterialSlot",
    "m_ObjectId": "5fb16774de3648b9a4c27c0e54d7f3de",
    "m_Id": 0,
    "m_DisplayName": "Wear Base Map",
    "m_SlotType": 1,
    "m_Hidden": false,
    "m_ShaderOutputName": "Out",
    "m_StageCapability": 3,
    "m_BareResource": false
}

{
    "m_SGVersion": 0,
    "m_Type": "UnityEditor.ShaderGraph.BlockNode",
    "m_ObjectId": "619698bfefad4691b1a0425aeb4ae46d",
    "m_Group": {
        "m_Id": ""
    },
    "m_Name": "SurfaceDescription.AlphaClipThreshold",
    "m_DrawState": {
        "m_Expanded": true,
        "m_Position": {
            "serializedVersion": "2",
            "x": 2372.666748046875,
            "y": 1754.0001220703125,
            "width": 200.0,
            "height": 42.666748046875
        }
    },
    "m_Slots": [
        {
            "m_Id": "677150c02acb45baa1e81bdcc20369fb"
        }
    ],
    "synonyms": [],
    "m_Precision": 0,
    "m_PreviewExpanded": true,
    "m_PreviewMode": 0,
    "m_CustomColors": {
        "m_SerializableColors": []
    },
    "m_SerializedDescriptor": "SurfaceDescription.AlphaClipThreshold"
}

{
    "m_SGVersion": 0,
    "m_Type": "UnityEditor.ShaderGraph.Vector1MaterialSlot",
    "m_ObjectId": "61ce8e2b9c3147db981ad4694d173d84",
    "m_Id": 0,
    "m_DisplayName": "Wear",
    "m_SlotType": 1,
    "m_Hidden": false,
    "m_ShaderOutputName": "Out",
    "m_StageCapability": 3,
    "m_Value": 0.0,
    "m_DefaultValue": 0.0,
    "m_Labels": []
}

{
    "m_SGVersion": 0,
    "m_Type": "UnityEditor.ShaderGraph.SubGraphNode",
    "m_ObjectId": "640a99a3cd4e4bc295a553fbc18b107a",
    "m_Group": {
        "m_Id": ""
    },
    "m_Name": "Texture Blend",
    "m_DrawState": {
        "m_Expanded": true,
        "m_Position": {
            "serializedVersion": "2",
            "x": 1625.0,
            "y": 1628.0,
            "width": 217.0,
            "height": 142.0
        }
    },
    "m_Slots": [
        {
            "m_Id": "e5483ba7b1a4450fbffe2bf3217acd24"
        },
        {
            "m_Id": "aabe591474284e3da205146c10943bc2"
        },
        {
            "m_Id": "cc54143879114f6ab980f3bb37c680db"
        },
        {
            "m_Id": "c2cddfe7ba3a4ac19a699cc6ed23f51b"
        }
    ],
    "synonyms": [],
    "m_Precision": 0,
    "m_PreviewExpanded": false,
    "m_PreviewMode": 0,
    "m_CustomColors": {
        "m_SerializableColors": []
    },
    "m_SerializedSubGraph": "{\n    \"subGraph\": {\n        \"fileID\": -5475051401550479605,\n        \"guid\": \"ab544861df6fca64a97e746874bc760d\",\n        \"type\": 3\n    }\n}",
    "m_PropertyGuids": [
        "d866d1f3-83c8-406e-af0c-6b0a04490b7e",
        "dd77cd0a-978e-406f-9c74-c4886e3443a5",
        "b0e536aa-4be2-47c0-a48d-6232e219a309"
    ],
    "m_PropertyIds": [
        -328722544,
        -1331750282,
        -857413362
    ],
    "m_Dropdowns": [],
    "m_DropdownSelectedEntries": []
}

{
    "m_SGVersion": 1,
    "m_Type": "UnityEditor.Rendering.Universal.ShaderGraph.UniversalTarget",
    "m_ObjectId": "64295f7d26bb4478b8bb4c6ed6079faa",
    "m_ActiveSubTarget": {
        "m_Id": "3211557cba714ff584589555739c05a6"
    },
    "m_AllowMaterialOverride": false,
    "m_SurfaceType": 0,
    "m_ZTestMode": 4,
    "m_ZWriteControl": 0,
    "m_AlphaMode": 0,
    "m_RenderFace": 2,
    "m_AlphaClip": true,
    "m_CastShadows": true,
    "m_ReceiveShadows": true,
    "m_CustomEditorGUI": "",
    "m_SupportVFX": false
}

{
    "m_SGVersion": 0,
    "m_Type": "UnityEditor.ShaderGraph.SplitNode",
    "m_ObjectId": "66f11bb35d4a4ba5a9160b7968fbf6fe",
    "m_Group": {
        "m_Id": ""
    },
    "m_Name": "Split",
    "m_DrawState": {
        "m_Expanded": true,
        "m_Position": {
            "serializedVersion": "2",
            "x": 1879.9998779296875,
            "y": 1628.0,
            "width": 120.0,
            "height": 149.0
        }
    },
    "m_Slots": [
        {
            "m_Id": "d355276a9be54a1b9dbf808bef1cd0af"
        },
        {
            "m_Id": "0eb6a3223155401aa58ee9032816a644"
        },
        {
            "m_Id": "f9967f332d9c43c1bbcf2411bfe73854"
        },
        {
            "m_Id": "7054416f55774992a93306d36e50973a"
        },
        {
            "m_Id": "4c15a9e6e690474ba3acaa028114a68f"
        }
    ],
    "synonyms": [],
    "m_Precision": 0,
    "m_PreviewExpanded": true,
    "m_PreviewMode": 0,
    "m_CustomColors": {
        "m_SerializableColors": []
    }
}

{
    "m_SGVersion": 0,
    "m_Type": "UnityEditor.ShaderGraph.Vector1MaterialSlot",
    "m_ObjectId": "677150c02acb45baa1e81bdcc20369fb",
    "m_Id": 0,
    "m_DisplayName": "Alpha Clip Threshold",
    "m_SlotType": 0,
    "m_Hidden": false,
    "m_ShaderOutputName": "AlphaClipThreshold",
    "m_StageCapability": 2,
    "m_Value": 0.0,
    "m_DefaultValue": 0.5,
    "m_Labels": []
}

{
    "m_SGVersion": 0,
    "m_Type": "UnityEditor.ShaderGraph.Vector1MaterialSlot",
    "m_ObjectId": "683dc5cf10984840bdf925dea821c5e0",
    "m_Id": 0,
    "m_DisplayName": "Alpha",
    "m_SlotType": 0,
    "m_Hidden": false,
    "m_ShaderOutputName": "Alpha",
    "m_StageCapability": 2,
    "m_Value": 1.0,
    "m_DefaultValue": 1.0,
    "m_Labels": []
}

{
    "m_SGVersion": 0,
    "m_Type": "UnityEditor.ShaderGraph.Vector1MaterialSlot",
    "m_ObjectId": "7054416f55774992a93306d36e50973a",
    "m_Id": 3,
    "m_DisplayName": "B",
    "m_SlotType": 1,
    "m_Hidden": false,
    "m_ShaderOutputName": "B",
    "m_StageCapability": 3,
    "m_Value": 0.0,
    "m_DefaultValue": 0.0,
    "m_Labels": []
}

{
    "m_SGVersion": 0,
    "m_Type": "UnityEditor.ShaderGraph.Texture2DMaterialSlot",
    "m_ObjectId": "71b7ca8eaa2f4f43850aa7db21c6ff49",
    "m_Id": 0,
    "m_DisplayName": "Clean Metallic Map",
    "m_SlotType": 1,
    "m_Hidden": false,
    "m_ShaderOutputName": "Out",
    "m_StageCapability": 3,
    "m_BareResource": false
}

{
    "m_SGVersion": 0,
    "m_Type": "UnityEditor.ShaderGraph.BlockNode",
    "m_ObjectId": "71c8a0336763464bba827c60476bb43f",
    "m_Group": {
        "m_Id": ""
    },
    "m_Name": "SurfaceDescription.NormalTS",
    "m_DrawState": {
        "m_Expanded": true,
        "m_Position": {
            "serializedVersion": "2",
            "x": 0.0,
            "y": 0.0,
            "width": 0.0,
            "height": 0.0
        }
    },
    "m_Slots": [
        {
            "m_Id": "abbe76767946478fa64f432a90c4813d"
        }
    ],
    "synonyms": [],
    "m_Precision": 0,
    "m_PreviewExpanded": true,
    "m_PreviewMode": 0,
    "m_CustomColors": {
        "m_SerializableColors": []
    },
    "m_SerializedDescriptor": "SurfaceDescription.NormalTS"
}

{
    "m_SGVersion": 0,
    "m_Type": "UnityEditor.ShaderGraph.BlockNode",
    "m_ObjectId": "730b4d6928f74dd1830cd4e9bd94f47c",
    "m_Group": {
        "m_Id": ""
    },
    "m_Name": "VertexDescription.Position",
    "m_DrawState": {
        "m_Expanded": true,
        "m_Position": {
            "serializedVersion": "2",
            "x": 0.0,
            "y": 0.0,
            "width": 0.0,
            "height": 0.0
        }
    },
    "m_Slots": [
        {
            "m_Id": "5da8e6f39c0149e6962c4a0b9b640ac1"
        }
    ],
    "synonyms": [],
    "m_Precision": 0,
    "m_PreviewExpanded": true,
    "m_PreviewMode": 0,
    "m_CustomColors": {
        "m_SerializableColors": []
    },
    "m_SerializedDescriptor": "VertexDescription.Position"
}

{
    "m_SGVersion": 0,
    "m_Type": "UnityEditor.ShaderGraph.BooleanMaterialSlot",
    "m_ObjectId": "73af5d8c2b9b4d91ae8680d71388ba25",
    "m_Id": -1343654539,
    "m_DisplayName": "Enable Portal Clipping",
    "m_SlotType": 0,
    "m_Hidden": false,
    "m_ShaderOutputName": "_Enable_Portal_Clipping",
    "m_StageCapability": 3,
    "m_Value": false,
    "m_DefaultValue": false
}

{
    "m_SGVersion": 0,
    "m_Type": "UnityEditor.ShaderGraph.BlockNode",
    "m_ObjectId": "7f56a9c4b0a14da4a79e654482297134",
    "m_Group": {
        "m_Id": ""
    },
    "m_Name": "SurfaceDescription.Metallic",
    "m_DrawState": {
        "m_Expanded": true,
        "m_Position": {
            "serializedVersion": "2",
            "x": 0.0,
            "y": 0.0,
            "width": 0.0,
            "height": 0.0
        }
    },
    "m_Slots": [
        {
            "m_Id": "b5ea176ff7ea4ea4b86a0be4c64fd681"
        }
    ],
    "synonyms": [],
    "m_Precision": 0,
    "m_PreviewExpanded": true,
    "m_PreviewMode": 0,
    "m_CustomColors": {
        "m_SerializableColors": []
    },
    "m_SerializedDescriptor": "SurfaceDescription.Metallic"
}

{
    "m_SGVersion": 0,
    "m_Type": "UnityEditor.ShaderGraph.PropertyNode",
    "m_ObjectId": "86b6bbef57e04f579725caefeffa59e6",
    "m_Group": {
        "m_Id": ""
    },
    "m_Name": "Property",
    "m_DrawState": {
        "m_Expanded": true,
        "m_Position": {
            "serializedVersion": "2",
            "x": 1673.3333740234375,
            "y": 1918.6668701171875,
            "width": 179.3333740234375,
            "height": 36.0
        }
    },
    "m_Slots": [
        {
            "m_Id": "970605b8e4d24e29ab07a866801440bb"
        }
    ],
    "synonyms": [],
    "m_Precision": 0,
    "m_PreviewExpanded": true,
    "m_PreviewMode": 0,
    "m_CustomColors": {
        "m_SerializableColors": []
    },
    "m_Property": {
        "m_Id": "455f1e77c8b0403981bbab3bbc0bba66"
    }
}

{
    "m_SGVersion": 0,
    "m_Type": "UnityEditor.ShaderGraph.Texture2DMaterialSlot",
    "m_ObjectId": "9091e72f708e45308900621af92d7cf9",
    "m_Id": 0,
    "m_DisplayName": "Clean Normal Map",
    "m_SlotType": 1,
    "m_Hidden": false,
    "m_ShaderOutputName": "Out",
    "m_StageCapability": 3,
    "m_BareResource": false
}

{
    "m_SGVersion": 0,
    "m_Type": "UnityEditor.ShaderGraph.Vector4MaterialSlot",
    "m_ObjectId": "91abfb9ab4fe4d7b84da188a18623fdd",
    "m_Id": -1493240477,
    "m_DisplayName": "Portal Plane",
    "m_SlotType": 0,
    "m_Hidden": false,
    "m_ShaderOutputName": "_Portal_Plane",
    "m_StageCapability": 3,
    "m_Value": {
        "x": 0.0,
        "y": 0.0,
        "z": 0.0,
        "w": 0.0
    },
    "m_DefaultValue": {
        "x": 0.0,
        "y": 0.0,
        "z": 0.0,
        "w": 0.0
    },
    "m_Labels": []
}

{
    "m_SGVersion": 0,
    "m_Type": "UnityEditor.ShaderGraph.BooleanMaterialSlot",
    "m_ObjectId": "970605b8e4d24e29ab07a866801440bb",
    "m_Id": 0,
    "m_DisplayName": "Enable Portal Plane",
    "m_SlotType": 1,
    "m_Hidden": false,
    "m_ShaderOutputName": "Out",
    "m_StageCapability": 3,
    "m_Value": false,
    "m_DefaultValue": false
}

{
    "m_SGVersion": 1,
    "m_Type": "UnityEditor.ShaderGraph.Internal.Vector4ShaderProperty",
    "m_ObjectId": "97ef0a1dd4c64fd4a9ba90583bff3cf6",
    "m_Guid": {
        "m_GuidSerialized": "c2c36e03-fd4e-43be-881c-8717ff38373d"
    },
    "m_Name": "Portal Plane",
    "m_DefaultRefNameVersion": 1,
    "m_RefNameGeneratedByDisplayName": "Portal Plane",
    "m_DefaultReferenceName": "_Portal_Plane",
    "m_OverrideReferenceName": "",
    "m_GeneratePropertyBlock": true,
    "m_UseCustomSlotLabel": false,
    "m_CustomSlotLabel": "",
    "m_Precision": 0,
    "overrideHLSLDeclaration": false,
    "hlslDeclarationOverride": 0,
    "m_Hidden": false,
    "m_Value": {
        "x": 0.0,
        "y": 0.0,
        "z": 0.0,
        "w": 0.0
    }
}

{
    "m_SGVersion": 0,
    "m_Type": "UnityEditor.ShaderGraph.ColorRGBMaterialSlot",
    "m_ObjectId": "a417a511c996455484d9f54a122cff5c",
    "m_Id": 0,
    "m_DisplayName": "Base Color",
    "m_SlotType": 0,
    "m_Hidden": false,
    "m_ShaderOutputName": "BaseColor",
    "m_StageCapability": 2,
    "m_Value": {
        "x": 0.5,
        "y": 0.5,
        "z": 0.5
    },
    "m_DefaultValue": {
        "x": 0.0,
        "y": 0.0,
        "z": 0.0
    },
    "m_Labels": [],
    "m_ColorMode": 0,
    "m_DefaultColor": {
        "r": 0.5,
        "g": 0.5,
        "b": 0.5,
        "a": 1.0
    }
}

{
    "m_SGVersion": 0,
    "m_Type": "UnityEditor.ShaderGraph.Texture2DInputMaterialSlot",
    "m_ObjectId": "aa43a0f0cbe14bf7b54166839261d376",
    "m_Id": -1331750282,
    "m_DisplayName": "Texture Map B",
    "m_SlotType": 0,
    "m_Hidden": false,
    "m_ShaderOutputName": "_Texture_Map_B",
    "m_StageCapability": 2,
    "m_BareResource": false,
    "m_Texture": {
        "m_SerializedTexture": "{\"texture\":{\"instanceID\":0}}",
        "m_Guid": ""
    },
    "m_DefaultType": 0
}

{
    "m_SGVersion": 0,
    "m_Type": "UnityEditor.ShaderGraph.Texture2DInputMaterialSlot",
    "m_ObjectId": "aabe591474284e3da205146c10943bc2",
    "m_Id": -1331750282,
    "m_DisplayName": "Texture Map B",
    "m_SlotType": 0,
    "m_Hidden": false,
    "m_ShaderOutputName": "_Texture_Map_B",
    "m_StageCapability": 2,
    "m_BareResource": false,
    "m_Texture": {
        "m_SerializedTexture": "{\"texture\":{\"instanceID\":0}}",
        "m_Guid": ""
    },
    "m_DefaultType": 0
}

{
    "m_SGVersion": 0,
    "m_Type": "UnityEditor.ShaderGraph.NormalMaterialSlot",
    "m_ObjectId": "abbe76767946478fa64f432a90c4813d",
    "m_Id": 0,
    "m_DisplayName": "Normal (Tangent Space)",
    "m_SlotType": 0,
    "m_Hidden": false,
    "m_ShaderOutputName": "NormalTS",
    "m_StageCapability": 2,
    "m_Value": {
        "x": 0.0,
        "y": 0.0,
        "z": 0.0
    },
    "m_DefaultValue": {
        "x": 0.0,
        "y": 0.0,
        "z": 0.0
    },
    "m_Labels": [],
    "m_Space": 3
}

{
    "m_SGVersion": 0,
    "m_Type": "UnityEditor.ShaderGraph.PropertyNode",
    "m_ObjectId": "b5098cdf3b61459ca8187a2ad3c9e11c",
    "m_Group": {
        "m_Id": ""
    },
    "m_Name": "Property",
    "m_DrawState": {
        "m_Expanded": true,
        "m_Position": {
            "serializedVersion": "2",
            "x": 1618.0,
            "y": 1547.9998779296875,
            "width": 103.0,
            "height": 34.0001220703125
        }
    },
    "m_Slots": [
        {
            "m_Id": "3e4e8a455d2e4801a016c2949dfe8915"
        }
    ],
    "synonyms": [],
    "m_Precision": 0,
    "m_PreviewExpanded": true,
    "m_PreviewMode": 0,
    "m_CustomColors": {
        "m_SerializableColors": []
    },
    "m_Property": {
        "m_Id": "0d8713b6960943a5ab619ab5f1826be9"
    }
}

{
    "m_SGVersion": 0,
    "m_Type": "UnityEditor.ShaderGraph.Vector1MaterialSlot",
    "m_ObjectId": "b5ea176ff7ea4ea4b86a0be4c64fd681",
    "m_Id": 0,
    "m_DisplayName": "Metallic",
    "m_SlotType": 0,
    "m_Hidden": false,
    "m_ShaderOutputName": "Metallic",
    "m_StageCapability": 2,
    "m_Value": 0.0,
    "m_DefaultValue": 0.0,
    "m_Labels": []
}

{
    "m_SGVersion": 0,
    "m_Type": "UnityEditor.ShaderGraph.SubGraphNode",
    "m_ObjectId": "c1179177c82d4585b7e0f9bf15fc8214",
    "m_Group": {
        "m_Id": ""
    },
    "m_Name": "Texture Blend",
    "m_DrawState": {
        "m_Expanded": true,
        "m_Position": {
            "serializedVersion": "2",
            "x": 1783.0,
            "y": 1240.0,
            "width": 216.9998779296875,
            "height": 142.0
        }
    },
    "m_Slots": [
        {
            "m_Id": "4be9762cb50b4f6abf14f728eca36aef"
        },
        {
            "m_Id": "aa43a0f0cbe14bf7b54166839261d376"
        },
        {
            "m_Id": "5808e82ad7f641bda5f39ef16d88d9f1"
        },
        {
            "m_Id": "e5ec10c2c022499f9897971c1cae6a6e"
        }
    ],
    "synonyms": [],
    "m_Precision": 0,
    "m_PreviewExpanded": false,
    "m_PreviewMode": 0,
    "m_CustomColors": {
        "m_SerializableColors": []
    },
    "m_SerializedSubGraph": "{\n    \"subGraph\": {\n        \"fileID\": -5475051401550479605,\n        \"guid\": \"ab544861df6fca64a97e746874bc760d\",\n        \"type\": 3\n    }\n}",
    "m_PropertyGuids": [
        "d866d1f3-83c8-406e-af0c-6b0a04490b7e",
        "dd77cd0a-978e-406f-9c74-c4886e3443a5",
        "b0e536aa-4be2-47c0-a48d-6232e219a309"
    ],
    "m_PropertyIds": [
        -328722544,
        -1331750282,
        -857413362
    ],
    "m_Dropdowns": [],
    "m_DropdownSelectedEntries": []
}

{
    "m_SGVersion": 0,
    "m_Type": "UnityEditor.ShaderGraph.Vector4MaterialSlot",
    "m_ObjectId": "c2cddfe7ba3a4ac19a699cc6ed23f51b",
    "m_Id": 1,
    "m_DisplayName": "RGBA",
    "m_SlotType": 1,
    "m_Hidden": false,
    "m_ShaderOutputName": "RGBA",
    "m_StageCapability": 2,
    "m_Value": {
        "x": 0.0,
        "y": 0.0,
        "z": 0.0,
        "w": 0.0
    },
    "m_DefaultValue": {
        "x": 0.0,
        "y": 0.0,
        "z": 0.0,
        "w": 0.0
    },
    "m_Labels": []
}

{
    "m_SGVersion": 0,
    "m_Type": "UnityEditor.ShaderGraph.PropertyNode",
    "m_ObjectId": "c2d41272d71d4aa9a885eb8f140ed942",
    "m_Group": {
        "m_Id": ""
    },
    "m_Name": "Property",
    "m_DrawState": {
        "m_Expanded": true,
        "m_Position": {
            "serializedVersion": "2",
            "x": 1462.0,
            "y": 1726.0,
            "width": 103.0,
            "height": 34.0
        }
    },
    "m_Slots": [
        {
            "m_Id": "61ce8e2b9c3147db981ad4694d173d84"
        }
    ],
    "synonyms": [],
    "m_Precision": 0,
    "m_PreviewExpanded": true,
    "m_PreviewMode": 0,
    "m_CustomColors": {
        "m_SerializableColors": []
    },
    "m_Property": {
        "m_Id": "0d8713b6960943a5ab619ab5f1826be9"
    }
}

{
    "m_SGVersion": 0,
    "m_Type": "UnityEditor.ShaderGraph.ColorRGBMaterialSlot",
    "m_ObjectId": "c7ce17c2695748e98a7d11d48be84497",
    "m_Id": 0,
    "m_DisplayName": "Emission",
    "m_SlotType": 0,
    "m_Hidden": false,
    "m_ShaderOutputName": "Emission",
    "m_StageCapability": 2,
    "m_Value": {
        "x": 0.0,
        "y": 0.0,
        "z": 0.0
    },
    "m_DefaultValue": {
        "x": 0.0,
        "y": 0.0,
        "z": 0.0
    },
    "m_Labels": [],
    "m_ColorMode": 1,
    "m_DefaultColor": {
        "r": 0.0,
        "g": 0.0,
        "b": 0.0,
        "a": 1.0
    }
}

{
    "m_SGVersion": 0,
    "m_Type": "UnityEditor.ShaderGraph.Vector4MaterialSlot",
    "m_ObjectId": "c884febd6cd94866ab5a895a0e9f011a",
    "m_Id": 0,
    "m_DisplayName": "Portal Plane",
    "m_SlotType": 1,
    "m_Hidden": false,
    "m_ShaderOutputName": "Out",
    "m_StageCapability": 3,
    "m_Value": {
        "x": 0.0,
        "y": 0.0,
        "z": 0.0,
        "w": 0.0
    },
    "m_DefaultValue": {
        "x": 0.0,
        "y": 0.0,
        "z": 0.0,
        "w": 0.0
    },
    "m_Labels": []
}

{
    "m_SGVersion": 0,
    "m_Type": "UnityEditor.ShaderGraph.CategoryData",
    "m_ObjectId": "cc0a2e290cae4beeac31c60f3eda8e97",
    "m_Name": "",
    "m_ChildObjectList": [
        {
            "m_Id": "0d8713b6960943a5ab619ab5f1826be9"
        },
        {
            "m_Id": "0ef2b90d33104deb801d90b1d65b9044"
        },
        {
            "m_Id": "4841968718e6493690c96524bc0bb8a3"
        },
        {
            "m_Id": "0372eda6e32d4c309e31d6e289d8e0c3"
        },
        {
            "m_Id": "f3a5a9313eec4f3da2f988299dc25026"
        },
        {
            "m_Id": "e136e0c8c16546588ca9029e44a8bde2"
        },
        {
            "m_Id": "5599b6ef5418454987e1dce72742e6f0"
        },
        {
            "m_Id": "455f1e77c8b0403981bbab3bbc0bba66"
        },
        {
            "m_Id": "97ef0a1dd4c64fd4a9ba90583bff3cf6"
        }
    ]
}

{
    "m_SGVersion": 0,
    "m_Type": "UnityEditor.ShaderGraph.Vector1MaterialSlot",
    "m_ObjectId": "cc54143879114f6ab980f3bb37c680db",
    "m_Id": -857413362,
    "m_DisplayName": "Blend",
    "m_SlotType": 0,
    "m_Hidden": false,
    "m_ShaderOutputName": "_Blend",
    "m_StageCapability": 2,
    "m_Value": 0.0,
    "m_DefaultValue": 0.0,
    "m_Labels": []
}

{
    "m_SGVersion": 0,
    "m_Type": "UnityEditor.ShaderGraph.Texture2DMaterialSlot",
    "m_ObjectId": "cddc006f7dda4c9abca5a382a74b0809",
    "m_Id": 0,
    "m_DisplayName": "Clean Base Map",
    "m_SlotType": 1,
    "m_Hidden": false,
    "m_ShaderOutputName": "Out",
    "m_StageCapability": 3,
    "m_BareResource": false
}

{
    "m_SGVersion": 0,
    "m_Type": "UnityEditor.ShaderGraph.PropertyNode",
    "m_ObjectId": "ce69ce2e32a54aceb342290a53598365",
    "m_Group": {
        "m_Id": ""
    },
    "m_Name": "Property",
    "m_DrawState": {
        "m_Expanded": true,
        "m_Position": {
            "serializedVersion": "2",
            "x": 1544.0,
            "y": 1480.0,
            "width": 180.0,
            "height": 34.0
        }
    },
    "m_Slots": [
        {
            "m_Id": "9091e72f708e45308900621af92d7cf9"
        }
    ],
    "synonyms": [],
    "m_Precision": 0,
    "m_PreviewExpanded": true,
    "m_PreviewMode": 0,
    "m_CustomColors": {
        "m_SerializableColors": []
    },
    "m_Property": {
        "m_Id": "4841968718e6493690c96524bc0bb8a3"
    }
}

{
    "m_SGVersion": 0,
    "m_Type": "UnityEditor.ShaderGraph.PropertyNode",
    "m_ObjectId": "cf1e0670a1bf498b9fce0eda42478c23",
    "m_Group": {
        "m_Id": ""
    },
    "m_Name": "Property",
    "m_DrawState": {
        "m_Expanded": true,
        "m_Position": {
            "serializedVersion": "2",
            "x": 1382.0,
            "y": 1658.0,
            "width": 183.0,
            "height": 33.9998779296875
        }
    },
    "m_Slots": [
        {
            "m_Id": "71b7ca8eaa2f4f43850aa7db21c6ff49"
        }
    ],
    "synonyms": [],
    "m_Precision": 0,
    "m_PreviewExpanded": true,
    "m_PreviewMode": 0,
    "m_CustomColors": {
        "m_SerializableColors": []
    },
    "m_Property": {
        "m_Id": "0372eda6e32d4c309e31d6e289d8e0c3"
    }
}

{
    "m_SGVersion": 0,
    "m_Type": "UnityEditor.ShaderGraph.Vector1MaterialSlot",
    "m_ObjectId": "cf9c8416d6814432a44c2efa84b845e6",
    "m_Id": -857413362,
    "m_DisplayName": "Blend",
    "m_SlotType": 0,
    "m_Hidden": false,
    "m_ShaderOutputName": "_Blend",
    "m_StageCapability": 2,
    "m_Value": 0.0,
    "m_DefaultValue": 0.0,
    "m_Labels": []
}

{
    "m_SGVersion": 0,
    "m_Type": "UnityEditor.ShaderGraph.DynamicVectorMaterialSlot",
    "m_ObjectId": "d355276a9be54a1b9dbf808bef1cd0af",
    "m_Id": 0,
    "m_DisplayName": "In",
    "m_SlotType": 0,
    "m_Hidden": false,
    "m_ShaderOutputName": "In",
    "m_StageCapability": 3,
    "m_Value": {
        "x": 0.0,
        "y": 0.0,
        "z": 0.0,
        "w": 0.0
    },
    "m_DefaultValue": {
        "x": 0.0,
        "y": 0.0,
        "z": 0.0,
        "w": 0.0
    }
}

{
    "m_SGVersion": 0,
    "m_Type": "UnityEditor.ShaderGraph.BlockNode",
    "m_ObjectId": "d39de7f4d9cd47e0a6c921f67796af95",
    "m_Group": {
        "m_Id": ""
    },
    "m_Name": "SurfaceDescription.Occlusion",
    "m_DrawState": {
        "m_Expanded": true,
        "m_Position": {
            "serializedVersion": "2",
            "x": 0.0,
            "y": 0.0,
            "width": 0.0,
            "height": 0.0
        }
    },
    "m_Slots": [
        {
            "m_Id": "356195c1122e439995ad497244755513"
        }
    ],
    "synonyms": [],
    "m_Precision": 0,
    "m_PreviewExpanded": true,
    "m_PreviewMode": 0,
    "m_CustomColors": {
        "m_SerializableColors": []
    },
    "m_SerializedDescriptor": "SurfaceDescription.Occlusion"
}

{
    "m_SGVersion": 0,
    "m_Type": "UnityEditor.ShaderGraph.Texture2DMaterialSlot",
    "m_ObjectId": "d7165839c4c6486c84b7948d7a006298",
    "m_Id": 0,
    "m_DisplayName": "Wear Normal Map",
    "m_SlotType": 1,
    "m_Hidden": false,
    "m_ShaderOutputName": "Out",
    "m_StageCapability": 3,
    "m_BareResource": false
}

{
    "m_SGVersion": 0,
    "m_Type": "UnityEditor.ShaderGraph.Vector3MaterialSlot",
    "m_ObjectId": "e0877dab8167485e9343304b78effc1d",
    "m_Id": 1,
    "m_DisplayName": "Normal",
    "m_SlotType": 1,
    "m_Hidden": false,
    "m_ShaderOutputName": "Normal",
    "m_StageCapability": 2,
    "m_Value": {
        "x": 0.0,
        "y": 0.0,
        "z": 0.0
    },
    "m_DefaultValue": {
        "x": 0.0,
        "y": 0.0,
        "z": 0.0
    },
    "m_Labels": []
}

{
    "m_SGVersion": 0,
    "m_Type": "UnityEditor.ShaderGraph.Internal.Texture2DShaderProperty",
    "m_ObjectId": "e136e0c8c16546588ca9029e44a8bde2",
    "m_Guid": {
        "m_GuidSerialized": "83caa66d-aad7-450f-9628-a378b874ecd2"
    },
    "m_Name": "Wear Normal Map",
    "m_DefaultRefNameVersion": 0,
    "m_RefNameGeneratedByDisplayName": "",
    "m_DefaultReferenceName": "Texture2D_e136e0c8c16546588ca9029e44a8bde2",
    "m_OverrideReferenceName": "",
    "m_GeneratePropertyBlock": true,
    "m_UseCustomSlotLabel": false,
    "m_CustomSlotLabel": "",
    "m_Precision": 0,
    "overrideHLSLDeclaration": false,
    "hlslDeclarationOverride": 0,
    "m_Hidden": false,
    "m_Value": {
        "m_SerializedTexture": "{\"texture\":{\"instanceID\":0}}",
        "m_Guid": ""
    },
    "isMainTexture": false,
    "useTilingAndOffset": false,
    "m_Modifiable": true,
    "m_DefaultType": 0
}

{
    "m_SGVersion": 0,
    "m_Type": "UnityEditor.ShaderGraph.Texture2DInputMaterialSlot",
    "m_ObjectId": "e5483ba7b1a4450fbffe2bf3217acd24",
    "m_Id": -328722544,
    "m_DisplayName": "Texture Map A",
    "m_SlotType": 0,
    "m_Hidden": false,
    "m_ShaderOutputName": "_Texture_Map_A",
    "m_StageCapability": 2,
    "m_BareResource": false,
    "m_Texture": {
        "m_SerializedTexture": "{\"texture\":{\"instanceID\":0}}",
        "m_Guid": ""
    },
    "m_DefaultType": 0
}

{
    "m_SGVersion": 0,
    "m_Type": "UnityEditor.ShaderGraph.Vector4MaterialSlot",
    "m_ObjectId": "e5ec10c2c022499f9897971c1cae6a6e",
    "m_Id": 1,
    "m_DisplayName": "RGBA",
    "m_SlotType": 1,
    "m_Hidden": false,
    "m_ShaderOutputName": "RGBA",
    "m_StageCapability": 2,
    "m_Value": {
        "x": 0.0,
        "y": 0.0,
        "z": 0.0,
        "w": 0.0
    },
    "m_DefaultValue": {
        "x": 0.0,
        "y": 0.0,
        "z": 0.0,
        "w": 0.0
    },
    "m_Labels": []
}

{
    "m_SGVersion": 0,
    "m_Type": "UnityEditor.ShaderGraph.BlockNode",
    "m_ObjectId": "e8bde906e29c48c6a7592c2e7063b3da",
    "m_Group": {
        "m_Id": ""
    },
    "m_Name": "VertexDescription.Normal",
    "m_DrawState": {
        "m_Expanded": true,
        "m_Position": {
            "serializedVersion": "2",
            "x": 0.0,
            "y": 0.0,
            "width": 0.0,
            "height": 0.0
        }
    },
    "m_Slots": [
        {
            "m_Id": "306c4d4f45224f22b7f317168e6c0f93"
        }
    ],
    "synonyms": [],
    "m_Precision": 0,
    "m_PreviewExpanded": true,
    "m_PreviewMode": 0,
    "m_CustomColors": {
        "m_SerializableColors": []
    },
    "m_SerializedDescriptor": "VertexDescription.Normal"
}

{
    "m_SGVersion": 0,
    "m_Type": "UnityEditor.ShaderGraph.BlockNode",
    "m_ObjectId": "e9a73bcc2c11465086e7849945001794",
    "m_Group": {
        "m_Id": ""
    },
    "m_Name": "SurfaceDescription.Smoothness",
    "m_DrawState": {
        "m_Expanded": true,
        "m_Position": {
            "serializedVersion": "2",
            "x": 0.0,
            "y": 0.0,
            "width": 0.0,
            "height": 0.0
        }
    },
    "m_Slots": [
        {
            "m_Id": "fc2876d8fb80479eb056b2227934f7c7"
        }
    ],
    "synonyms": [],
    "m_Precision": 0,
    "m_PreviewExpanded": true,
    "m_PreviewMode": 0,
    "m_CustomColors": {
        "m_SerializableColors": []
    },
    "m_SerializedDescriptor": "SurfaceDescription.Smoothness"
}

{
    "m_SGVersion": 0,
    "m_Type": "UnityEditor.ShaderGraph.Internal.Texture2DShaderProperty",
    "m_ObjectId": "f3a5a9313eec4f3da2f988299dc25026",
    "m_Guid": {
        "m_GuidSerialized": "e1e3cbee-7434-472a-84b2-6fa9dd690fc0"
    },
    "m_Name": "Wear Base Map",
    "m_DefaultRefNameVersion": 0,
    "m_RefNameGeneratedByDisplayName": "",
    "m_DefaultReferenceName": "Texture2D_f3a5a9313eec4f3da2f988299dc25026",
    "m_OverrideReferenceName": "",
    "m_GeneratePropertyBlock": true,
    "m_UseCustomSlotLabel": false,
    "m_CustomSlotLabel": "",
    "m_Precision": 0,
    "overrideHLSLDeclaration": false,
    "hlslDeclarationOverride": 0,
    "m_Hidden": false,
    "m_Value": {
        "m_SerializedTexture": "{\"texture\":{\"instanceID\":0}}",
        "m_Guid": ""
    },
    "isMainTexture": false,
    "useTilingAndOffset": false,
    "m_Modifiable": true,
    "m_DefaultType": 0
}

{
    "m_SGVersion": 0,
    "m_Type": "UnityEditor.ShaderGraph.Vector1MaterialSlot",
    "m_ObjectId": "f9967f332d9c43c1bbcf2411bfe73854",
    "m_Id": 2,
    "m_DisplayName": "G",
    "m_SlotType": 1,
    "m_Hidden": false,
    "m_ShaderOutputName": "G",
    "m_StageCapability": 3,
    "m_Value": 0.0,
    "m_DefaultValue": 0.0,
    "m_Labels": []
}

{
    "m_SGVersion": 0,
    "m_Type": "UnityEditor.ShaderGraph.Vector1MaterialSlot",
    "m_ObjectId": "fc2876d8fb80479eb056b2227934f7c7",
    "m_Id": 0,
    "m_DisplayName": "Smoothness",
    "m_SlotType": 0,
    "m_Hidden": false,
    "m_ShaderOutputName": "Smoothness",
    "m_StageCapability": 2,
    "m_Value": 0.0,
    "m_DefaultValue": 0.5,
    "m_Labels": []
}

{
    "m_SGVersion": 0,
    "m_Type": "UnityEditor.ShaderGraph.PropertyNode",
    "m_ObjectId": "fc4d6a51e5cd421090431fcd48e0cb6d",
    "m_Group": {
        "m_Id": ""
    },
    "m_Name": "Property",
    "m_DrawState": {
        "m_Expanded": true,
        "m_Position": {
            "serializedVersion": "2",
            "x": 1712.0001220703125,
            "y": 1882.6668701171875,
            "width": 140.6666259765625,
            "height": 36.0
        }
    },
    "m_Slots": [
        {
            "m_Id": "c884febd6cd94866ab5a895a0e9f011a"
        }
    ],
    "synonyms": [],
    "m_Precision": 0,
    "m_PreviewExpanded": true,
    "m_PreviewMode": 0,
    "m_CustomColors": {
        "m_SerializableColors": []
    },
    "m_Property": {
        "m_Id": "97ef0a1dd4c64fd4a9ba90583bff3cf6"
    }
}

