%YAML 1.1
%TAG !u! tag:unity3d.com,2011:
--- !u!114 &11400000
MonoBehaviour:
  m_ObjectHideFlags: 0
  m_CorrespondingSourceObject: {fileID: 0}
  m_PrefabInstance: {fileID: 0}
  m_PrefabAsset: {fileID: 0}
  m_GameObject: {fileID: 0}
  m_Enabled: 1
  m_EditorHideFlags: 0
  m_Script: {fileID: 11500000, guid: e89e7d9eb92794547a1ae2b3d0696334, type: 3}
  m_Name: Door_Blocked_Entity - Metadata
  m_EditorClassIdentifier: 
  _resourceKey: Entities/Building/Door_Blocked_Entity
  _metadataComponents:
  - rid: 2767732033419739136
  references:
    version: 2
    RefIds:
    - rid: 2767732033419739136
      type: {class: DynamicEntityMetadata, ns: Game.Core.Entity, asm: Game.Core}
      data:
        _fadeInOnSpawn: 0
        _meshBoundsCenter: {x: 0.006870389, y: 1.1343029, z: 0.06946421}
        _meshBoundsSize: {x: 1.1644747, y: 2.2686057, z: 0.20205894}
