%YAML 1.1
%TAG !u! tag:unity3d.com,2011:
--- !u!114 &11400000
MonoBehaviour:
  m_ObjectHideFlags: 0
  m_CorrespondingSourceObject: {fileID: 0}
  m_PrefabInstance: {fileID: 0}
  m_PrefabAsset: {fileID: 0}
  m_GameObject: {fileID: 0}
  m_Enabled: 1
  m_EditorHideFlags: 0
  m_Script: {fileID: 11500000, guid: f1a267225dab6c248bf2f9414b9dc804, type: 3}
  m_Name: Bear Trap Close
  m_EditorClassIdentifier: 
  _audioClips:
  - {fileID: 8300000, guid: 42789329073cb3949b37ba8b06a9ac54, type: 3}
  - {fileID: 8300000, guid: 4e5eba8f35caad44f9f2b20944b6a719, type: 3}
  - {fileID: 8300000, guid: 964ce31d3c48486458fe419ce0b10c02, type: 3}
