%YAML 1.1
%TAG !u! tag:unity3d.com,2011:
--- !u!114 &11400000
MonoBehaviour:
  m_ObjectHideFlags: 0
  m_CorrespondingSourceObject: {fileID: 0}
  m_PrefabInstance: {fileID: 0}
  m_PrefabAsset: {fileID: 0}
  m_GameObject: {fileID: 0}
  m_Enabled: 1
  m_EditorHideFlags: 0
  m_Script: {fileID: 11500000, guid: f1a267225dab6c248bf2f9414b9dc804, type: 3}
  m_Name: Drawer Shut
  m_EditorClassIdentifier: 
  _audioClips:
  - {fileID: 8300000, guid: 96bbcfd5f4c6a5641aa0360c0457f024, type: 3}
  - {fileID: 8300000, guid: aafec46216cc81c48858d2f91894514a, type: 3}
