%YAML 1.1
%TAG !u! tag:unity3d.com,2011:
--- !u!114 &11400000
MonoBehaviour:
  m_ObjectHideFlags: 0
  m_CorrespondingSourceObject: {fileID: 0}
  m_PrefabInstance: {fileID: 0}
  m_PrefabAsset: {fileID: 0}
  m_GameObject: {fileID: 0}
  m_Enabled: 1
  m_EditorHideFlags: 0
  m_Script: {fileID: 11500000, guid: e89e7d9eb92794547a1ae2b3d0696334, type: 3}
  m_Name: BottleChunk05 - Metadata
  m_EditorClassIdentifier: 
  _resourceKey: Entities/Bottles/Soda/BottleChunk05
  _metadataComponents:
  - rid: 371909367028252686
  references:
    version: 2
    RefIds:
    - rid: 371909367028252686
      type: {class: DynamicEntityMetadata, ns: Game.Core.Entity, asm: Game.Core}
      data:
        _fadeInOnSpawn: 0
        _meshBoundsCenter: {x: -0.0028466955, y: -0.0002802238, z: -0.0010642223}
        _meshBoundsSize: {x: 0.07475399, y: 0.13704085, z: 0.0569225}
